%!PS-Adobe-2.0 EPSF-2.0
%%BoundingBox: 0 0 775 381
%%EndComments

gsave

/threshold 0.05 def

% RGB color command - r g b C
/C { setrgbcolor } bind def

% Point - x_center y_center PointSize/2 0 360 r g b P
/P { C arc fill } bind def

% Segment - x2 y2 x1 y1 r g b S
/S { C moveto lineto stroke } bind def

% Flat-shaded triangle - x3 y3 x2 y2 x1 y1 r g b T
/T { C newpath moveto lineto lineto closepath fill } bind def
% The gouraudtriangle PostScript fragement below is free
% written by Frederic Delhoume (delhoume@ilog.fr)
/bd{bind def}bind def /triangle { aload pop   setrgbcolor  aload pop 5 3
roll 4 2 roll 3 2 roll exch moveto lineto lineto closepath fill } bd
/computediff1 { 2 copy sub abs threshold ge {pop pop pop true} { exch 2
index sub abs threshold ge { pop pop true} { sub abs threshold ge } ifelse
} ifelse } bd /computediff3 { 3 copy 0 get 3 1 roll 0 get 3 1 roll 0 get
computediff1 {true} { 3 copy 1 get 3 1 roll 1 get 3 1 roll 1 get
computediff1 {true} { 3 copy 2 get 3 1 roll  2 get 3 1 roll 2 get
computediff1 } ifelse } ifelse } bd /middlecolor { aload pop 4 -1 roll
aload pop 4 -1 roll add 2 div 5 1 roll 3 -1 roll add 2 div 3 1 roll add 2
div 3 1 roll exch 3 array astore } bd /gouraudtriangle { computediff3 { 4
-1 roll aload 7 1 roll 6 -1 roll pop 3 -1 roll pop add 2 div 3 1 roll add
2 div exch 3 -1 roll aload 7 1 roll exch pop 4 -1 roll pop add 2 div 3 1
roll add 2 div exch 3 -1 roll aload 7 1 roll pop 3 -1 roll pop add 2 div 3
1 roll add 2 div exch 7 3 roll 10 -3 roll dup 3 index middlecolor 4 1 roll
2 copy middlecolor 4 1 roll 3 copy pop middlecolor 4 1 roll 13 -1 roll
aload pop 17 index 6 index 15 index 19 index 6 index 17 index 6 array
astore 10 index 10 index 14 index gouraudtriangle 17 index 5 index 17
index 19 index 5 index 19 index 6 array astore 10 index 9 index 13 index
gouraudtriangle 13 index 16 index 5 index 15 index 18 index 5 index 6
array astore 12 index 12 index 9 index gouraudtriangle 17 index 16 index
15 index 19 index 18 index 17 index 6 array astore 10 index 12 index 14
index gouraudtriangle 18 {pop} repeat } { aload pop 5 3 roll aload pop 7 3
roll aload pop 9 3 roll 8 index 6 index 4 index add add 3 div 10 1 roll 7
index 5 index 3 index add add 3 div 10 1 roll 6 index 4 index 2 index add
add 3 div 10 1 roll 9 {pop} repeat 3 array astore triangle } ifelse } bd

0.1 setlinewidth
0 0 0 setrgbcolor
0 0 775 381 rectfill

412 163.625 408.75 165.813 446.438 223.688 0 0.490196 0.752941 T
382.563 134.938 372.125 131 408.75 165.813 0 0.494118 0.760784 T
412 163.625 382.563 134.938 408.75 165.813 0 0.486275 0.745098 T
445.938 215.5 412 163.625 446.438 223.688 0 0.490196 0.752941 T
443.438 138 403.5 98 430 149.25 0 0.772549 1 T
430 149.25 412 163.625 445.938 215.5 0 0.803922 1 T
443.438 138 430 149.25 465.313 202.063 0 0.776471 1 T
484.25 197.875 443.438 138 465.313 202.063 0 0.772549 1 T
430 149.25 398.813 118.188 412 163.625 0 0.796079 1 T
398.813 118.188 382.563 134.938 412 163.625 0 0.796079 1 T
367.813 129.438 348.125 124.625 372.125 131 0 0.45098 0.67451 T
445.938 215.5 446.438 223.688 468.688 277.938 0 0.45098 0.67451 T
403.5 98 398.813 118.188 430 149.25 0 0.772549 1 T
465.313 202.063 430 149.25 445.938 215.5 0 0.803922 1 T
398.813 118.188 380.438 109.625 382.563 134.938 0 0.666667 1 T
403.5 98 372.188 84.75 398.813 118.188 0 0.72549 1 T
380.438 109.625 367.813 129.438 382.563 134.938 0 0.658824 1 T
465.313 202.063 445.938 215.5 464.625 260.188 0 0.721569 1 T
464.625 260.188 445.938 215.5 468.688 277.938 0 0.45098 0.678431 T
484.25 197.875 465.313 202.063 485.5 245.625 0 0.729412 1 T
372.188 84.75 380.438 109.625 398.813 118.188 0 0.701961 1 T
510.188 249.938 484.25 197.875 485.5 245.625 0 0.729412 1 T
485.5 245.625 465.313 202.063 464.625 260.188 0 0.721569 1 T
353.25 238 331.625 254.688 347.5 242.875 0 0.45098 0.67451 T
351.688 81.0625 323.813 94.5 372.188 84.75 0 0.65098 1 T
380.438 109.625 367.188 113.313 367.813 129.438 0 0.513726 0.8 T
342.25 298.375 346.563 297.063 382.75 271.875 0 0.52549 0.823529 T
367.188 113.313 360.688 134.875 367.813 129.438 0 0.486275 0.74902 T
370.25 216.875 353.25 238 366.938 224.25 0 0.47451 0.72549 T
372.188 84.75 348.438 92.3125 380.438 109.625 0 0.694118 1 T
296.188 302.188 291.688 304.875 346.563 297.063 0 0.560784 0.901961 T
385.875 192.875 370.25 216.875 384 200.25 0 0.482353 0.741176 T
323.813 94.5 348.438 92.3125 372.188 84.75 0 0.584314 0.941177 T
348.438 92.3125 367.188 113.313 380.438 109.625 0 0.654902 1 T
485.5 245.625 464.625 260.188 464.938 277.938 0 0.521569 0.815686 T
326.563 253.563 304.188 254.813 331.813 275.75 0 0.745098 1 T
347.5 242.875 326.563 253.563 360.438 263.938 0 0.788235 1 T
370.25 216.875 366.938 224.25 384 200.25 0 0.470588 0.717647 T
510.188 249.938 485.5 245.625 486.375 260.125 0 0.603922 0.984314 T
331.813 275.75 342.25 298.375 378.75 278.688 0.0196078 0.847059 1 T
401.375 166.375 385.875 192.875 399.875 173.313 0 0.478431 0.733333 T
304.188 254.813 272.938 236.75 302.75 275.938 0 0.619608 1 T
304.188 254.813 302.75 275.938 331.813 275.75 0 0.705882 1 T
326.563 253.563 331.813 275.75 360.438 263.938 0 0.74902 1 T
367.188 113.313 357.188 128.813 360.688 134.875 0 0.458824 0.690196 T
360.438 263.938 378.75 278.688 405.625 252.5 0 0.803922 1 T
357.188 128.813 356.125 149.5 360.688 134.875 0 0.458824 0.690196 T
360.438 263.938 331.813 275.75 378.75 278.688 0 0.788235 1 T
302.75 275.938 296.188 302.188 342.25 298.375 0.0784314 0.913726 1 T
331.813 275.75 302.75 275.938 342.25 298.375 0.0196078 0.85098 1 T
366.938 224.25 347.5 242.875 385.125 242.813 0 0.8 1 T
385.875 192.875 384 200.25 399.875 173.313 0 0.478431 0.733333 T
486.375 260.125 485.5 245.625 464.938 277.938 0 0.505882 0.784314 T
347.5 242.875 360.438 263.938 385.125 242.813 0 0.784314 1 T
296.188 302.188 244.125 276.188 291.688 304.875 0 0.623529 1 T
385.125 242.813 405.625 252.5 425.938 224.75 0 0.776471 1 T
385.125 242.813 360.438 263.938 405.625 252.5 0 0.768628 1 T
323.813 94.5 307.563 120.625 348.438 92.3125 0 0.717647 1 T
244.125 276.188 228.563 274.875 291.688 304.875 0 0.631373 1 T
514.625 270.75 510.188 249.938 486.375 260.125 0 0.588235 0.952941 T
417.813 137.313 401.375 166.375 416.75 145.063 0 0.486275 0.74902 T
384 200.25 366.938 224.25 404.688 216.938 0 0.8 1 T
272.938 236.75 267.313 256.125 302.75 275.938 0 0.615686 1 T
348.438 92.3125 332.25 113.5 367.188 113.313 0 0.709804 1 T
302.75 275.938 267.313 256.125 296.188 302.188 0 0.811765 1 T
366.938 224.25 385.125 242.813 404.688 216.938 0 0.796079 1 T
401.375 166.375 399.875 173.313 416.75 145.063 0 0.478431 0.733333 T
404.688 216.938 385.125 242.813 425.938 224.75 0 0.764706 1 T
404.688 216.938 425.938 224.75 443.375 197.063 0 0.768628 1 T
332.25 113.5 357.188 128.813 367.188 113.313 0 0.690196 1 T
399.875 173.313 384 200.25 421.563 189.375 0 0.796079 1 T
267.313 256.125 244.125 276.188 296.188 302.188 0 0.811765 1 T
307.563 120.625 332.25 113.5 348.438 92.3125 0 0.658824 1 T
384 200.25 404.688 216.938 421.563 189.375 0 0.796079 1 T
421.563 189.375 404.688 216.938 443.375 197.063 0 0.768628 1 T
272.938 236.75 245.25 182.063 267.313 256.125 0 0.501961 0.780392 T
351.188 152.938 352.75 171.688 356.125 149.5 0 0.462745 0.698039 T
357.188 128.813 351.188 152.938 356.125 149.5 0 0.454902 0.686275 T
421.563 189.375 443.375 197.063 460.875 169.75 0 0.764706 1 T
436.625 105.813 417.813 137.313 436.625 117.375 0 0.517647 0.811765 T
514.625 270.75 486.375 260.125 475.625 257.438 0 0.45098 0.67451 T
417.813 137.313 416.75 145.063 436.625 117.375 0 0.498039 0.772549 T
416.75 145.063 399.875 173.313 439 162 0 0.792157 1 T
399.875 173.313 421.563 189.375 439 162 0 0.792157 1 T
439 162 421.563 189.375 460.875 169.75 0 0.756863 1 T
307.563 120.625 298.375 150.25 332.25 113.5 0 0.733333 1 T
439 162 460.875 169.75 480.625 143.125 0 0.74902 1 T
520.813 299.938 514.625 270.75 504.063 262.938 0 0.635294 1 T
332.25 113.5 323.188 141.375 357.188 128.813 0 0.729412 1 T
498.313 317.5 520.813 299.938 511.813 291.813 0 0.658824 1 T
267.313 256.125 237 199.375 244.125 276.188 0 0.760784 1 T
244.125 276.188 203.875 208.813 228.563 274.875 0 0.705882 1 T
416.75 145.063 439 162 459.5 137 0 0.788235 1 T
323.188 141.375 351.188 152.938 357.188 128.813 0 0.72549 1 T
348.375 181.563 350.563 198.875 352.75 171.688 0 0.454902 0.686275 T
245.25 182.063 237 199.375 267.313 256.125 0 0.505882 0.784314 T
436.625 117.375 416.75 145.063 459.5 137 0 0.784314 1 T
459.5 137 439 162 480.625 143.125 0 0.709804 1 T
351.188 152.938 348.375 181.563 352.75 171.688 0 0.454902 0.682353 T
298.375 150.25 323.188 141.375 332.25 113.5 0 0.705882 1 T
436.625 105.813 436.625 117.375 460.188 94.75 0 0.552941 0.882353 T
459.5 137 480.625 143.125 504.063 118 0 0.694118 1 T
459.938 73.9375 436.625 105.813 460.188 94.75 0 0.568627 0.913726 T
511.813 291.813 520.813 299.938 504.063 262.938 0 0.568627 0.913726 T
203.875 208.813 181.375 199.375 228.563 274.875 0 0.705882 1 T
488.813 314.813 498.313 317.5 511.813 291.813 0 0.635294 1 T
298.375 150.25 292.813 181.563 323.188 141.375 0 0.737255 1 T
436.625 117.375 459.5 137 483.188 117.75 0 0.784314 1 T
237 199.375 203.875 208.813 244.125 276.188 0 0.760784 1 T
483.188 117.75 459.5 137 504.063 118 0 0.6 0.976471 T
323.188 141.375 318.625 172.125 351.188 152.938 0 0.737255 1 T
347.438 212.125 350 229.25 350.563 198.875 0 0.45098 0.67451 T
245.25 182.063 251.313 116.125 237 199.375 0 0.45098 0.67451 T
460.188 94.75 436.625 117.375 483.188 117.75 0 0.745098 1 T
318.625 172.125 348.375 181.563 351.188 152.938 0 0.737255 1 T
348.375 181.563 347.438 212.125 350.563 198.875 0 0.45098 0.67451 T
511.813 291.813 504.063 262.938 487.5 241.313 0 0.615686 1 T
292.813 181.563 318.625 172.125 323.188 141.375 0 0.733333 1 T
483.188 117.75 504.063 118 531.813 99.375 0 0.545098 0.862745 T
459.938 73.9375 460.188 94.75 482.438 83.25 0 0.607843 0.992157 T
459.938 307 488.813 314.813 474.313 287.5 0 0.647059 1 T
292.813 181.563 289.063 215.25 318.625 172.125 0 0.741176 1 T
460.188 94.75 483.188 117.75 504.688 107.938 0 0.690196 1 T
496.875 262.813 511.813 291.813 487.5 241.313 0 0.521569 0.815686 T
488.813 314.813 511.813 291.813 496.875 262.813 0 0.784314 1 T
443.938 287.813 459.938 307 474.313 287.5 0 0.654902 1 T
318.625 172.125 316 204.375 348.375 181.563 0 0.733333 1 T
504.688 107.938 483.188 117.75 531.813 99.375 0 0.454902 0.686275 T
496.875 262.813 487.5 241.313 470.688 214 0 0.537255 0.847059 T
316 204.375 347.438 212.125 348.375 181.563 0 0.733333 1 T
488.563 50 459.938 73.9375 482.438 83.25 0 0.588235 0.94902 T
237 199.375 242.438 131.875 203.875 208.813 0 0.705882 1 T
347.625 242.563 352.75 261.125 350 229.25 0 0.45098 0.67451 T
251.313 116.125 242.438 131.875 237 199.375 0 0.45098 0.67451 T
347.438 212.125 347.625 242.563 350 229.25 0 0.45098 0.67451 T
482.438 83.25 460.188 94.75 504.688 107.938 0 0.619608 1 T
289.063 215.25 316 204.375 318.625 172.125 0 0.737255 1 T
474.313 287.5 488.813 314.813 496.875 262.813 0 0.741176 1 T
203.875 208.813 206.813 125.938 181.375 199.375 0 0.760784 1 T
289.063 215.25 286.813 252.938 316 204.375 0 0.741176 1 T
316 204.375 313.5 237.75 347.438 212.125 0 0.721569 1 T
474.313 287.5 496.875 262.813 480.125 228.75 0 0.8 1 T
443.938 287.813 474.313 287.5 456.875 251.813 0 0.72549 1 T
425.625 257.313 443.938 287.813 456.875 251.813 0 0.733333 1 T
313.5 237.75 347.625 242.563 347.438 212.125 0 0.717647 1 T
482.438 83.25 504.688 107.938 520.688 115.563 0 0.45098 0.67451 T
242.438 131.875 206.813 125.938 203.875 208.813 0 0.705882 1 T
206.813 125.938 181.938 102.688 181.375 199.375 0 0.760784 1 T
347.625 242.563 349.313 269.563 352.75 261.125 0 0.45098 0.67451 T
286.813 252.938 313.5 237.75 316 204.375 0 0.713726 1 T
349.313 269.563 361.125 290.625 352.75 261.125 0 0.45098 0.67451 T
488.563 50 482.438 83.25 498 90.5625 0 0.541176 0.858824 T
456.875 251.813 474.313 287.5 480.125 228.75 0 0.776471 1 T
516.375 42.6875 488.563 50 513.688 54.5625 0 0.596078 0.964706 T
456.875 251.813 480.125 228.75 462 192.75 0 0.796079 1 T
498 90.5625 482.438 83.25 520.688 115.563 0 0.45098 0.67451 T
242.438 131.875 273.188 102.25 206.813 125.938 0 0.635294 1 T
406 222.688 425.625 257.313 437.25 214 0 0.760784 1 T
425.625 257.313 456.875 251.813 437.25 214 0 0.756863 1 T
286.813 252.938 288.875 296.813 313.5 237.75 0 0.729412 1 T
313.5 237.75 311.938 272 347.625 242.563 0 0.701961 1 T
334.438 121 361.375 147.563 335.313 118.125 0 0.466667 0.705882 T
181.938 102.688 239.125 43.125 194.875 88.125 0 0.623529 1 T
437.25 214 456.875 251.813 462 192.75 0 0.788235 1 T
311.938 272 349.313 269.563 347.625 242.563 0 0.678431 1 T
513.688 54.5625 488.563 50 498 90.5625 0 0.529412 0.831373 T
239.125 43.125 251.688 28.125 194.875 88.125 0 0.623529 1 T
437.25 214 462 192.75 441.438 154.125 0 0.796079 1 T
385.25 187.125 406 222.688 415.5 174.875 0 0.768628 1 T
303.813 103.875 334.438 121 299.438 89.25 0 0.52549 0.827451 T
406 222.688 437.25 214 415.5 174.875 0 0.768628 1 T
288.875 296.813 311.938 272 313.5 237.75 0 0.666667 1 T
206.813 125.938 250.813 82.8125 181.938 102.688 0 0.811765 1 T
273.188 102.25 303.813 103.875 250.813 82.8125 0 0.576471 0.929412 T
273.188 102.25 250.813 82.8125 206.813 125.938 0 0.623529 1 T
554.813 44.8125 516.375 42.6875 513.688 54.5625 0 0.588235 0.952941 T
349.313 269.563 356.125 287.625 361.125 290.625 0 0.45098 0.67451 T
415.5 174.875 437.25 214 441.438 154.125 0 0.796079 1 T
356.125 287.625 377.063 309.875 361.125 290.625 0 0.45098 0.67451 T
415.5 174.875 441.438 154.125 415.875 112.063 0 0.803922 1 T
362.375 152 385.25 187.125 390.75 133.813 0 0.776471 1 T
334.438 121 335.313 118.125 299.438 89.25 0 0.458824 0.694118 T
385.25 187.125 415.5 174.875 390.75 133.813 0 0.768628 1 T
250.813 82.8125 239.125 43.125 181.938 102.688 0 0.811765 1 T
303.813 103.875 299.438 89.25 250.813 82.8125 0 0.52549 0.827451 T
390.75 133.813 415.5 174.875 415.875 112.063 0 0.792157 1 T
390.75 133.813 415.875 112.063 380.438 67.6875 0 0.807843 1 T
311.063 49.875 326.063 30.3125 251.688 28.125 0 0.733333 1 T
335.313 118.125 362.375 152 359.438 90.125 0 0.796079 1 T
311.938 272 320 303.25 349.313 269.563 0 0.635294 1 T
359.438 90.125 380.438 67.6875 326.063 30.3125 0 0.792157 1 T
288.875 296.813 306.813 343.25 311.938 272 0 0.705882 1 T
239.125 43.125 311.063 49.875 251.688 28.125 0 0.705882 1 T
362.375 152 390.75 133.813 359.438 90.125 0 0.776471 1 T
359.438 90.125 390.75 133.813 380.438 67.6875 0 0.772549 1 T
250.813 82.8125 299.438 89.25 239.125 43.125 0.239216 1 1 T
513.688 54.5625 498 90.5625 488.75 147.125 0 0.45098 0.67451 T
320 303.25 356.125 287.625 349.313 269.563 0 0.6 0.980392 T
299.438 89.25 335.313 118.125 311.063 49.875 0.0117647 0.839216 1 T
311.063 49.875 359.438 90.125 326.063 30.3125 0 0.741176 1 T
335.313 118.125 359.438 90.125 311.063 49.875 0 0.8 1 T
299.438 89.25 311.063 49.875 239.125 43.125 0.0156863 0.843137 1 T
306.813 343.25 320 303.25 311.938 272 0 0.639216 1 T
554.813 44.8125 513.688 54.5625 504.438 124.5 0 0.729412 1 T
577.188 72.875 554.813 44.8125 552.5 128.75 0 0.717647 1 T
504.438 124.5 513.688 54.5625 488.75 147.125 0 0.45098 0.678431 T
330.875 363.938 396.938 379 306.813 343.25 0 0.670588 1 T
320 303.25 356.875 309.188 356.125 287.625 0 0.490196 0.760784 T
356.875 309.188 378.75 288.125 356.125 287.625 0 0.494118 0.764706 T
306.813 343.25 365.438 357.625 320 303.25 0 0.721569 1 T
504.438 124.5 488.75 147.125 433.5 240.938 0 0.45098 0.67451 T
579.188 157.5 577.188 72.875 552.5 128.75 0 0.717647 1 T
552.5 128.75 554.813 44.8125 504.438 124.5 0 0.72549 1 T
434 244.375 433.5 240.938 378.75 288.125 0 0.45098 0.67451 T
396.938 379 365.438 357.625 306.813 343.25 0 0.647059 1 T
365.438 357.625 356.875 309.188 320 303.25 0 0.713726 1 T
356.875 309.188 434 244.375 378.75 288.125 0 0.45098 0.67451 T
434 244.375 504.438 124.5 433.5 240.938 0 0.45098 0.67451 T
552.5 128.75 504.438 124.5 434 244.375 0 0.772549 1 T
396.938 379 502.438 300.438 365.438 357.625 0 0.796079 1 T
365.438 357.625 470.188 275.75 356.875 309.188 0 0.772549 1 T
579.188 157.5 552.5 128.75 470.188 275.75 0 0.803922 1 T
470.188 275.75 434 244.375 356.875 309.188 0 0.772549 1 T
502.438 300.438 579.188 157.5 470.188 275.75 0 0.803922 1 T
470.188 275.75 552.5 128.75 434 244.375 0 0.772549 1 T
502.438 300.438 470.188 275.75 365.438 357.625 0 0.796079 1 T

grestore
showpage
