%!PS-Adobe-2.0 EPSF-2.0
%%BoundingBox: 0 0 631 742
%%EndComments

gsave

/threshold 0.05 def

% RGB color command - r g b C
/C { setrgbcolor } bind def

% Point - x_center y_center PointSize/2 0 360 r g b P
/P { C arc fill } bind def

% Segment - x2 y2 x1 y1 r g b S
/S { C moveto lineto stroke } bind def

% Flat-shaded triangle - x3 y3 x2 y2 x1 y1 r g b T
/T { C newpath moveto lineto lineto closepath fill } bind def
/bd{bind def}bind def /triangle { aload pop   setrgbcolor  aload pop 5 3
roll 4 2 roll 3 2 roll exch moveto lineto lineto closepath fill } bd
/computediff1 { 2 copy sub abs threshold ge {pop pop pop true} { exch 2
index sub abs threshold ge { pop pop true} { sub abs threshold ge } ifelse
} ifelse } bd /computediff3 { 3 copy 0 get 3 1 roll 0 get 3 1 roll 0 get
computediff1 {true} { 3 copy 1 get 3 1 roll 1 get 3 1 roll 1 get
computediff1 {true} { 3 copy 2 get 3 1 roll  2 get 3 1 roll 2 get
computediff1 } ifelse } ifelse } bd /middlecolor { aload pop 4 -1 roll
aload pop 4 -1 roll add 2 div 5 1 roll 3 -1 roll add 2 div 3 1 roll add 2
div 3 1 roll exch 3 array astore } bd /gouraudtriangle { computediff3 { 4
-1 roll aload 7 1 roll 6 -1 roll pop 3 -1 roll pop add 2 div 3 1 roll add
2 div exch 3 -1 roll aload 7 1 roll exch pop 4 -1 roll pop add 2 div 3 1
roll add 2 div exch 3 -1 roll aload 7 1 roll pop 3 -1 roll pop add 2 div 3
1 roll add 2 div exch 7 3 roll 10 -3 roll dup 3 index middlecolor 4 1 roll
2 copy middlecolor 4 1 roll 3 copy pop middlecolor 4 1 roll 13 -1 roll
aload pop 17 index 6 index 15 index 19 index 6 index 17 index 6 array
astore 10 index 10 index 14 index gouraudtriangle 17 index 5 index 17
index 19 index 5 index 19 index 6 array astore 10 index 9 index 13 index
gouraudtriangle 13 index 16 index 5 index 15 index 18 index 5 index 6
array astore 12 index 12 index 9 index gouraudtriangle 17 index 16 index
15 index 19 index 18 index 17 index 6 array astore 10 index 12 index 14
index gouraudtriangle 18 {pop} repeat } { aload pop 5 3 roll aload pop 7 3
roll aload pop 9 3 roll 8 index 6 index 4 index add add 3 div 10 1 roll 7
index 5 index 3 index add add 3 div 10 1 roll 6 index 4 index 2 index add
add 3 div 10 1 roll 9 {pop} repeat 3 array astore triangle } ifelse } bd

0.1 setlinewidth
1 1 1 setrgbcolor
0 0 631 742 rectfill

563.247 511.043 561.063 465.913 0 0 0 S
101.845 252.956 100.676 257.858 0 0 0 S
79.8657 481.825 81.1289 525.54 0 0 0 S
74.1074 369.36 72.2393 421.41 0 0 0 S
561.063 465.913 558.273 491.234 0 0 0 S
565.091 421.444 559.347 354.013 0 0 0 S
559.347 354.013 542.575 291.017 0 0 0 S
72.2393 421.41 73.5649 438.067 0 0 0 S
562.795 459.855 565.091 421.444 0 0 0 S
85.4224 508.549 79.8657 481.825 0 0 0 S
542.575 291.017 526.704 245.399 0 0 0 S
128.603 164.652 101.845 252.956 0 0 0 S
558.273 491.234 562.795 459.855 0 0 0 S
92.1743 601.643 99.8667 632.762 0 0 0 S
558.273 491.234 563.247 511.043 0 0 0 S
563.247 511.043 558.273 491.234 0 0 0 S
549.769 625.688 557.391 585.73 0 0 0 S
526.704 245.399 494.751 155.063 0 0 0 S
559.194 353.9 559.347 354.013 0 0 0 S
559.347 354.013 559.194 353.9 0 0 0 S
73.5649 438.067 74.1074 369.36 0 0 0 S
74.1074 369.36 73.5649 438.067 0 0 0 S
562.795 459.855 552.365 473.084 0 0 0 S
552.365 473.084 562.795 459.855 0 0 0 S
526.704 245.399 517.806 222.578 0 0 0 S
517.806 222.578 526.704 245.399 0 0 0 S
88.0542 304.613 74.1074 369.36 0 0 0 S
100.676 257.858 88.0542 304.613 0 0 0 S
73.5649 438.067 77.2759 476.869 0 0 0 S
85.4224 508.549 81.1289 525.54 0 0 0 S
81.1289 525.54 85.4224 508.549 0 0 0 S
77.2759 476.869 85.4224 508.549 0 0 0 S
560.198 555.38 563.247 511.043 0 0 0 S
530.562 669.005 549.769 625.688 0 0 0 S
99.8667 632.762 126.988 685.436 0 0 0 S
128.603 164.652 100.676 257.858 0 0 0 S
100.676 257.858 128.603 164.652 0 0 0 S
565.091 421.444 552.365 473.084 0 0 0 S
552.365 473.084 565.091 421.444 0 0 0 S
559.194 353.9 565.091 421.444 0 0 0 S
565.091 421.444 559.194 353.9 0 0 0 S
558.273 491.234 552.365 473.084 0 0 0 S
552.365 473.084 558.273 491.234 0 0 0 S
542.575 291.017 517.806 222.578 0 0 0 S
517.806 222.578 542.575 291.017 0 0 0 S
559.194 353.9 542.575 291.017 0 0 0 S
542.575 291.017 559.194 353.9 0 0 0 S
557.391 585.73 560.198 555.38 0 0 0 S
553.664 537.656 563.247 511.043 0 0 0 S
563.247 511.043 553.664 537.656 0 0 0 S
100.676 257.858 110.565 234.24 0 0 0 S
110.565 234.24 100.676 257.858 0 0 0 S
74.1074 369.36 76.5625 369.54 0 0 0 S
76.5625 369.54 74.1074 369.36 0 0 0 S
539.452 635.854 549.769 625.688 0 0 0 S
549.769 625.688 539.452 635.854 0 0 0 S
77.2759 476.869 91.5127 489.287 0 0 0 S
91.5127 489.287 77.2759 476.869 0 0 0 S
81.1289 525.54 89.2549 572.933 0 0 0 S
99.8667 632.762 116.801 653.118 0 0 0 S
116.801 653.118 99.8667 632.762 0 0 0 S
494.751 155.063 517.806 222.578 0 0 0 S
517.806 222.578 494.751 155.063 0 0 0 S
558.273 491.234 553.664 537.656 0 0 0 S
553.664 537.656 558.273 491.234 0 0 0 S
539.452 635.854 557.391 585.73 0 0 0 S
557.391 585.73 539.452 635.854 0 0 0 S
556.088 413.123 565.091 421.444 0 0 0 S
565.091 421.444 556.088 413.123 0 0 0 S
537.254 289.603 542.575 291.017 0 0 0 S
542.575 291.017 537.254 289.603 0 0 0 S
89.2549 572.933 92.1743 601.643 0 0 0 S
81.1289 525.54 95.7402 554.8 0 0 0 S
95.7402 554.8 81.1289 525.54 0 0 0 S
91.5127 489.287 73.5649 438.067 0 0 0 S
73.5649 438.067 91.5127 489.287 0 0 0 S
558.273 491.234 539.763 517.009 0 0 0 S
539.763 517.009 558.273 491.234 0 0 0 S
110.565 234.24 88.0542 304.613 0 0 0 S
88.0542 304.613 110.565 234.24 0 0 0 S
76.5625 369.54 73.5649 438.067 0 0 0 S
73.5649 438.067 76.5625 369.54 0 0 0 S
91.5127 489.287 85.4224 508.549 0 0 0 S
85.4224 508.549 91.5127 489.287 0 0 0 S
76.5625 369.54 88.0542 304.613 0 0 0 S
88.0542 304.613 76.5625 369.54 0 0 0 S
116.801 653.118 92.1743 601.643 0 0 0 S
92.1743 601.643 116.801 653.118 0 0 0 S
128.603 164.652 110.565 234.24 0 0 0 S
110.565 234.24 128.603 164.652 0 0 0 S
560.198 555.38 553.664 537.656 0 0 0 S
553.664 537.656 560.198 555.38 0 0 0 S
539.452 635.854 530.562 669.005 0 0 0 S
530.562 669.005 539.452 635.854 0 0 0 S
537.254 289.603 517.806 222.578 0 0 0 S
517.806 222.578 537.254 289.603 0 0 0 S
552.365 473.084 556.088 413.123 0 0 0 S
556.088 413.123 552.365 473.084 0 0 0 S
559.194 353.9 537.254 289.603 0 0 0 S
537.254 289.603 559.194 353.9 0 0 0 S
95.7402 554.8 85.4224 508.549 0 0 0 S
85.4224 508.549 95.7402 554.8 0 0 0 S
539.763 517.009 552.365 473.084 0 0 0 S
552.365 473.084 539.763 517.009 0 0 0 S
556.088 413.123 559.194 353.9 0 0 0 S
559.194 353.9 556.088 413.123 0 0 0 S
88.0542 304.613 96.1865 302.573 0 0 0 S
96.1865 302.573 88.0542 304.613 0 0 0 S
73.5649 438.067 85.0737 428.946 0 0 0 S
85.0737 428.946 73.5649 438.067 0 0 0 S
108.819 532.909 85.4224 508.549 0 0 0 S
85.4224 508.549 108.819 532.909 0 0 0 S
540.283 609.641 557.391 585.73 0 0 0 S
557.391 585.73 540.283 609.641 0 0 0 S
494.751 155.063 494.479 185.976 0 0 0 S
494.479 185.976 494.751 155.063 0 0 0 S
486.994 704.941 530.562 669.005 0 0 0 S
517.806 222.578 511.334 233.546 0 0 0 S
511.334 233.546 517.806 222.578 0 0 0 S
539.763 517.009 553.664 537.656 0 0 0 S
553.664 537.656 539.763 517.009 0 0 0 S
552.365 473.084 536.171 451.371 0 0 0 S
536.171 451.371 552.365 473.084 0 0 0 S
517.806 222.578 494.479 185.976 0 0 0 S
494.479 185.976 517.806 222.578 0 0 0 S
531.272 479.523 552.365 473.084 0 0 0 S
552.365 473.084 531.272 479.523 0 0 0 S
116.801 653.118 126.988 685.436 0 0 0 S
126.988 685.436 116.801 653.118 0 0 0 S
494.751 155.063 475.411 132.196 0 0 0 S
475.411 132.196 494.751 155.063 0 0 0 S
110.565 234.24 96.1865 302.573 0 0 0 S
96.1865 302.573 110.565 234.24 0 0 0 S
89.2549 572.933 95.7402 554.8 0 0 0 S
95.7402 554.8 89.2549 572.933 0 0 0 S
115.901 626.577 92.1743 601.643 0 0 0 S
92.1743 601.643 115.901 626.577 0 0 0 S
76.5625 369.54 96.1865 302.573 0 0 0 S
96.1865 302.573 76.5625 369.54 0 0 0 S
559.194 353.9 544.219 353.644 0 0 0 S
544.219 353.644 559.194 353.9 0 0 0 S
85.0737 428.946 91.5127 489.287 0 0 0 S
91.5127 489.287 85.0737 428.946 0 0 0 S
108.819 532.909 91.5127 489.287 0 0 0 S
91.5127 489.287 108.819 532.909 0 0 0 S
85.0737 428.946 76.5625 369.54 0 0 0 S
76.5625 369.54 85.0737 428.946 0 0 0 S
126.988 685.436 174.94 717.502 0 0 0 S
133.468 195.315 128.603 164.652 0 0 0 S
128.603 164.652 133.468 195.315 0 0 0 S
540.283 609.641 560.198 555.38 0 0 0 S
560.198 555.38 540.283 609.641 0 0 0 S
494.751 155.063 445.489 69.3408 0 0 0 S
511.334 233.546 537.254 289.603 0 0 0 S
537.254 289.603 511.334 233.546 0 0 0 S
552.365 473.084 529.256 505.069 0 0 0 S
529.256 505.069 552.365 473.084 0 0 0 S
530.562 669.005 495.968 671.458 0 0 0 S
495.968 671.458 530.562 669.005 0 0 0 S
456.107 90.0864 494.751 155.063 0 0 0 S
494.751 155.063 456.107 90.0864 0 0 0 S
110.565 234.24 119.677 244.582 0 0 0 S
119.677 244.582 110.565 234.24 0 0 0 S
560.198 555.38 533.069 586.325 0 0 0 S
533.069 586.325 560.198 555.38 0 0 0 S
556.088 413.123 536.171 451.371 0 0 0 S
536.171 451.371 556.088 413.123 0 0 0 S
110.565 234.24 133.468 195.315 0 0 0 S
133.468 195.315 110.565 234.24 0 0 0 S
128.603 164.652 150.674 140.07 0 0 0 S
150.674 140.07 128.603 164.652 0 0 0 S
95.7402 554.8 108.819 532.909 0 0 0 S
108.819 532.909 95.7402 554.8 0 0 0 S
91.5127 489.287 108.807 466.214 0 0 0 S
108.807 466.214 91.5127 489.287 0 0 0 S
537.254 289.603 544.219 353.644 0 0 0 S
544.219 353.644 537.254 289.603 0 0 0 S
91.5127 489.287 115.465 493.891 0 0 0 S
115.465 493.891 91.5127 489.287 0 0 0 S
544.219 353.644 556.088 413.123 0 0 0 S
556.088 413.123 544.219 353.644 0 0 0 S
540.283 609.641 539.452 635.854 0 0 0 S
539.452 635.854 540.283 609.641 0 0 0 S
181.888 70.0161 128.603 164.652 0 0 0 S
76.5625 369.54 94.8184 367.781 0 0 0 S
94.8184 367.781 76.5625 369.54 0 0 0 S
553.664 537.656 533.069 586.325 0 0 0 S
533.069 586.325 553.664 537.656 0 0 0 S
511.334 233.546 494.479 185.976 0 0 0 S
494.479 185.976 511.334 233.546 0 0 0 S
539.452 635.854 495.968 671.458 0 0 0 S
495.968 671.458 539.452 635.854 0 0 0 S
553.664 537.656 516.115 559.398 0 0 0 S
516.115 559.398 553.664 537.656 0 0 0 S
538.629 403.944 556.088 413.123 0 0 0 S
556.088 413.123 538.629 403.944 0 0 0 S
128.603 164.652 167.917 96.8052 0 0 0 S
167.917 96.8052 128.603 164.652 0 0 0 S
96.1865 302.573 119.677 244.582 0 0 0 S
119.677 244.582 96.1865 302.573 0 0 0 S
119.622 521.052 91.5127 489.287 0 0 0 S
91.5127 489.287 119.622 521.052 0 0 0 S
89.2549 572.933 115.901 626.577 0 0 0 S
115.901 626.577 89.2549 572.933 0 0 0 S
539.763 517.009 529.256 505.069 0 0 0 S
529.256 505.069 539.763 517.009 0 0 0 S
164.767 684.586 126.988 685.436 0 0 0 S
126.988 685.436 164.767 684.586 0 0 0 S
531.272 479.523 536.171 451.371 0 0 0 S
536.171 451.371 531.272 479.523 0 0 0 S
516.115 559.398 539.763 517.009 0 0 0 S
539.763 517.009 516.115 559.398 0 0 0 S
415.98 722.603 486.994 704.941 0 0 0 S
122.256 601.796 89.2549 572.933 0 0 0 S
89.2549 572.933 122.256 601.796 0 0 0 S
495.968 671.458 486.994 704.941 0 0 0 S
486.994 704.941 495.968 671.458 0 0 0 S
537.254 289.603 517.5 299.332 0 0 0 S
517.5 299.332 537.254 289.603 0 0 0 S
108.807 466.214 85.0737 428.946 0 0 0 S
85.0737 428.946 108.807 466.214 0 0 0 S
494.479 185.976 475.411 132.196 0 0 0 S
475.411 132.196 494.479 185.976 0 0 0 S
94.8184 367.781 96.1865 302.573 0 0 0 S
96.1865 302.573 94.8184 367.781 0 0 0 S
116.801 653.118 115.901 626.577 0 0 0 S
115.901 626.577 116.801 653.118 0 0 0 S
85.0737 428.946 94.8184 367.781 0 0 0 S
94.8184 367.781 85.0737 428.946 0 0 0 S
536.171 451.371 538.629 403.944 0 0 0 S
538.629 403.944 536.171 451.371 0 0 0 S
133.468 195.315 119.677 244.582 0 0 0 S
119.677 244.582 133.468 195.315 0 0 0 S
116.801 653.118 164.767 684.586 0 0 0 S
164.767 684.586 116.801 653.118 0 0 0 S
529.256 505.069 531.272 479.523 0 0 0 S
531.272 479.523 529.256 505.069 0 0 0 S
174.94 717.502 248.881 729.261 0 0 0 S
122.256 601.796 95.7402 554.8 0 0 0 S
95.7402 554.8 122.256 601.796 0 0 0 S
137.973 573.434 95.7402 554.8 0 0 0 S
95.7402 554.8 137.973 573.434 0 0 0 S
538.629 403.944 544.219 353.644 0 0 0 S
544.219 353.644 538.629 403.944 0 0 0 S
119.622 521.052 108.819 532.909 0 0 0 S
108.819 532.909 119.622 521.052 0 0 0 S
531.272 479.523 521.854 486.44 0 0 0 S
521.854 486.44 531.272 479.523 0 0 0 S
517.5 299.332 511.334 233.546 0 0 0 S
511.334 233.546 517.5 299.332 0 0 0 S
85.0737 428.946 104.473 418.517 0 0 0 S
104.473 418.517 85.0737 428.946 0 0 0 S
164.767 684.586 174.94 717.502 0 0 0 S
174.94 717.502 164.767 684.586 0 0 0 S
513.773 471.709 536.171 451.371 0 0 0 S
536.171 451.371 513.773 471.709 0 0 0 S
495.968 671.458 540.283 609.641 0 0 0 S
540.283 609.641 495.968 671.458 0 0 0 S
108.807 466.214 115.465 493.891 0 0 0 S
115.465 493.891 108.807 466.214 0 0 0 S
108.819 532.909 137.973 573.434 0 0 0 S
137.973 573.434 108.819 532.909 0 0 0 S
531.272 479.523 513.773 471.709 0 0 0 S
533.069 586.325 540.283 609.641 0 0 0 S
513.773 471.709 531.272 479.523 0 0 0 S
540.283 609.641 533.069 586.325 0 0 0 S
150.674 140.07 133.468 195.315 0 0 0 S
133.468 195.315 150.674 140.07 0 0 0 S
119.552 311.522 96.1865 302.573 0 0 0 S
96.1865 302.573 119.552 311.522 0 0 0 S
495.968 671.458 415.98 722.603 0 0 0 S
415.98 722.603 495.968 671.458 0 0 0 S
544.219 353.644 517.5 299.332 0 0 0 S
517.5 299.332 544.219 353.644 0 0 0 S
529.256 505.069 516.115 559.398 0 0 0 S
516.115 559.398 529.256 505.069 0 0 0 S
332.854 725.971 415.98 722.603 0 0 0 S
529.256 505.069 521.854 486.44 0 0 0 S
521.854 486.44 529.256 505.069 0 0 0 S
516.115 559.398 533.069 586.325 0 0 0 S
533.069 586.325 516.115 559.398 0 0 0 S
475.411 132.196 456.107 90.0864 0 0 0 S
456.107 90.0864 475.411 132.196 0 0 0 S
119.622 521.052 115.465 493.891 0 0 0 S
115.465 493.891 119.622 521.052 0 0 0 S
108.807 466.214 104.473 418.517 0 0 0 S
104.473 418.517 108.807 466.214 0 0 0 S
500.617 444.614 536.171 451.371 0 0 0 S
536.171 451.371 500.617 444.614 0 0 0 S
248.881 729.261 332.854 725.971 0 0 0 S
536.171 451.371 509.822 405.463 0 0 0 S
509.822 405.463 536.171 451.371 0 0 0 S
119.677 244.582 119.552 311.522 0 0 0 S
119.552 311.522 119.677 244.582 0 0 0 S
164.767 684.586 248.881 729.261 0 0 0 S
248.881 729.261 164.767 684.586 0 0 0 S
104.473 418.517 94.8184 367.781 0 0 0 S
94.8184 367.781 104.473 418.517 0 0 0 S
521.854 486.44 513.773 471.709 0 0 0 S
513.773 471.709 521.854 486.44 0 0 0 S
463.527 153.04 494.479 185.976 0 0 0 S
494.479 185.976 463.527 153.04 0 0 0 S
445.489 69.3408 456.107 90.0864 0 0 0 S
456.107 90.0864 445.489 69.3408 0 0 0 S
128.549 504.525 115.465 493.891 0 0 0 S
115.465 493.891 128.549 504.525 0 0 0 S
484.109 247.254 511.334 233.546 0 0 0 S
511.334 233.546 484.109 247.254 0 0 0 S
164.767 684.586 115.901 626.577 0 0 0 S
115.901 626.577 164.767 684.586 0 0 0 S
519.555 357.201 544.219 353.644 0 0 0 S
544.219 353.644 519.555 357.201 0 0 0 S
134.777 484.833 108.807 466.214 0 0 0 S
108.807 466.214 134.777 484.833 0 0 0 S
115.465 493.891 134.777 484.833 0 0 0 S
134.777 484.833 115.465 493.891 0 0 0 S
122.256 601.796 115.901 626.577 0 0 0 S
115.901 626.577 122.256 601.796 0 0 0 S
494.479 185.976 484.109 247.254 0 0 0 S
484.109 247.254 494.479 185.976 0 0 0 S
497.985 634.634 540.283 609.641 0 0 0 S
540.283 609.641 497.985 634.634 0 0 0 S
529.256 505.069 507.994 486.166 0 0 0 S
507.994 486.166 529.256 505.069 0 0 0 S
150.674 140.07 167.917 96.8052 0 0 0 S
167.917 96.8052 150.674 140.07 0 0 0 S
137.973 573.434 119.622 521.052 0 0 0 S
119.622 521.052 137.973 573.434 0 0 0 S
94.8184 367.781 119.552 311.522 0 0 0 S
119.552 311.522 94.8184 367.781 0 0 0 S
519.555 357.201 538.629 403.944 0 0 0 S
538.629 403.944 519.555 357.201 0 0 0 S
470.962 197.576 494.479 185.976 0 0 0 S
494.479 185.976 470.962 197.576 0 0 0 S
509.822 405.463 538.629 403.944 0 0 0 S
538.629 403.944 509.822 405.463 0 0 0 S
521.854 486.44 507.994 486.166 0 0 0 S
507.994 486.166 521.854 486.44 0 0 0 S
463.527 153.04 475.411 132.196 0 0 0 S
475.411 132.196 463.527 153.04 0 0 0 S
128.549 504.525 119.622 521.052 0 0 0 S
119.622 521.052 128.549 504.525 0 0 0 S
434.78 672.245 415.98 722.603 0 0 0 S
415.98 722.603 434.78 672.245 0 0 0 S
122.256 601.796 137.973 573.434 0 0 0 S
137.973 573.434 122.256 601.796 0 0 0 S
485.991 573.855 516.115 559.398 0 0 0 S
516.115 559.398 485.991 573.855 0 0 0 S
497.985 634.634 495.968 671.458 0 0 0 S
495.968 671.458 497.985 634.634 0 0 0 S
167.917 96.8052 181.888 70.0161 0 0 0 S
181.888 70.0161 167.917 96.8052 0 0 0 S
533.069 586.325 497.985 634.634 0 0 0 S
497.985 634.634 533.069 586.325 0 0 0 S
434.78 672.245 495.968 671.458 0 0 0 S
495.968 671.458 434.78 672.245 0 0 0 S
147.171 456.945 108.807 466.214 0 0 0 S
108.807 466.214 147.171 456.945 0 0 0 S
529.256 505.069 502.253 529.948 0 0 0 S
502.253 529.948 529.256 505.069 0 0 0 S
507.994 486.166 513.773 471.709 0 0 0 S
513.773 471.709 507.994 486.166 0 0 0 S
533.069 586.325 492.491 604 0 0 0 S
492.491 604 533.069 586.325 0 0 0 S
500.617 444.614 513.773 471.709 0 0 0 S
513.773 471.709 500.617 444.614 0 0 0 S
516.115 559.398 492.491 604 0 0 0 S
492.491 604 516.115 559.398 0 0 0 S
165.984 161.214 133.468 195.315 0 0 0 S
133.468 195.315 165.984 161.214 0 0 0 S
502.253 529.948 516.115 559.398 0 0 0 S
516.115 559.398 502.253 529.948 0 0 0 S
108.807 466.214 135.041 417.767 0 0 0 S
135.041 417.767 108.807 466.214 0 0 0 S
513.773 471.709 495.227 468.027 0 0 0 S
495.227 468.027 513.773 471.709 0 0 0 S
475.411 132.196 448.248 105.584 0 0 0 S
448.248 105.584 475.411 132.196 0 0 0 S
519.555 357.201 517.5 299.332 0 0 0 S
517.5 299.332 519.555 357.201 0 0 0 S
151.914 256.743 119.677 244.582 0 0 0 S
119.677 244.582 151.914 256.743 0 0 0 S
228.647 680.345 248.881 729.261 0 0 0 S
248.881 729.261 228.647 680.345 0 0 0 S
128.549 504.525 134.777 484.833 0 0 0 S
134.777 484.833 128.549 504.525 0 0 0 S
415.98 722.603 371.04 668.043 0 0 0 S
371.04 668.043 415.98 722.603 0 0 0 S
151.914 256.743 133.468 195.315 0 0 0 S
133.468 195.315 151.914 256.743 0 0 0 S
122.111 370.067 94.8184 367.781 0 0 0 S
94.8184 367.781 122.111 370.067 0 0 0 S
115.901 626.577 161.962 647.567 0 0 0 S
161.962 647.567 115.901 626.577 0 0 0 S
161.747 206.301 133.468 195.315 0 0 0 S
133.468 195.315 161.747 206.301 0 0 0 S
165.984 161.214 150.674 140.07 0 0 0 S
150.674 140.07 165.984 161.214 0 0 0 S
164.767 684.586 228.647 680.345 0 0 0 S
228.647 680.345 164.767 684.586 0 0 0 S
248.881 729.261 293.657 671.416 0 0 0 S
293.657 671.416 248.881 729.261 0 0 0 S
517.5 299.332 484.109 247.254 0 0 0 S
484.109 247.254 517.5 299.332 0 0 0 S
507.994 486.166 495.227 468.027 0 0 0 S
495.227 468.027 507.994 486.166 0 0 0 S
332.854 725.971 371.04 668.043 0 0 0 S
371.04 668.043 332.854 725.971 0 0 0 S
161.962 647.567 164.767 684.586 0 0 0 S
164.767 684.586 161.962 647.567 0 0 0 S
137.973 573.434 170.771 585.808 0 0 0 S
170.771 585.808 137.973 573.434 0 0 0 S
495.227 468.027 500.617 444.614 0 0 0 S
135.041 417.767 104.473 418.517 0 0 0 S
104.473 418.517 135.041 417.767 0 0 0 S
500.617 444.614 495.227 468.027 0 0 0 S
104.473 418.517 122.111 370.067 0 0 0 S
122.111 370.067 104.473 418.517 0 0 0 S
119.622 521.052 150.044 541.594 0 0 0 S
150.044 541.594 119.622 521.052 0 0 0 S
293.657 671.416 332.854 725.971 0 0 0 S
332.854 725.971 293.657 671.416 0 0 0 S
500.617 444.614 509.822 405.463 0 0 0 S
509.822 405.463 500.617 444.614 0 0 0 S
122.256 601.796 161.962 647.567 0 0 0 S
161.962 647.567 122.256 601.796 0 0 0 S
128.549 504.525 144.541 498.356 0 0 0 S
144.541 498.356 128.549 504.525 0 0 0 S
456.107 90.0864 448.248 105.584 0 0 0 S
448.248 105.584 456.107 90.0864 0 0 0 S
507.994 486.166 502.253 529.948 0 0 0 S
502.253 529.948 507.994 486.166 0 0 0 S
509.822 405.463 519.555 357.201 0 0 0 S
519.555 357.201 509.822 405.463 0 0 0 S
122.256 601.796 165.984 616.541 0 0 0 S
165.984 616.541 122.256 601.796 0 0 0 S
178.786 112.231 150.674 140.07 0 0 0 S
150.674 140.07 178.786 112.231 0 0 0 S
134.777 484.833 144.541 498.356 0 0 0 S
144.541 498.356 134.777 484.833 0 0 0 S
147.171 456.945 134.777 484.833 0 0 0 S
134.777 484.833 147.171 456.945 0 0 0 S
165.984 616.541 137.973 573.434 0 0 0 S
137.973 573.434 165.984 616.541 0 0 0 S
332.483 659.55 332.854 725.971 0 0 0 S
332.854 725.971 332.483 659.55 0 0 0 S
137.973 573.434 150.044 541.594 0 0 0 S
150.044 541.594 137.973 573.434 0 0 0 S
485.991 573.855 492.491 604 0 0 0 S
492.491 604 485.991 573.855 0 0 0 S
507.994 486.166 485.538 488.707 0 0 0 S
485.538 488.707 507.994 486.166 0 0 0 S
485.991 573.855 502.253 529.948 0 0 0 S
502.253 529.948 485.991 573.855 0 0 0 S
485.991 573.855 453.619 573.622 0 0 0 S
453.619 573.622 485.991 573.855 0 0 0 S
154.356 480.311 134.777 484.833 0 0 0 S
134.777 484.833 154.356 480.311 0 0 0 S
434.78 672.245 497.985 634.634 0 0 0 S
497.985 634.634 434.78 672.245 0 0 0 S
494.066 317.507 517.5 299.332 0 0 0 S
517.5 299.332 494.066 317.507 0 0 0 S
128.549 504.525 150.044 541.594 0 0 0 S
150.044 541.594 128.549 504.525 0 0 0 S
497.985 634.634 492.491 604 0 0 0 S
492.491 604 497.985 634.634 0 0 0 S
495.227 468.027 485.538 488.707 0 0 0 S
485.538 488.707 495.227 468.027 0 0 0 S
122.111 370.067 119.552 311.522 0 0 0 S
119.552 311.522 122.111 370.067 0 0 0 S
495.227 468.027 466.958 471.597 0 0 0 S
466.958 471.597 495.227 468.027 0 0 0 S
500.617 444.614 465.386 451.994 0 0 0 S
465.386 451.994 500.617 444.614 0 0 0 S
465.386 451.994 495.227 468.027 0 0 0 S
495.227 468.027 465.386 451.994 0 0 0 S
485.538 488.707 502.253 529.948 0 0 0 S
502.253 529.948 485.538 488.707 0 0 0 S
421.604 563.174 453.619 573.622 0 0 0 S
453.619 573.622 421.604 563.174 0 0 0 S
467.93 538.35 485.991 573.855 0 0 0 S
485.991 573.855 467.93 538.35 0 0 0 S
450.04 602.085 485.991 573.855 0 0 0 S
485.991 573.855 450.04 602.085 0 0 0 S
485.538 488.707 466.958 471.597 0 0 0 S
466.958 471.597 485.538 488.707 0 0 0 S
178.786 112.231 167.917 96.8052 0 0 0 S
167.917 96.8052 178.786 112.231 0 0 0 S
119.552 311.522 151.914 256.743 0 0 0 S
151.914 256.743 119.552 311.522 0 0 0 S
144.541 498.356 154.356 480.311 0 0 0 S
154.356 480.311 144.541 498.356 0 0 0 S
147.171 456.945 154.356 480.311 0 0 0 S
154.356 480.311 147.171 456.945 0 0 0 S
467.93 538.35 502.253 529.948 0 0 0 S
502.253 529.948 467.93 538.35 0 0 0 S
434.78 672.245 371.04 668.043 0 0 0 S
371.04 668.043 434.78 672.245 0 0 0 S
453.619 573.622 467.93 538.35 0 0 0 S
467.93 538.35 453.619 573.622 0 0 0 S
452.001 491.345 485.538 488.707 0 0 0 S
485.538 488.707 452.001 491.345 0 0 0 S
147.171 456.945 135.041 417.767 0 0 0 S
135.041 417.767 147.171 456.945 0 0 0 S
465.386 451.994 466.958 471.597 0 0 0 S
466.958 471.597 465.386 451.994 0 0 0 S
492.491 604 450.04 602.085 0 0 0 S
450.04 602.085 492.491 604 0 0 0 S
463.527 153.04 448.248 105.584 0 0 0 S
448.248 105.584 463.527 153.04 0 0 0 S
452.001 491.345 422.653 492.612 0 0 0 S
422.653 492.612 452.001 491.345 0 0 0 S
170.771 585.808 203.773 582.791 0 0 0 S
203.773 582.791 170.771 585.808 0 0 0 S
466.958 471.597 452.001 491.345 0 0 0 S
452.001 491.345 466.958 471.597 0 0 0 S
453.619 573.622 450.04 602.085 0 0 0 S
450.04 602.085 453.619 573.622 0 0 0 S
436.14 474.096 422.653 492.612 0 0 0 S
422.653 492.612 436.14 474.096 0 0 0 S
436.14 474.096 466.958 471.597 0 0 0 S
466.958 471.597 436.14 474.096 0 0 0 S
470.962 197.576 463.527 153.04 0 0 0 S
463.527 153.04 470.962 197.576 0 0 0 S
485.538 488.707 467.93 538.35 0 0 0 S
467.93 538.35 485.538 488.707 0 0 0 S
419.409 522.047 421.604 563.174 0 0 0 S
421.604 563.174 419.409 522.047 0 0 0 S
519.555 357.201 494.066 317.507 0 0 0 S
494.066 317.507 519.555 357.201 0 0 0 S
419.409 522.047 422.653 492.612 0 0 0 S
422.653 492.612 419.409 522.047 0 0 0 S
144.541 498.356 150.044 541.594 0 0 0 S
150.044 541.594 144.541 498.356 0 0 0 S
228.647 680.345 161.962 647.567 0 0 0 S
161.962 647.567 228.647 680.345 0 0 0 S
467.93 538.35 421.604 563.174 0 0 0 S
421.604 563.174 467.93 538.35 0 0 0 S
170.771 585.808 165.984 616.541 0 0 0 S
165.984 616.541 170.771 585.808 0 0 0 S
445.489 69.3408 428.825 57.2202 0 0 0 S
428.825 57.2202 445.489 69.3408 0 0 0 S
170.771 585.808 150.044 541.594 0 0 0 S
150.044 541.594 170.771 585.808 0 0 0 S
122.111 370.067 135.041 417.767 0 0 0 S
135.041 417.767 122.111 370.067 0 0 0 S
421.604 563.174 450.04 602.085 0 0 0 S
450.04 602.085 421.604 563.174 0 0 0 S
436.14 474.096 465.386 451.994 0 0 0 S
465.386 451.994 436.14 474.096 0 0 0 S
144.541 498.356 165.968 500.224 0 0 0 S
165.968 500.224 144.541 498.356 0 0 0 S
422.653 492.612 410.315 483.283 0 0 0 S
410.315 483.283 422.653 492.612 0 0 0 S
452.001 491.345 436.14 474.096 0 0 0 S
436.14 474.096 452.001 491.345 0 0 0 S
396.262 543.862 421.604 563.174 0 0 0 S
421.604 563.174 396.262 543.862 0 0 0 S
203.773 582.791 235.292 570.27 0 0 0 S
235.292 570.27 203.773 582.791 0 0 0 S
500.617 444.614 464.12 414.993 0 0 0 S
464.12 414.993 500.617 444.614 0 0 0 S
452.001 491.345 419.409 522.047 0 0 0 S
419.409 522.047 452.001 491.345 0 0 0 S
484.109 247.254 470.962 197.576 0 0 0 S
470.962 197.576 484.109 247.254 0 0 0 S
447.649 631.489 497.985 634.634 0 0 0 S
497.985 634.634 447.649 631.489 0 0 0 S
154.356 480.311 165.968 500.224 0 0 0 S
165.968 500.224 154.356 480.311 0 0 0 S
165.984 616.541 161.962 647.567 0 0 0 S
161.962 647.567 165.984 616.541 0 0 0 S
183.36 481.593 154.356 480.311 0 0 0 S
154.356 480.311 183.36 481.593 0 0 0 S
452.001 491.345 467.93 538.35 0 0 0 S
467.93 538.35 452.001 491.345 0 0 0 S
434.78 672.245 447.649 631.489 0 0 0 S
447.649 631.489 434.78 672.245 0 0 0 S
183.683 461.689 147.171 456.945 0 0 0 S
147.171 456.945 183.683 461.689 0 0 0 S
467.93 538.35 419.409 522.047 0 0 0 S
419.409 522.047 467.93 538.35 0 0 0 S
119.552 311.522 146.491 328.64 0 0 0 S
146.491 328.64 119.552 311.522 0 0 0 S
293.657 671.416 228.647 680.345 0 0 0 S
228.647 680.345 293.657 671.416 0 0 0 S
447.649 631.489 492.491 604 0 0 0 S
492.491 604 447.649 631.489 0 0 0 S
428.825 57.2202 456.107 90.0864 0 0 0 S
456.107 90.0864 428.825 57.2202 0 0 0 S
464.12 414.993 509.822 405.463 0 0 0 S
509.822 405.463 464.12 414.993 0 0 0 S
410.315 483.283 436.14 474.096 0 0 0 S
436.14 474.096 410.315 483.283 0 0 0 S
183.683 461.689 154.356 480.311 0 0 0 S
154.356 480.311 183.683 461.689 0 0 0 S
419.409 522.047 410.315 483.283 0 0 0 S
410.315 483.283 419.409 522.047 0 0 0 S
419.409 522.047 396.262 543.862 0 0 0 S
396.262 543.862 419.409 522.047 0 0 0 S
186.948 548.591 170.771 585.808 0 0 0 S
170.771 585.808 186.948 548.591 0 0 0 S
150.044 541.594 165.968 500.224 0 0 0 S
165.968 500.224 150.044 541.594 0 0 0 S
209.352 611.213 170.771 585.808 0 0 0 S
170.771 585.808 209.352 611.213 0 0 0 S
484.109 247.254 494.066 317.507 0 0 0 S
494.066 317.507 484.109 247.254 0 0 0 S
235.292 570.27 235.458 528.908 0 0 0 S
235.458 528.908 235.292 570.27 0 0 0 S
465.386 451.994 428.514 455.985 0 0 0 S
428.514 455.985 465.386 451.994 0 0 0 S
235.458 528.908 229.776 499.724 0 0 0 S
229.776 499.724 235.458 528.908 0 0 0 S
229.776 499.724 200.202 500.731 0 0 0 S
200.202 500.731 229.776 499.724 0 0 0 S
229.776 499.724 214.718 482.215 0 0 0 S
214.718 482.215 229.776 499.724 0 0 0 S
436.14 474.096 428.514 455.985 0 0 0 S
428.514 455.985 436.14 474.096 0 0 0 S
183.36 481.593 165.968 500.224 0 0 0 S
165.968 500.224 183.36 481.593 0 0 0 S
445.489 69.3408 405.737 26.8208 0 0 0 S
259.912 548.933 235.292 570.27 0 0 0 S
235.292 570.27 259.912 548.933 0 0 0 S
186.948 548.591 203.773 582.791 0 0 0 S
203.773 582.791 186.948 548.591 0 0 0 S
197.451 62.6455 181.888 70.0161 0 0 0 S
181.888 70.0161 197.451 62.6455 0 0 0 S
209.352 611.213 203.773 582.791 0 0 0 S
203.773 582.791 209.352 611.213 0 0 0 S
242.109 489.719 229.776 499.724 0 0 0 S
229.776 499.724 242.109 489.719 0 0 0 S
186.948 548.591 235.292 570.27 0 0 0 S
235.292 570.27 186.948 548.591 0 0 0 S
235.292 570.27 209.352 611.213 0 0 0 S
209.352 611.213 235.292 570.27 0 0 0 S
165.968 500.224 200.202 500.731 0 0 0 S
200.202 500.731 165.968 500.224 0 0 0 S
183.36 481.593 200.202 500.731 0 0 0 S
183.36 481.593 214.718 482.215 0 0 0 S
214.718 482.215 183.36 481.593 0 0 0 S
200.202 500.731 183.36 481.593 0 0 0 S
183.36 481.593 183.683 461.689 0 0 0 S
183.683 461.689 183.36 481.593 0 0 0 S
150.044 541.594 186.948 548.591 0 0 0 S
186.948 548.591 150.044 541.594 0 0 0 S
209.352 611.213 165.984 616.541 0 0 0 S
165.984 616.541 209.352 611.213 0 0 0 S
428.514 455.985 410.315 483.283 0 0 0 S
410.315 483.283 428.514 455.985 0 0 0 S
165.984 161.214 178.786 112.231 0 0 0 S
178.786 112.231 165.984 161.214 0 0 0 S
200.202 500.731 235.458 528.908 0 0 0 S
235.458 528.908 200.202 500.731 0 0 0 S
472.778 362.246 519.555 357.201 0 0 0 S
519.555 357.201 472.778 362.246 0 0 0 S
472.778 362.246 509.822 405.463 0 0 0 S
509.822 405.463 472.778 362.246 0 0 0 S
332.483 659.55 371.04 668.043 0 0 0 S
371.04 668.043 332.483 659.55 0 0 0 S
161.747 206.301 165.984 161.214 0 0 0 S
165.984 161.214 161.747 206.301 0 0 0 S
200.202 500.731 214.718 482.215 0 0 0 S
214.718 482.215 200.202 500.731 0 0 0 S
235.458 528.908 259.912 548.933 0 0 0 S
259.912 548.933 235.458 528.908 0 0 0 S
405.553 591.7 421.604 563.174 0 0 0 S
421.604 563.174 405.553 591.7 0 0 0 S
214.718 482.215 183.683 461.689 0 0 0 S
183.683 461.689 214.718 482.215 0 0 0 S
186.948 548.591 165.968 500.224 0 0 0 S
165.968 500.224 186.948 548.591 0 0 0 S
465.386 451.994 464.12 414.993 0 0 0 S
464.12 414.993 465.386 451.994 0 0 0 S
450.04 602.085 447.649 631.489 0 0 0 S
447.649 631.489 450.04 602.085 0 0 0 S
242.109 489.719 235.458 528.908 0 0 0 S
235.458 528.908 242.109 489.719 0 0 0 S
218.935 30.2734 181.888 70.0161 0 0 0 S
332.483 659.55 293.657 671.416 0 0 0 S
293.657 671.416 332.483 659.55 0 0 0 S
214.54 640.674 228.647 680.345 0 0 0 S
228.647 680.345 214.54 640.674 0 0 0 S
214.718 482.215 242.109 489.719 0 0 0 S
242.109 489.719 214.718 482.215 0 0 0 S
186.948 548.591 235.458 528.908 0 0 0 S
235.458 528.908 186.948 548.591 0 0 0 S
186.948 548.591 200.202 500.731 0 0 0 S
200.202 500.731 186.948 548.591 0 0 0 S
214.54 640.674 161.962 647.567 0 0 0 S
161.962 647.567 214.54 640.674 0 0 0 S
146.491 328.64 122.111 370.067 0 0 0 S
122.111 370.067 146.491 328.64 0 0 0 S
167.917 96.8052 197.451 62.6455 0 0 0 S
197.451 62.6455 167.917 96.8052 0 0 0 S
395.66 618.835 434.78 672.245 0 0 0 S
434.78 672.245 395.66 618.835 0 0 0 S
147.171 456.945 183.696 424.21 0 0 0 S
183.696 424.21 147.171 456.945 0 0 0 S
151.914 256.743 161.747 206.301 0 0 0 S
161.747 206.301 151.914 256.743 0 0 0 S
165.984 616.541 214.54 640.674 0 0 0 S
214.54 640.674 165.984 616.541 0 0 0 S
214.718 482.215 222.191 462.973 0 0 0 S
222.191 462.973 214.718 482.215 0 0 0 S
463.527 153.04 434.686 133.266 0 0 0 S
434.686 133.266 463.527 153.04 0 0 0 S
183.683 461.689 222.191 462.973 0 0 0 S
222.191 462.973 183.683 461.689 0 0 0 S
450.04 602.085 405.553 591.7 0 0 0 S
405.553 591.7 450.04 602.085 0 0 0 S
222.191 462.973 242.109 489.719 0 0 0 S
242.109 489.719 222.191 462.973 0 0 0 S
396.262 543.862 405.553 591.7 0 0 0 S
405.553 591.7 396.262 543.862 0 0 0 S
254.657 597.356 235.292 570.27 0 0 0 S
235.292 570.27 254.657 597.356 0 0 0 S
183.696 424.21 135.041 417.767 0 0 0 S
135.041 417.767 183.696 424.21 0 0 0 S
428.514 455.985 464.12 414.993 0 0 0 S
464.12 414.993 428.514 455.985 0 0 0 S
419.409 522.047 390.127 494.371 0 0 0 S
390.127 494.371 419.409 522.047 0 0 0 S
151.914 256.743 146.491 328.64 0 0 0 S
146.491 328.64 151.914 256.743 0 0 0 S
390.127 494.371 410.315 483.283 0 0 0 S
410.315 483.283 390.127 494.371 0 0 0 S
396.262 543.862 390.127 494.371 0 0 0 S
390.127 494.371 396.262 543.862 0 0 0 S
214.54 640.674 209.352 611.213 0 0 0 S
209.352 611.213 214.54 640.674 0 0 0 S
266.885 623.969 228.647 680.345 0 0 0 S
228.647 680.345 266.885 623.969 0 0 0 S
447.649 631.489 405.553 591.7 0 0 0 S
405.553 591.7 447.649 631.489 0 0 0 S
448.248 105.584 434.686 133.266 0 0 0 S
434.686 133.266 448.248 105.584 0 0 0 S
259.912 548.933 254.657 597.356 0 0 0 S
254.657 597.356 259.912 548.933 0 0 0 S
183.696 424.21 183.683 461.689 0 0 0 S
183.683 461.689 183.696 424.21 0 0 0 S
371.04 668.043 395.66 618.835 0 0 0 S
395.66 618.835 371.04 668.043 0 0 0 S
463.527 153.04 431.184 183.906 0 0 0 S
431.184 183.906 463.527 153.04 0 0 0 S
254.657 597.356 209.352 611.213 0 0 0 S
209.352 611.213 254.657 597.356 0 0 0 S
428.825 57.2202 448.248 105.584 0 0 0 S
448.248 105.584 428.825 57.2202 0 0 0 S
263.664 499.168 235.458 528.908 0 0 0 S
235.458 528.908 263.664 499.168 0 0 0 S
135.041 417.767 171.728 371.566 0 0 0 S
171.728 371.566 135.041 417.767 0 0 0 S
171.728 371.566 122.111 370.067 0 0 0 S
122.111 370.067 171.728 371.566 0 0 0 S
494.066 317.507 472.778 362.246 0 0 0 S
472.778 362.246 494.066 317.507 0 0 0 S
259.912 548.933 263.664 499.168 0 0 0 S
263.664 499.168 259.912 548.933 0 0 0 S
242.109 489.719 263.664 499.168 0 0 0 S
263.664 499.168 242.109 489.719 0 0 0 S
165.984 161.214 196.378 139.418 0 0 0 S
196.378 139.418 165.984 161.214 0 0 0 S
458.408 288.317 484.109 247.254 0 0 0 S
484.109 247.254 458.408 288.317 0 0 0 S
293.657 671.416 266.885 623.969 0 0 0 S
266.885 623.969 293.657 671.416 0 0 0 S
222.191 462.973 183.696 424.21 0 0 0 S
183.696 424.21 222.191 462.973 0 0 0 S
447.649 631.489 395.66 618.835 0 0 0 S
395.66 618.835 447.649 631.489 0 0 0 S
214.54 640.674 254.657 597.356 0 0 0 S
254.657 597.356 214.54 640.674 0 0 0 S
472.778 362.246 464.12 414.993 0 0 0 S
464.12 414.993 472.778 362.246 0 0 0 S
431.184 183.906 470.962 197.576 0 0 0 S
470.962 197.576 431.184 183.906 0 0 0 S
454.072 235.61 484.109 247.254 0 0 0 S
484.109 247.254 454.072 235.61 0 0 0 S
410.315 483.283 404.933 440.353 0 0 0 S
404.933 440.353 410.315 483.283 0 0 0 S
196.378 139.418 178.786 112.231 0 0 0 S
178.786 112.231 196.378 139.418 0 0 0 S
395.66 618.835 405.553 591.7 0 0 0 S
405.553 591.7 395.66 618.835 0 0 0 S
203.692 190.13 165.984 161.214 0 0 0 S
165.984 161.214 203.692 190.13 0 0 0 S
494.066 317.507 458.408 288.317 0 0 0 S
458.408 288.317 494.066 317.507 0 0 0 S
404.933 440.353 428.514 455.985 0 0 0 S
428.514 455.985 404.933 440.353 0 0 0 S
454.072 235.61 470.962 197.576 0 0 0 S
470.962 197.576 454.072 235.61 0 0 0 S
197.451 62.6455 178.786 112.231 0 0 0 S
178.786 112.231 197.451 62.6455 0 0 0 S
214.54 640.674 266.885 623.969 0 0 0 S
266.885 623.969 214.54 640.674 0 0 0 S
362.879 550.112 396.262 543.862 0 0 0 S
396.262 543.862 362.879 550.112 0 0 0 S
146.491 328.64 171.728 371.566 0 0 0 S
171.728 371.566 146.491 328.64 0 0 0 S
246.688 445.556 242.109 489.719 0 0 0 S
242.109 489.719 246.688 445.556 0 0 0 S
266.885 623.969 254.657 597.356 0 0 0 S
254.657 597.356 266.885 623.969 0 0 0 S
464.12 414.993 404.933 440.353 0 0 0 S
404.933 440.353 464.12 414.993 0 0 0 S
182.296 296.686 151.914 256.743 0 0 0 S
151.914 256.743 182.296 296.686 0 0 0 S
259.912 548.933 296.519 552.456 0 0 0 S
296.519 552.456 259.912 548.933 0 0 0 S
331.569 580.868 371.04 668.043 0 0 0 S
371.04 668.043 331.569 580.868 0 0 0 S
203.692 190.13 161.747 206.301 0 0 0 S
161.747 206.301 203.692 190.13 0 0 0 S
331.569 580.868 293.657 671.416 0 0 0 S
293.657 671.416 331.569 580.868 0 0 0 S
183.696 424.21 171.728 371.566 0 0 0 S
171.728 371.566 183.696 424.21 0 0 0 S
246.688 445.556 222.191 462.973 0 0 0 S
222.191 462.973 246.688 445.556 0 0 0 S
448.248 105.584 417.033 93.0469 0 0 0 S
417.033 93.0469 448.248 105.584 0 0 0 S
184.23 243.624 151.914 256.743 0 0 0 S
151.914 256.743 184.23 243.624 0 0 0 S
332.483 659.55 331.569 580.868 0 0 0 S
331.569 580.868 332.483 659.55 0 0 0 S
404.933 440.353 390.127 494.371 0 0 0 S
390.127 494.371 404.933 440.353 0 0 0 S
472.778 362.246 458.408 288.317 0 0 0 S
458.408 288.317 472.778 362.246 0 0 0 S
362.879 550.112 405.553 591.7 0 0 0 S
405.553 591.7 362.879 550.112 0 0 0 S
184.23 243.624 161.747 206.301 0 0 0 S
161.747 206.301 184.23 243.624 0 0 0 S
434.686 133.266 431.184 183.906 0 0 0 S
431.184 183.906 434.686 133.266 0 0 0 S
182.296 296.686 146.491 328.64 0 0 0 S
146.491 328.64 182.296 296.686 0 0 0 S
464.12 414.993 421.68 388.854 0 0 0 S
421.68 388.854 464.12 414.993 0 0 0 S
246.688 445.556 183.696 424.21 0 0 0 S
183.696 424.21 246.688 445.556 0 0 0 S
362.879 550.112 390.127 494.371 0 0 0 S
390.127 494.371 362.879 550.112 0 0 0 S
296.519 552.456 254.657 597.356 0 0 0 S
254.657 597.356 296.519 552.456 0 0 0 S
246.688 445.556 263.664 499.168 0 0 0 S
263.664 499.168 246.688 445.556 0 0 0 S
405.737 26.8208 428.825 57.2202 0 0 0 S
428.825 57.2202 405.737 26.8208 0 0 0 S
395.66 618.835 362.879 550.112 0 0 0 S
362.879 550.112 395.66 618.835 0 0 0 S
213.161 97.9033 178.786 112.231 0 0 0 S
178.786 112.231 213.161 97.9033 0 0 0 S
296.519 552.456 263.664 499.168 0 0 0 S
263.664 499.168 296.519 552.456 0 0 0 S
421.68 388.854 472.778 362.246 0 0 0 S
472.778 362.246 421.68 388.854 0 0 0 S
266.885 623.969 296.519 552.456 0 0 0 S
296.519 552.456 266.885 623.969 0 0 0 S
196.378 139.418 203.692 190.13 0 0 0 S
203.692 190.13 196.378 139.418 0 0 0 S
331.569 580.868 395.66 618.835 0 0 0 S
395.66 618.835 331.569 580.868 0 0 0 S
197.451 62.6455 218.935 30.2734 0 0 0 S
218.935 30.2734 197.451 62.6455 0 0 0 S
226.941 395.292 183.696 424.21 0 0 0 S
183.696 424.21 226.941 395.292 0 0 0 S
182.296 296.686 171.728 371.566 0 0 0 S
171.728 371.566 182.296 296.686 0 0 0 S
431.184 183.906 454.072 235.61 0 0 0 S
454.072 235.61 431.184 183.906 0 0 0 S
458.408 288.317 454.072 235.61 0 0 0 S
454.072 235.61 458.408 288.317 0 0 0 S
331.569 580.868 266.885 623.969 0 0 0 S
266.885 623.969 331.569 580.868 0 0 0 S
434.686 133.266 417.033 93.0469 0 0 0 S
417.033 93.0469 434.686 133.266 0 0 0 S
428.825 57.2202 417.033 93.0469 0 0 0 S
417.033 93.0469 428.825 57.2202 0 0 0 S
421.68 388.854 404.933 440.353 0 0 0 S
404.933 440.353 421.68 388.854 0 0 0 S
226.941 395.292 171.728 371.566 0 0 0 S
171.728 371.566 226.941 395.292 0 0 0 S
472.778 362.246 415.476 337.291 0 0 0 S
415.476 337.291 472.778 362.246 0 0 0 S
434.686 133.266 409.495 138.234 0 0 0 S
409.495 138.234 434.686 133.266 0 0 0 S
362.879 550.112 331.569 580.868 0 0 0 S
331.569 580.868 362.879 550.112 0 0 0 S
203.692 190.13 184.23 243.624 0 0 0 S
184.23 243.624 203.692 190.13 0 0 0 S
196.378 139.418 213.161 97.9033 0 0 0 S
213.161 97.9033 196.378 139.418 0 0 0 S
331.569 580.868 296.519 552.456 0 0 0 S
296.519 552.456 331.569 580.868 0 0 0 S
182.296 296.686 184.23 243.624 0 0 0 S
184.23 243.624 182.296 296.686 0 0 0 S
436.101 260.77 458.408 288.317 0 0 0 S
458.408 288.317 436.101 260.77 0 0 0 S
246.688 445.556 226.941 395.292 0 0 0 S
226.941 395.292 246.688 445.556 0 0 0 S
197.451 62.6455 213.161 97.9033 0 0 0 S
213.161 97.9033 197.451 62.6455 0 0 0 S
409.495 138.234 431.184 183.906 0 0 0 S
431.184 183.906 409.495 138.234 0 0 0 S
458.408 288.317 415.476 337.291 0 0 0 S
415.476 337.291 458.408 288.317 0 0 0 S
223.879 143.295 196.378 139.418 0 0 0 S
196.378 139.418 223.879 143.295 0 0 0 S
171.728 371.566 230.725 343.364 0 0 0 S
230.725 343.364 171.728 371.566 0 0 0 S
454.072 235.61 436.101 260.77 0 0 0 S
436.101 260.77 454.072 235.61 0 0 0 S
400.199 40.7944 428.825 57.2202 0 0 0 S
428.825 57.2202 400.199 40.7944 0 0 0 S
407.36 297.922 458.408 288.317 0 0 0 S
458.408 288.317 407.36 297.922 0 0 0 S
223.879 143.295 203.692 190.13 0 0 0 S
203.692 190.13 223.879 143.295 0 0 0 S
182.296 296.686 204.898 267.707 0 0 0 S
204.898 267.707 182.296 296.686 0 0 0 S
415.476 337.291 421.68 388.854 0 0 0 S
421.68 388.854 415.476 337.291 0 0 0 S
182.296 296.686 230.725 343.364 0 0 0 S
230.725 343.364 182.296 296.686 0 0 0 S
405.737 26.8208 374.467 13.7891 0 0 0 S
411.244 235.246 431.184 183.906 0 0 0 S
431.184 183.906 411.244 235.246 0 0 0 S
409.495 138.234 417.033 93.0469 0 0 0 S
417.033 93.0469 409.495 138.234 0 0 0 S
405.737 26.8208 400.199 40.7944 0 0 0 S
400.199 40.7944 405.737 26.8208 0 0 0 S
204.898 267.707 184.23 243.624 0 0 0 S
184.23 243.624 204.898 267.707 0 0 0 S
431.184 183.906 403.645 152.815 0 0 0 S
403.645 152.815 431.184 183.906 0 0 0 S
228.039 44.2114 197.451 62.6455 0 0 0 S
197.451 62.6455 228.039 44.2114 0 0 0 S
389.884 386.149 404.933 440.353 0 0 0 S
404.933 440.353 389.884 386.149 0 0 0 S
251.648 16.8306 218.935 30.2734 0 0 0 S
396.255 181.044 431.184 183.906 0 0 0 S
431.184 183.906 396.255 181.044 0 0 0 S
454.072 235.61 411.244 235.246 0 0 0 S
411.244 235.246 454.072 235.61 0 0 0 S
226.941 395.292 230.725 343.364 0 0 0 S
230.725 343.364 226.941 395.292 0 0 0 S
236.908 302.914 182.296 296.686 0 0 0 S
182.296 296.686 236.908 302.914 0 0 0 S
218.935 30.2734 228.039 44.2114 0 0 0 S
228.039 44.2114 218.935 30.2734 0 0 0 S
223.879 143.295 213.161 97.9033 0 0 0 S
213.161 97.9033 223.879 143.295 0 0 0 S
397.411 193.508 431.184 183.906 0 0 0 S
431.184 183.906 397.411 193.508 0 0 0 S
230.172 240.71 203.692 190.13 0 0 0 S
203.692 190.13 230.172 240.71 0 0 0 S
246.688 445.556 261.273 389.932 0 0 0 S
261.273 389.932 246.688 445.556 0 0 0 S
232.393 156.946 203.692 190.13 0 0 0 S
203.692 190.13 232.393 156.946 0 0 0 S
266.895 10.771 251.648 16.8306 0 0 0 S
431.184 183.906 400.354 209.15 0 0 0 S
400.354 209.15 431.184 183.906 0 0 0 S
389.884 386.149 421.68 388.854 0 0 0 S
421.68 388.854 389.884 386.149 0 0 0 S
374.467 13.7891 354.061 7.69043 0 0 0 S
407.36 297.922 436.101 260.77 0 0 0 S
436.101 260.77 407.36 297.922 0 0 0 S
393.862 163.133 431.184 183.906 0 0 0 S
431.184 183.906 393.862 163.133 0 0 0 S
203.692 190.13 241.689 185.32 0 0 0 S
241.689 185.32 203.692 190.13 0 0 0 S
400.199 40.7944 417.033 93.0469 0 0 0 S
417.033 93.0469 400.199 40.7944 0 0 0 S
415.476 337.291 407.36 297.922 0 0 0 S
407.36 297.922 415.476 337.291 0 0 0 S
230.172 240.71 184.23 243.624 0 0 0 S
184.23 243.624 230.172 240.71 0 0 0 S
241.922 197.689 203.692 190.13 0 0 0 S
203.692 190.13 241.922 197.689 0 0 0 S
411.244 235.246 436.101 260.77 0 0 0 S
436.101 260.77 411.244 235.246 0 0 0 S
360.957 426.517 390.127 494.371 0 0 0 S
390.127 494.371 360.957 426.517 0 0 0 S
226.941 395.292 261.273 389.932 0 0 0 S
261.273 389.932 226.941 395.292 0 0 0 S
203.692 190.13 239.527 213.655 0 0 0 S
239.527 213.655 203.692 190.13 0 0 0 S
314.089 11.2739 266.895 10.771 0 0 0 S
403.645 152.815 409.495 138.234 0 0 0 S
409.495 138.234 403.645 152.815 0 0 0 S
243.137 167.202 203.692 190.13 0 0 0 S
203.692 190.13 243.137 167.202 0 0 0 S
228.039 44.2114 213.161 97.9033 0 0 0 S
213.161 97.9033 228.039 44.2114 0 0 0 S
236.908 302.914 204.898 267.707 0 0 0 S
204.898 267.707 236.908 302.914 0 0 0 S
415.476 337.291 389.884 386.149 0 0 0 S
389.884 386.149 415.476 337.291 0 0 0 S
263.664 499.168 294.541 428.633 0 0 0 S
294.541 428.633 263.664 499.168 0 0 0 S
230.725 343.364 236.908 302.914 0 0 0 S
236.908 302.914 230.725 343.364 0 0 0 S
354.061 7.69043 314.089 11.2739 0 0 0 S
417.033 93.0469 387.332 122.591 0 0 0 S
387.332 122.591 417.033 93.0469 0 0 0 S
204.898 267.707 230.172 240.71 0 0 0 S
230.172 240.71 204.898 267.707 0 0 0 S
411.244 235.246 407.36 297.922 0 0 0 S
407.36 297.922 411.244 235.246 0 0 0 S
223.879 143.295 232.393 156.946 0 0 0 S
232.393 156.946 223.879 143.295 0 0 0 S
400.199 40.7944 374.467 13.7891 0 0 0 S
374.467 13.7891 400.199 40.7944 0 0 0 S
387.332 122.591 409.495 138.234 0 0 0 S
409.495 138.234 387.332 122.591 0 0 0 S
404.933 440.353 360.957 426.517 0 0 0 S
360.957 426.517 404.933 440.353 0 0 0 S
230.725 343.364 261.273 389.932 0 0 0 S
261.273 389.932 230.725 343.364 0 0 0 S
415.476 337.291 402.661 324.272 0 0 0 S
402.661 324.272 415.476 337.291 0 0 0 S
213.161 97.9033 247.625 126.553 0 0 0 S
247.625 126.553 213.161 97.9033 0 0 0 S
379.083 71.8672 417.033 93.0469 0 0 0 S
417.033 93.0469 379.083 71.8672 0 0 0 S
362.879 550.112 360.957 426.517 0 0 0 S
360.957 426.517 362.879 550.112 0 0 0 S
228.039 44.2114 251.648 16.8306 0 0 0 S
251.648 16.8306 228.039 44.2114 0 0 0 S
294.541 428.633 246.688 445.556 0 0 0 S
246.688 445.556 294.541 428.633 0 0 0 S
230.172 240.71 236.908 302.914 0 0 0 S
236.908 302.914 230.172 240.71 0 0 0 S
223.879 143.295 247.625 126.553 0 0 0 S
247.625 126.553 223.879 143.295 0 0 0 S
407.36 297.922 402.661 324.272 0 0 0 S
402.661 324.272 407.36 297.922 0 0 0 S
294.541 428.633 296.519 552.456 0 0 0 S
296.519 552.456 294.541 428.633 0 0 0 S
230.725 343.364 245.306 328.827 0 0 0 S
245.306 328.827 230.725 343.364 0 0 0 S
252.804 75.3247 213.161 97.9033 0 0 0 S
213.161 97.9033 252.804 75.3247 0 0 0 S
314.089 11.2739 374.467 13.7891 0 0 0 S
374.467 13.7891 314.089 11.2739 0 0 0 S
362.879 550.112 329.449 462.943 0 0 0 S
329.449 462.943 362.879 550.112 0 0 0 S
407.36 297.922 377.442 295.256 0 0 0 S
377.442 295.256 407.36 297.922 0 0 0 S
314.089 11.2739 251.648 16.8306 0 0 0 S
251.648 16.8306 314.089 11.2739 0 0 0 S
329.449 462.943 296.519 552.456 0 0 0 S
296.519 552.456 329.449 462.943 0 0 0 S
398.194 348.754 415.476 337.291 0 0 0 S
415.476 337.291 398.194 348.754 0 0 0 S
387.332 122.591 403.645 152.815 0 0 0 S
403.645 152.815 387.332 122.591 0 0 0 S
411.244 235.246 400.354 209.15 0 0 0 S
400.354 209.15 411.244 235.246 0 0 0 S
245.306 328.827 236.908 302.914 0 0 0 S
236.908 302.914 245.306 328.827 0 0 0 S
329.449 462.943 331.569 580.868 0 0 0 S
331.569 580.868 329.449 462.943 0 0 0 S
393.862 163.133 403.645 152.815 0 0 0 S
403.645 152.815 393.862 163.133 0 0 0 S
396.255 181.044 397.411 193.508 0 0 0 S
397.411 193.508 396.255 181.044 0 0 0 S
377.442 295.256 411.244 235.246 0 0 0 S
411.244 235.246 377.442 295.256 0 0 0 S
236.908 302.914 269.107 298.417 0 0 0 S
269.107 298.417 236.908 302.914 0 0 0 S
396.255 181.044 393.862 163.133 0 0 0 S
393.862 163.133 396.255 181.044 0 0 0 S
400.199 40.7944 379.083 71.8672 0 0 0 S
379.083 71.8672 400.199 40.7944 0 0 0 S
230.725 343.364 252.221 353.218 0 0 0 S
252.221 353.218 230.725 343.364 0 0 0 S
374.467 13.7891 366.379 27.8735 0 0 0 S
366.379 27.8735 374.467 13.7891 0 0 0 S
232.393 156.946 247.625 126.553 0 0 0 S
247.625 126.553 232.393 156.946 0 0 0 S
400.199 40.7944 366.379 27.8735 0 0 0 S
366.379 27.8735 400.199 40.7944 0 0 0 S
230.172 240.71 239.527 213.655 0 0 0 S
239.527 213.655 230.172 240.71 0 0 0 S
241.689 185.32 241.922 197.689 0 0 0 S
241.922 197.689 241.689 185.32 0 0 0 S
243.137 167.202 232.393 156.946 0 0 0 S
232.393 156.946 243.137 167.202 0 0 0 S
388.562 140.726 403.645 152.815 0 0 0 S
403.645 152.815 388.562 140.726 0 0 0 S
400.354 209.15 397.411 193.508 0 0 0 S
397.411 193.508 400.354 209.15 0 0 0 S
269.107 298.417 230.172 240.71 0 0 0 S
230.172 240.71 269.107 298.417 0 0 0 S
396.255 181.044 377.65 180.122 0 0 0 S
377.65 180.122 396.255 181.044 0 0 0 S
241.689 185.32 243.137 167.202 0 0 0 S
243.137 167.202 241.689 185.32 0 0 0 S
252.804 75.3247 228.039 44.2114 0 0 0 S
228.039 44.2114 252.804 75.3247 0 0 0 S
377.442 295.256 402.661 324.272 0 0 0 S
402.661 324.272 377.442 295.256 0 0 0 S
262.796 29.7959 251.648 16.8306 0 0 0 S
251.648 16.8306 262.796 29.7959 0 0 0 S
389.884 386.149 398.194 348.754 0 0 0 S
398.194 348.754 389.884 386.149 0 0 0 S
262.796 29.7959 228.039 44.2114 0 0 0 S
228.039 44.2114 262.796 29.7959 0 0 0 S
239.527 213.655 241.922 197.689 0 0 0 S
241.922 197.689 239.527 213.655 0 0 0 S
397.411 193.508 377.65 180.122 0 0 0 S
377.65 180.122 397.411 193.508 0 0 0 S
248.33 144.544 232.393 156.946 0 0 0 S
232.393 156.946 248.33 144.544 0 0 0 S
261.128 182.937 241.689 185.32 0 0 0 S
241.689 185.32 261.128 182.937 0 0 0 S
379.083 71.8672 387.332 122.591 0 0 0 S
387.332 122.591 379.083 71.8672 0 0 0 S
388.562 140.726 387.332 122.591 0 0 0 S
387.332 122.591 388.562 140.726 0 0 0 S
393.862 163.133 377.65 180.122 0 0 0 S
377.65 180.122 393.862 163.133 0 0 0 S
245.306 328.827 269.107 298.417 0 0 0 S
269.107 298.417 245.306 328.827 0 0 0 S
366.379 27.8735 314.089 11.2739 0 0 0 S
314.089 11.2739 366.379 27.8735 0 0 0 S
261.273 389.932 252.221 353.218 0 0 0 S
252.221 353.218 261.273 389.932 0 0 0 S
360.957 426.517 389.884 386.149 0 0 0 S
389.884 386.149 360.957 426.517 0 0 0 S
411.244 235.246 382.688 216.841 0 0 0 S
382.688 216.841 411.244 235.246 0 0 0 S
388.562 140.726 393.862 163.133 0 0 0 S
393.862 163.133 388.562 140.726 0 0 0 S
387.332 122.591 357.479 111.298 0 0 0 S
357.479 111.298 387.332 122.591 0 0 0 S
402.661 324.272 398.194 348.754 0 0 0 S
398.194 348.754 402.661 324.272 0 0 0 S
314.089 11.2739 262.796 29.7959 0 0 0 S
262.796 29.7959 314.089 11.2739 0 0 0 S
241.922 197.689 261.128 182.937 0 0 0 S
261.128 182.937 241.922 197.689 0 0 0 S
397.411 193.508 381.94 199.307 0 0 0 S
381.94 199.307 397.411 193.508 0 0 0 S
389.384 319.97 402.661 324.272 0 0 0 S
402.661 324.272 389.384 319.97 0 0 0 S
252.804 75.3247 247.625 126.553 0 0 0 S
247.625 126.553 252.804 75.3247 0 0 0 S
381.94 199.307 400.354 209.15 0 0 0 S
400.354 209.15 381.94 199.307 0 0 0 S
248.33 144.544 247.625 126.553 0 0 0 S
247.625 126.553 248.33 144.544 0 0 0 S
294.541 428.633 261.273 389.932 0 0 0 S
261.273 389.932 294.541 428.633 0 0 0 S
377.468 377.606 389.884 386.149 0 0 0 S
389.884 386.149 377.468 377.606 0 0 0 S
243.137 167.202 261.128 182.937 0 0 0 S
261.128 182.937 243.137 167.202 0 0 0 S
247.625 126.553 277.544 113.84 0 0 0 S
277.544 113.84 247.625 126.553 0 0 0 S
243.137 167.202 248.33 144.544 0 0 0 S
248.33 144.544 243.137 167.202 0 0 0 S
377.442 295.256 389.384 319.97 0 0 0 S
389.384 319.97 377.442 295.256 0 0 0 S
362.447 133.049 387.332 122.591 0 0 0 S
387.332 122.591 362.447 133.049 0 0 0 S
230.172 240.71 259.438 220.792 0 0 0 S
259.438 220.792 230.172 240.71 0 0 0 S
379.083 71.8672 366.379 27.8735 0 0 0 S
366.379 27.8735 379.083 71.8672 0 0 0 S
357.479 111.298 379.083 71.8672 0 0 0 S
379.083 71.8672 357.479 111.298 0 0 0 S
258.442 202.232 241.922 197.689 0 0 0 S
241.922 197.689 258.442 202.232 0 0 0 S
245.306 328.827 252.221 353.218 0 0 0 S
252.221 353.218 245.306 328.827 0 0 0 S
314.089 11.2739 315.511 24.8066 0 0 0 S
315.511 24.8066 314.089 11.2739 0 0 0 S
370.852 155.469 393.862 163.133 0 0 0 S
393.862 163.133 370.852 155.469 0 0 0 S
377.442 295.256 354.818 322.255 0 0 0 S
354.818 322.255 377.442 295.256 0 0 0 S
245.306 328.827 259.421 324.056 0 0 0 S
259.421 324.056 245.306 328.827 0 0 0 S
350.635 246.033 411.244 235.246 0 0 0 S
411.244 235.246 350.635 246.033 0 0 0 S
239.527 213.655 258.442 202.232 0 0 0 S
258.442 202.232 239.527 213.655 0 0 0 S
275.95 380.777 261.273 389.932 0 0 0 S
261.273 389.932 275.95 380.777 0 0 0 S
400.354 209.15 382.688 216.841 0 0 0 S
382.688 216.841 400.354 209.15 0 0 0 S
377.65 180.122 381.94 199.307 0 0 0 S
381.94 199.307 377.65 180.122 0 0 0 S
274.676 135.664 247.625 126.553 0 0 0 S
247.625 126.553 274.676 135.664 0 0 0 S
277.544 113.84 252.804 75.3247 0 0 0 S
252.804 75.3247 277.544 113.84 0 0 0 S
269.107 298.417 259.421 324.056 0 0 0 S
259.421 324.056 269.107 298.417 0 0 0 S
377.65 180.122 354.908 181.671 0 0 0 S
354.908 181.671 377.65 180.122 0 0 0 S
252.804 75.3247 262.796 29.7959 0 0 0 S
262.796 29.7959 252.804 75.3247 0 0 0 S
269.107 298.417 294.027 324.234 0 0 0 S
294.027 324.234 269.107 298.417 0 0 0 S
267.643 158.072 243.137 167.202 0 0 0 S
243.137 167.202 267.643 158.072 0 0 0 S
370.852 155.469 377.65 180.122 0 0 0 S
377.65 180.122 370.852 155.469 0 0 0 S
317.868 115.681 357.479 111.298 0 0 0 S
357.479 111.298 317.868 115.681 0 0 0 S
362.447 133.049 388.562 140.726 0 0 0 S
388.562 140.726 362.447 133.049 0 0 0 S
294.985 247.688 230.172 240.71 0 0 0 S
230.172 240.71 294.985 247.688 0 0 0 S
370.852 155.469 388.562 140.726 0 0 0 S
388.562 140.726 370.852 155.469 0 0 0 S
261.128 182.937 258.442 202.232 0 0 0 S
258.442 202.232 261.128 182.937 0 0 0 S
317.868 115.681 277.544 113.84 0 0 0 S
277.544 113.84 317.868 115.681 0 0 0 S
239.527 213.655 259.438 220.792 0 0 0 S
259.438 220.792 239.527 213.655 0 0 0 S
261.128 182.937 285.531 183.188 0 0 0 S
285.531 183.188 261.128 182.937 0 0 0 S
357.479 111.298 362.447 133.049 0 0 0 S
362.447 133.049 357.479 111.298 0 0 0 S
381.94 199.307 354.908 181.671 0 0 0 S
354.908 181.671 381.94 199.307 0 0 0 S
379.083 71.8672 316.184 61.6318 0 0 0 S
316.184 61.6318 379.083 71.8672 0 0 0 S
354.818 322.255 389.384 319.97 0 0 0 S
389.384 319.97 354.818 322.255 0 0 0 S
377.442 295.256 343.277 287.979 0 0 0 S
343.277 287.979 377.442 295.256 0 0 0 S
366.379 27.8735 315.511 24.8066 0 0 0 S
315.511 24.8066 366.379 27.8735 0 0 0 S
261.128 182.937 267.643 158.072 0 0 0 S
267.643 158.072 261.128 182.937 0 0 0 S
274.676 135.664 248.33 144.544 0 0 0 S
248.33 144.544 274.676 135.664 0 0 0 S
277.544 113.84 274.676 135.664 0 0 0 S
274.676 135.664 277.544 113.84 0 0 0 S
317.868 115.681 362.447 133.049 0 0 0 S
362.447 133.049 317.868 115.681 0 0 0 S
267.643 158.072 248.33 144.544 0 0 0 S
248.33 144.544 267.643 158.072 0 0 0 S
252.804 75.3247 316.184 61.6318 0 0 0 S
316.184 61.6318 252.804 75.3247 0 0 0 S
316.184 61.6318 366.379 27.8735 0 0 0 S
366.379 27.8735 316.184 61.6318 0 0 0 S
357.479 111.298 316.184 61.6318 0 0 0 S
316.184 61.6318 357.479 111.298 0 0 0 S
315.511 24.8066 262.796 29.7959 0 0 0 S
262.796 29.7959 315.511 24.8066 0 0 0 S
370.852 155.469 354.908 181.671 0 0 0 S
354.908 181.671 370.852 155.469 0 0 0 S
269.107 298.417 304.48 289.605 0 0 0 S
304.48 289.605 269.107 298.417 0 0 0 S
350.635 246.033 377.442 295.256 0 0 0 S
377.442 295.256 350.635 246.033 0 0 0 S
317.868 115.681 274.676 135.664 0 0 0 S
274.676 135.664 317.868 115.681 0 0 0 S
285.531 183.188 258.442 202.232 0 0 0 S
258.442 202.232 285.531 183.188 0 0 0 S
381.94 199.307 382.688 216.841 0 0 0 S
382.688 216.841 381.94 199.307 0 0 0 S
294.027 324.234 259.421 324.056 0 0 0 S
259.421 324.056 294.027 324.234 0 0 0 S
316.184 61.6318 277.544 113.84 0 0 0 S
277.544 113.84 316.184 61.6318 0 0 0 S
402.661 324.272 385.737 336.143 0 0 0 S
385.737 336.143 402.661 324.272 0 0 0 S
362.447 133.049 370.852 155.469 0 0 0 S
370.852 155.469 362.447 133.049 0 0 0 S
377.468 377.606 398.194 348.754 0 0 0 S
398.194 348.754 377.468 377.606 0 0 0 S
316.184 61.6318 262.796 29.7959 0 0 0 S
262.796 29.7959 316.184 61.6318 0 0 0 S
317.868 115.681 316.184 61.6318 0 0 0 S
316.184 61.6318 317.868 115.681 0 0 0 S
267.643 158.072 285.531 183.188 0 0 0 S
285.531 183.188 267.643 158.072 0 0 0 S
269.107 298.417 294.985 247.688 0 0 0 S
294.985 247.688 269.107 298.417 0 0 0 S
342.505 151.868 354.908 181.671 0 0 0 S
354.908 181.671 342.505 151.868 0 0 0 S
320.857 176.248 354.908 181.671 0 0 0 S
354.908 181.671 320.857 176.248 0 0 0 S
319.251 135.27 317.868 115.681 0 0 0 S
317.868 115.681 319.251 135.27 0 0 0 S
274.676 135.664 267.643 158.072 0 0 0 S
267.643 158.072 274.676 135.664 0 0 0 S
381.94 199.307 362.342 201.804 0 0 0 S
362.342 201.804 381.94 199.307 0 0 0 S
259.438 220.792 258.442 202.232 0 0 0 S
258.442 202.232 259.438 220.792 0 0 0 S
362.447 133.049 342.505 151.868 0 0 0 S
342.505 151.868 362.447 133.049 0 0 0 S
285.531 183.188 320.857 176.248 0 0 0 S
320.857 176.248 285.531 183.188 0 0 0 S
342.505 151.868 370.852 155.469 0 0 0 S
370.852 155.469 342.505 151.868 0 0 0 S
362.447 133.049 319.251 135.27 0 0 0 S
319.251 135.27 362.447 133.049 0 0 0 S
296.583 153.078 285.531 183.188 0 0 0 S
285.531 183.188 296.583 153.078 0 0 0 S
252.221 353.218 275.95 380.777 0 0 0 S
275.95 380.777 252.221 353.218 0 0 0 S
354.908 181.671 362.342 201.804 0 0 0 S
362.342 201.804 354.908 181.671 0 0 0 S
360.957 426.517 377.468 377.606 0 0 0 S
377.468 377.606 360.957 426.517 0 0 0 S
245.306 328.827 266.149 339.523 0 0 0 S
266.149 339.523 245.306 328.827 0 0 0 S
316.184 61.6318 315.511 24.8066 0 0 0 S
315.511 24.8066 316.184 61.6318 0 0 0 S
274.676 135.664 319.251 135.27 0 0 0 S
319.251 135.27 274.676 135.664 0 0 0 S
274.676 135.664 296.583 153.078 0 0 0 S
296.583 153.078 274.676 135.664 0 0 0 S
354.818 322.255 343.277 287.979 0 0 0 S
343.277 287.979 354.818 322.255 0 0 0 S
329.449 462.943 360.957 426.517 0 0 0 S
360.957 426.517 329.449 462.943 0 0 0 S
279.731 204.509 258.442 202.232 0 0 0 S
258.442 202.232 279.731 204.509 0 0 0 S
296.583 153.078 267.643 158.072 0 0 0 S
267.643 158.072 296.583 153.078 0 0 0 S
285.531 183.188 279.731 204.509 0 0 0 S
279.731 204.509 285.531 183.188 0 0 0 S
320.857 176.248 342.505 151.868 0 0 0 S
342.505 151.868 320.857 176.248 0 0 0 S
304.48 289.605 294.027 324.234 0 0 0 S
294.027 324.234 304.48 289.605 0 0 0 S
294.541 428.633 329.449 462.943 0 0 0 S
329.449 462.943 294.541 428.633 0 0 0 S
362.342 201.804 382.688 216.841 0 0 0 S
382.688 216.841 362.342 201.804 0 0 0 S
342.505 151.868 319.251 135.27 0 0 0 S
319.251 135.27 342.505 151.868 0 0 0 S
275.95 380.777 294.541 428.633 0 0 0 S
294.541 428.633 275.95 380.777 0 0 0 S
320.857 176.248 296.583 153.078 0 0 0 S
296.583 153.078 320.857 176.248 0 0 0 S
389.384 319.97 373.739 327.459 0 0 0 S
373.739 327.459 389.384 319.97 0 0 0 S
319.251 135.27 296.583 153.078 0 0 0 S
296.583 153.078 319.251 135.27 0 0 0 S
385.737 336.143 398.194 348.754 0 0 0 S
398.194 348.754 385.737 336.143 0 0 0 S
342.505 151.868 319.674 151.489 0 0 0 S
319.674 151.489 342.505 151.868 0 0 0 S
319.674 151.489 320.857 176.248 0 0 0 S
320.857 176.248 319.674 151.489 0 0 0 S
385.737 336.143 389.384 319.97 0 0 0 S
389.384 319.97 385.737 336.143 0 0 0 S
319.674 151.489 319.251 135.27 0 0 0 S
319.251 135.27 319.674 151.489 0 0 0 S
319.674 151.489 296.583 153.078 0 0 0 S
296.583 153.078 319.674 151.489 0 0 0 S
354.818 322.255 373.739 327.459 0 0 0 S
373.739 327.459 354.818 322.255 0 0 0 S
354.908 181.671 339.62 199.878 0 0 0 S
339.62 199.878 354.908 181.671 0 0 0 S
279.731 204.509 259.438 220.792 0 0 0 S
259.438 220.792 279.731 204.509 0 0 0 S
382.688 216.841 350.635 246.033 0 0 0 S
350.635 246.033 382.688 216.841 0 0 0 S
259.421 324.056 276.989 330.422 0 0 0 S
276.989 330.422 259.421 324.056 0 0 0 S
285.531 183.188 302.985 201.099 0 0 0 S
302.985 201.099 285.531 183.188 0 0 0 S
252.221 353.218 266.149 339.523 0 0 0 S
266.149 339.523 252.221 353.218 0 0 0 S
276.989 330.422 294.027 324.234 0 0 0 S
294.027 324.234 276.989 330.422 0 0 0 S
294.985 247.688 259.438 220.792 0 0 0 S
259.438 220.792 294.985 247.688 0 0 0 S
259.421 324.056 266.149 339.523 0 0 0 S
266.149 339.523 259.421 324.056 0 0 0 S
382.688 216.841 352.845 222.929 0 0 0 S
352.845 222.929 382.688 216.841 0 0 0 S
339.62 199.878 320.857 176.248 0 0 0 S
320.857 176.248 339.62 199.878 0 0 0 S
343.277 287.979 350.635 246.033 0 0 0 S
350.635 246.033 343.277 287.979 0 0 0 S
320.857 176.248 302.985 201.099 0 0 0 S
302.985 201.099 320.857 176.248 0 0 0 S
324.434 280.526 343.277 287.979 0 0 0 S
343.277 287.979 324.434 280.526 0 0 0 S
304.48 289.605 294.985 247.688 0 0 0 S
294.985 247.688 304.48 289.605 0 0 0 S
321.429 199.934 320.857 176.248 0 0 0 S
320.857 176.248 321.429 199.934 0 0 0 S
304.48 289.605 324.434 280.526 0 0 0 S
324.434 280.526 304.48 289.605 0 0 0 S
291.085 224.631 259.438 220.792 0 0 0 S
259.438 220.792 291.085 224.631 0 0 0 S
339.62 199.878 362.342 201.804 0 0 0 S
362.342 201.804 339.62 199.878 0 0 0 S
354.818 322.255 356.151 324.532 0 0 0 S
356.151 324.532 354.818 322.255 0 0 0 S
362.342 201.804 352.845 222.929 0 0 0 S
352.845 222.929 362.342 201.804 0 0 0 S
324.434 280.526 350.635 246.033 0 0 0 S
350.635 246.033 324.434 280.526 0 0 0 S
302.985 201.099 279.731 204.509 0 0 0 S
279.731 204.509 302.985 201.099 0 0 0 S
294.918 326.367 294.027 324.234 0 0 0 S
294.027 324.234 294.918 326.367 0 0 0 S
323.099 247.012 350.635 246.033 0 0 0 S
350.635 246.033 323.099 247.012 0 0 0 S
324.434 280.526 294.985 247.688 0 0 0 S
294.985 247.688 324.434 280.526 0 0 0 S
291.085 224.631 279.731 204.509 0 0 0 S
279.731 204.509 291.085 224.631 0 0 0 S
398.194 348.754 368.587 363.965 0 0 0 S
368.587 363.965 398.194 348.754 0 0 0 S
350.635 246.033 352.845 222.929 0 0 0 S
352.845 222.929 350.635 246.033 0 0 0 S
323.099 247.012 294.985 247.688 0 0 0 S
294.985 247.688 323.099 247.012 0 0 0 S
324.434 280.526 323.099 247.012 0 0 0 S
323.099 247.012 324.434 280.526 0 0 0 S
294.985 247.688 291.085 224.631 0 0 0 S
291.085 224.631 294.985 247.688 0 0 0 S
373.739 327.459 385.737 336.143 0 0 0 S
385.737 336.143 373.739 327.459 0 0 0 S
354.818 322.255 341.598 310.709 0 0 0 S
341.598 310.709 354.818 322.255 0 0 0 S
339.62 199.878 352.845 222.929 0 0 0 S
352.845 222.929 339.62 199.878 0 0 0 S
285.901 366.117 252.221 353.218 0 0 0 S
252.221 353.218 285.901 366.117 0 0 0 S
350.635 246.033 322.68 223.698 0 0 0 S
322.68 223.698 350.635 246.033 0 0 0 S
309.809 312.169 294.027 324.234 0 0 0 S
294.027 324.234 309.809 312.169 0 0 0 S
368.587 363.965 360.957 426.517 0 0 0 S
360.957 426.517 368.587 363.965 0 0 0 S
321.429 199.934 339.62 199.878 0 0 0 S
339.62 199.878 321.429 199.934 0 0 0 S
294.985 247.688 322.68 223.698 0 0 0 S
322.68 223.698 294.985 247.688 0 0 0 S
302.985 201.099 291.085 224.631 0 0 0 S
291.085 224.631 302.985 201.099 0 0 0 S
321.429 199.934 302.985 201.099 0 0 0 S
302.985 201.099 321.429 199.934 0 0 0 S
323.099 247.012 322.68 223.698 0 0 0 S
322.68 223.698 323.099 247.012 0 0 0 S
276.989 330.422 266.149 339.523 0 0 0 S
266.149 339.523 276.989 330.422 0 0 0 S
285.901 366.117 294.541 428.633 0 0 0 S
294.541 428.633 285.901 366.117 0 0 0 S
322.68 223.698 339.62 199.878 0 0 0 S
339.62 199.878 322.68 223.698 0 0 0 S
322.68 223.698 352.845 222.929 0 0 0 S
352.845 222.929 322.68 223.698 0 0 0 S
368.587 363.965 377.468 377.606 0 0 0 S
377.468 377.606 368.587 363.965 0 0 0 S
322.68 223.698 302.985 201.099 0 0 0 S
302.985 201.099 322.68 223.698 0 0 0 S
291.085 224.631 322.68 223.698 0 0 0 S
322.68 223.698 291.085 224.631 0 0 0 S
321.429 199.934 322.68 223.698 0 0 0 S
322.68 223.698 321.429 199.934 0 0 0 S
373.739 327.459 356.151 324.532 0 0 0 S
356.151 324.532 373.739 327.459 0 0 0 S
343.277 287.979 341.598 310.709 0 0 0 S
341.598 310.709 343.277 287.979 0 0 0 S
275.95 380.777 285.901 366.117 0 0 0 S
285.901 366.117 275.95 380.777 0 0 0 S
309.809 312.169 304.48 289.605 0 0 0 S
304.48 289.605 309.809 312.169 0 0 0 S
276.989 330.422 294.918 326.367 0 0 0 S
294.918 326.367 276.989 330.422 0 0 0 S
360.957 426.517 347.056 378.376 0 0 0 S
347.056 378.376 360.957 426.517 0 0 0 S
324.434 280.526 341.598 310.709 0 0 0 S
341.598 310.709 324.434 280.526 0 0 0 S
309.809 312.169 324.434 280.526 0 0 0 S
324.434 280.526 309.809 312.169 0 0 0 S
294.541 428.633 309.687 379.853 0 0 0 S
309.687 379.853 294.541 428.633 0 0 0 S
385.737 336.143 368.587 363.965 0 0 0 S
368.587 363.965 385.737 336.143 0 0 0 S
347.056 378.376 329.449 462.943 0 0 0 S
329.449 462.943 347.056 378.376 0 0 0 S
324.434 280.526 326.394 309.019 0 0 0 S
326.394 309.019 324.434 280.526 0 0 0 S
309.687 379.853 329.449 462.943 0 0 0 S
329.449 462.943 309.687 379.853 0 0 0 S
266.149 339.523 285.901 366.117 0 0 0 S
285.901 366.117 266.149 339.523 0 0 0 S
341.598 310.709 356.151 324.532 0 0 0 S
356.151 324.532 341.598 310.709 0 0 0 S
358.245 336.943 373.739 327.459 0 0 0 S
373.739 327.459 358.245 336.943 0 0 0 S
309.809 312.169 294.918 326.367 0 0 0 S
294.918 326.367 309.809 312.169 0 0 0 S
385.737 336.143 358.245 336.943 0 0 0 S
358.245 336.943 385.737 336.143 0 0 0 S
329.449 462.943 328.259 352.042 0 0 0 S
328.259 352.042 329.449 462.943 0 0 0 S
295.233 338.72 276.989 330.422 0 0 0 S
276.989 330.422 295.233 338.72 0 0 0 S
295.233 338.72 266.149 339.523 0 0 0 S
266.149 339.523 295.233 338.72 0 0 0 S
356.151 324.532 358.245 336.943 0 0 0 S
358.245 336.943 356.151 324.532 0 0 0 S
295.233 338.72 294.918 326.367 0 0 0 S
294.918 326.367 295.233 338.72 0 0 0 S
341.598 310.709 326.394 309.019 0 0 0 S
326.394 309.019 341.598 310.709 0 0 0 S
326.394 309.019 309.809 312.169 0 0 0 S
309.809 312.169 326.394 309.019 0 0 0 S
358.245 336.943 368.587 363.965 0 0 0 S
368.587 363.965 358.245 336.943 0 0 0 S
341.598 310.709 358.245 336.943 0 0 0 S
358.245 336.943 341.598 310.709 0 0 0 S
347.056 378.376 368.587 363.965 0 0 0 S
368.587 363.965 347.056 378.376 0 0 0 S
309.809 312.169 295.233 338.72 0 0 0 S
295.233 338.72 309.809 312.169 0 0 0 S
285.901 366.117 295.233 338.72 0 0 0 S
295.233 338.72 285.901 366.117 0 0 0 S
309.687 379.853 285.901 366.117 0 0 0 S
285.901 366.117 309.687 379.853 0 0 0 S
341.598 310.709 328.259 352.042 0 0 0 S
328.259 352.042 341.598 310.709 0 0 0 S
358.245 336.943 347.056 378.376 0 0 0 S
347.056 378.376 358.245 336.943 0 0 0 S
328.259 352.042 309.809 312.169 0 0 0 S
309.809 312.169 328.259 352.042 0 0 0 S
295.233 338.72 309.687 379.853 0 0 0 S
309.687 379.853 295.233 338.72 0 0 0 S
328.259 352.042 326.394 309.019 0 0 0 S
326.394 309.019 328.259 352.042 0 0 0 S
328.259 352.042 358.245 336.943 0 0 0 S
358.245 336.943 328.259 352.042 0 0 0 S
328.259 352.042 347.056 378.376 0 0 0 S
347.056 378.376 328.259 352.042 0 0 0 S
295.233 338.72 328.259 352.042 0 0 0 S
328.259 352.042 295.233 338.72 0 0 0 S
328.259 352.042 309.687 379.853 0 0 0 S
309.687 379.853 328.259 352.042 0 0 0 S

grestore
showpage
