%!PS-Adobe-2.0 EPSF-2.0
%%BoundingBox: 0 0 631 742
%%EndComments

gsave

/threshold 0.05 def

% RGB color command - r g b C
/C { setrgbcolor } bind def

% Point - x_center y_center PointSize/2 0 360 r g b P
/P { C arc fill } bind def

% Segment - x2 y2 x1 y1 r g b S
/S { C moveto lineto stroke } bind def

% Flat-shaded triangle - x3 y3 x2 y2 x1 y1 r g b T
/T { C newpath moveto lineto lineto closepath fill } bind def
/bd{bind def}bind def /triangle { aload pop   setrgbcolor  aload pop 5 3
roll 4 2 roll 3 2 roll exch moveto lineto lineto closepath fill } bd
/computediff1 { 2 copy sub abs threshold ge {pop pop pop true} { exch 2
index sub abs threshold ge { pop pop true} { sub abs threshold ge } ifelse
} ifelse } bd /computediff3 { 3 copy 0 get 3 1 roll 0 get 3 1 roll 0 get
computediff1 {true} { 3 copy 1 get 3 1 roll 1 get 3 1 roll 1 get
computediff1 {true} { 3 copy 2 get 3 1 roll  2 get 3 1 roll 2 get
computediff1 } ifelse } ifelse } bd /middlecolor { aload pop 4 -1 roll
aload pop 4 -1 roll add 2 div 5 1 roll 3 -1 roll add 2 div 3 1 roll add 2
div 3 1 roll exch 3 array astore } bd /gouraudtriangle { computediff3 { 4
-1 roll aload 7 1 roll 6 -1 roll pop 3 -1 roll pop add 2 div 3 1 roll add
2 div exch 3 -1 roll aload 7 1 roll exch pop 4 -1 roll pop add 2 div 3 1
roll add 2 div exch 3 -1 roll aload 7 1 roll pop 3 -1 roll pop add 2 div 3
1 roll add 2 div exch 7 3 roll 10 -3 roll dup 3 index middlecolor 4 1 roll
2 copy middlecolor 4 1 roll 3 copy pop middlecolor 4 1 roll 13 -1 roll
aload pop 17 index 6 index 15 index 19 index 6 index 17 index 6 array
astore 10 index 10 index 14 index gouraudtriangle 17 index 5 index 17
index 19 index 5 index 19 index 6 array astore 10 index 9 index 13 index
gouraudtriangle 13 index 16 index 5 index 15 index 18 index 5 index 6
array astore 12 index 12 index 9 index gouraudtriangle 17 index 16 index
15 index 19 index 18 index 17 index 6 array astore 10 index 12 index 14
index gouraudtriangle 18 {pop} repeat } { aload pop 5 3 roll aload pop 7 3
roll aload pop 9 3 roll 8 index 6 index 4 index add add 3 div 10 1 roll 7
index 5 index 3 index add add 3 div 10 1 roll 6 index 4 index 2 index add
add 3 div 10 1 roll 9 {pop} repeat 3 array astore triangle } ifelse } bd

0.1 setlinewidth
0 0 0 setrgbcolor
0 0 631 742 rectfill

561.063 465.913 558.273 491.234 563.247 511.043 0 0.611943 0.998886 T
72.2393 421.41 73.5649 438.067 74.1074 369.36 0 0.568548 0.912096 T
81.1289 525.54 85.4224 508.549 79.8657 481.825 0 0.604248 0.983495 T
128.603 164.652 101.845 252.956 100.676 257.858 0 0.555882 0.886763 T
559.347 354.013 559.194 353.9 565.091 421.444 0 0.55653 0.888061 T
565.091 421.444 552.365 473.084 562.795 459.855 0 0.635599 1 T
559.347 354.013 542.575 291.017 559.194 353.9 0 0.554577 0.884154 T
526.704 245.399 517.806 222.578 542.575 291.017 0 0.561031 0.897061 T
562.795 459.855 552.365 473.084 558.273 491.234 0 0.648249 1 T
517.806 222.578 526.704 245.399 494.751 155.063 0 0.562959 0.900919 T
558.273 491.234 553.664 537.656 563.247 511.043 0 0.634267 1 T
539.452 635.854 549.769 625.688 557.391 585.73 0 0.625261 1 T
92.1743 601.643 99.8667 632.762 116.801 653.118 0 0.618795 1 T
73.5649 438.067 76.5625 369.54 74.1074 369.36 0 0.575198 0.925395 T
88.0542 304.613 110.565 234.24 100.676 257.858 0 0.57885 0.9327 T
76.5625 369.54 88.0542 304.613 74.1074 369.36 0 0.573437 0.921875 T
77.2759 476.869 91.5127 489.287 73.5649 438.067 0 0.658252 1 T
85.4224 508.549 91.5127 489.287 77.2759 476.869 0 0.669418 1 T
553.664 537.656 560.198 555.38 563.247 511.043 0 0.641243 1 T
128.603 164.652 100.676 257.858 110.565 234.24 0 0.583661 0.942321 T
530.562 669.005 549.769 625.688 539.452 635.854 0 0.623161 1 T
81.1289 525.54 95.7402 554.8 85.4224 508.549 0 0.637011 1 T
552.365 473.084 565.091 421.444 556.088 413.123 0 0.634298 1 T
565.091 421.444 559.194 353.9 556.088 413.123 0 0.624586 1 T
542.575 291.017 517.806 222.578 537.254 289.603 0 0.594579 0.964159 T
559.194 353.9 542.575 291.017 537.254 289.603 0 0.59489 0.964779 T
558.273 491.234 552.365 473.084 539.763 517.009 0 0.673824 1 T
116.801 653.118 99.8667 632.762 126.988 685.436 0 0.616776 1 T
553.664 537.656 558.273 491.234 539.763 517.009 0 0.70976 1 T
81.1289 525.54 89.2549 572.933 95.7402 554.8 0 0.651647 1 T
560.198 555.38 540.283 609.641 557.391 585.73 0 0.624689 1 T
494.479 185.976 517.806 222.578 494.751 155.063 0 0.635423 1 T
96.1865 302.573 110.565 234.24 88.0542 304.613 0 0.616359 1 T
85.0737 428.946 73.5649 438.067 91.5127 489.287 0 0.653843 1 T
96.1865 302.573 88.0542 304.613 76.5625 369.54 0 0.616844 1 T
85.0737 428.946 76.5625 369.54 73.5649 438.067 0 0.644774 1 T
108.819 532.909 91.5127 489.287 85.4224 508.549 0 0.691374 1 T
540.283 609.641 539.452 635.854 557.391 585.73 0 0.624456 1 T
517.806 222.578 511.334 233.546 537.254 289.603 0 0.651052 1 T
108.819 532.909 85.4224 508.549 95.7402 554.8 0 0.724082 1 T
536.171 451.371 552.365 473.084 556.088 413.123 0 0.707688 1 T
92.1743 601.643 115.901 626.577 89.2549 572.933 0 0.632855 1 T
128.603 164.652 110.565 234.24 133.468 195.315 0 0.64883 1 T
544.219 353.644 559.194 353.9 537.254 289.603 0 0.661063 1 T
559.194 353.9 544.219 353.644 556.088 413.123 0 0.664719 1 T
92.1743 601.643 116.801 653.118 115.901 626.577 0 0.635393 1 T
517.806 222.578 494.479 185.976 511.334 233.546 0 0.647481 1 T
539.452 635.854 495.968 671.458 530.562 669.005 0 0.723211 1 T
560.198 555.38 553.664 537.656 533.069 586.325 0 0.702651 1 T
552.365 473.084 529.256 505.069 539.763 517.009 0 0.668439 1 T
552.365 473.084 536.171 451.371 531.272 479.523 0 0.697812 1 T
475.411 132.196 494.479 185.976 494.751 155.063 0 0.620911 1 T
530.562 669.005 495.968 671.458 486.994 704.941 0 0.71772 1 T
96.1865 302.573 119.677 244.582 110.565 234.24 0 0.66668 1 T
529.256 505.069 552.365 473.084 531.272 479.523 0 0.699272 1 T
553.664 537.656 539.763 517.009 516.115 559.398 0 0.761891 1 T
85.0737 428.946 91.5127 489.287 108.807 466.214 0 0.721425 1 T
96.1865 302.573 76.5625 369.54 94.8184 367.781 0 0.67948 1 T
85.0737 428.946 94.8184 367.781 76.5625 369.54 0 0.683915 1 T
119.677 244.582 133.468 195.315 110.565 234.24 0 0.662549 1 T
126.988 685.436 164.767 684.586 116.801 653.118 0 0.733979 1 T
456.107 90.0864 475.411 132.196 494.751 155.063 0 0.613124 1 T
540.283 609.641 560.198 555.38 533.069 586.325 0 0.708401 1 T
128.603 164.652 133.468 195.315 150.674 140.07 0 0.639297 1 T
108.819 532.909 119.622 521.052 91.5127 489.287 0 0.685174 1 T
122.256 601.796 95.7402 554.8 89.2549 572.933 0 0.719198 1 T
538.629 403.944 536.171 451.371 556.088 413.123 0 0.717074 1 T
174.94 717.502 164.767 684.586 126.988 685.436 0 0.727582 1 T
115.465 493.891 108.807 466.214 91.5127 489.287 0 0.711474 1 T
445.489 69.3408 456.107 90.0864 494.751 155.063 0 0.580071 0.935142 T
544.219 353.644 538.629 403.944 556.088 413.123 0 0.708339 1 T
511.334 233.546 517.5 299.332 537.254 289.603 0 0.693395 1 T
540.283 609.641 495.968 671.458 539.452 635.854 0 0.707718 1 T
115.465 493.891 91.5127 489.287 119.622 521.052 0 0.713553 1 T
517.5 299.332 544.219 353.644 537.254 289.603 0 0.693002 1 T
516.115 559.398 533.069 586.325 553.664 537.656 0 0.758819 1 T
108.819 532.909 95.7402 554.8 137.973 573.434 0 0.773401 1 T
128.603 164.652 150.674 140.07 167.917 96.8052 0 0.633692 1 T
529.256 505.069 516.115 559.398 539.763 517.009 0 0.680525 1 T
486.994 704.941 495.968 671.458 415.98 722.603 0 0.775063 1 T
128.603 164.652 167.917 96.8052 181.888 70.0161 0 0.575688 0.926376 T
536.171 451.371 513.773 471.709 531.272 479.523 0 0.745225 1 T
122.256 601.796 89.2549 572.933 115.901 626.577 0 0.725097 1 T
85.0737 428.946 108.807 466.214 104.473 418.517 0 0.732248 1 T
96.1865 302.573 119.552 311.522 119.677 244.582 0 0.707924 1 T
521.854 486.44 529.256 505.069 531.272 479.523 0 0.705063 1 T
116.801 653.118 164.767 684.586 115.901 626.577 0 0.719472 1 T
85.0737 428.946 104.473 418.517 94.8184 367.781 0 0.724564 1 T
248.881 729.261 164.767 684.586 174.94 717.502 0 0.779289 1 T
511.334 233.546 494.479 185.976 484.109 247.254 0 0.705121 1 T
513.773 471.709 521.854 486.44 531.272 479.523 0 0.705696 1 T
96.1865 302.573 94.8184 367.781 119.552 311.522 0 0.707601 1 T
95.7402 554.8 122.256 601.796 137.973 573.434 0 0.769873 1 T
108.819 532.909 137.973 573.434 119.622 521.052 0 0.696413 1 T
536.171 451.371 538.629 403.944 509.822 405.463 0 0.76732 1 T
475.411 132.196 463.527 153.04 494.479 185.976 0 0.687679 1 T
538.629 403.944 544.219 353.644 519.555 357.201 0 0.732595 1 T
115.465 493.891 134.777 484.833 108.807 466.214 0 0.761104 1 T
536.171 451.371 500.617 444.614 513.773 471.709 0 0.760267 1 T
495.968 671.458 540.283 609.641 497.985 634.634 0 0.741837 1 T
540.283 609.641 533.069 586.325 497.985 634.634 0 0.784862 1 T
115.465 493.891 119.622 521.052 128.549 504.525 0 0.731568 1 T
517.5 299.332 511.334 233.546 484.109 247.254 0 0.706412 1 T
529.256 505.069 521.854 486.44 507.994 486.166 0 0.73995 1 T
544.219 353.644 517.5 299.332 519.555 357.201 0 0.732967 1 T
415.98 722.603 495.968 671.458 434.78 672.245 0 0.787202 1 T
151.914 256.743 133.468 195.315 119.677 244.582 0 0.719449 1 T
502.253 529.948 516.115 559.398 529.256 505.069 0 0.739366 1 T
509.822 405.463 500.617 444.614 536.171 451.371 0 0.76342 1 T
516.115 559.398 492.491 604 533.069 586.325 0 0.800211 1 T
507.994 486.166 521.854 486.44 513.773 471.709 0 0.736087 1 T
115.465 493.891 128.549 504.525 134.777 484.833 0 0.733679 1 T
133.468 195.315 165.984 161.214 150.674 140.07 0 0.705412 1 T
135.041 417.767 104.473 418.517 108.807 466.214 0 0.777007 1 T
332.854 725.971 415.98 722.603 371.04 668.043 0 0.805821 1 T
475.411 132.196 456.107 90.0864 448.248 105.584 0 0.676575 1 T
228.647 680.345 164.767 684.586 248.881 729.261 0 0.79148 1 T
134.777 484.833 147.171 456.945 108.807 466.214 0 0.77405 1 T
509.822 405.463 538.629 403.944 519.555 357.201 0 0.772335 1 T
122.111 370.067 94.8184 367.781 104.473 418.517 0 0.744975 1 T
502.253 529.948 529.256 505.069 507.994 486.166 0 0.762158 1 T
293.657 671.416 248.881 729.261 332.854 725.971 0 0.8069 1 T
161.962 647.567 115.901 626.577 164.767 684.586 0 0.753252 1 T
470.962 197.576 494.479 185.976 463.527 153.04 0 0.68473 1 T
161.962 647.567 122.256 601.796 115.901 626.577 0 0.795927 1 T
507.994 486.166 513.773 471.709 495.227 468.027 0 0.755584 1 T
434.78 672.245 495.968 671.458 497.985 634.634 0 0.78959 1 T
492.491 604 516.115 559.398 485.991 573.855 0 0.800482 1 T
513.773 471.709 500.617 444.614 495.227 468.027 0 0.786168 1 T
516.115 559.398 502.253 529.948 485.991 573.855 0 0.770811 1 T
151.914 256.743 119.677 244.582 119.552 311.522 0 0.720848 1 T
533.069 586.325 492.491 604 497.985 634.634 0 0.801532 1 T
494.479 185.976 470.962 197.576 484.109 247.254 0 0.681896 1 T
122.111 370.067 119.552 311.522 94.8184 367.781 0 0.745388 1 T
119.622 521.052 137.973 573.434 150.044 541.594 0 0.747778 1 T
119.622 521.052 150.044 541.594 128.549 504.525 0 0.768237 1 T
463.527 153.04 475.411 132.196 448.248 105.584 0 0.68519 1 T
122.256 601.796 165.984 616.541 137.973 573.434 0.000541075 0.807846 1 T
108.807 466.214 147.171 456.945 135.041 417.767 0 0.776035 1 T
434.78 672.245 371.04 668.043 415.98 722.603 0 0.807012 1 T
134.777 484.833 128.549 504.525 144.541 498.356 0 0.762248 1 T
178.786 112.231 167.917 96.8052 150.674 140.07 0 0.691979 1 T
485.538 488.707 507.994 486.166 495.227 468.027 0.0052936 0.825556 1 T
248.881 729.261 293.657 671.416 228.647 680.345 0.000610366 0.808613 1 T
517.5 299.332 494.066 317.507 519.555 357.201 0 0.741136 1 T
165.984 161.214 133.468 195.315 161.747 206.301 0 0.703209 1 T
161.962 647.567 164.767 684.586 228.647 680.345 0 0.794567 1 T
456.107 90.0864 445.489 69.3408 428.825 57.2202 0 0.610944 0.996889 T
485.538 488.707 502.253 529.948 507.994 486.166 0.00577612 0.826448 1 T
500.617 444.614 465.386 451.994 495.227 468.027 0.0296357 0.859911 1 T
122.111 370.067 104.473 418.517 135.041 417.767 0 0.781846 1 T
170.771 585.808 137.973 573.434 165.984 616.541 0.000709364 0.809521 1 T
170.771 585.808 150.044 541.594 137.973 573.434 0 0.780999 1 T
154.356 480.311 134.777 484.833 144.541 498.356 0 0.775783 1 T
154.356 480.311 147.171 456.945 134.777 484.833 0 0.798238 1 T
151.914 256.743 161.747 206.301 133.468 195.315 0 0.700036 1 T
161.962 647.567 165.984 616.541 122.256 601.796 0.000730979 0.80967 1 T
128.549 504.525 150.044 541.594 144.541 498.356 0 0.771674 1 T
466.958 471.597 485.538 488.707 495.227 468.027 0.0341394 0.865316 1 T
178.786 112.231 150.674 140.07 165.984 161.214 0 0.700155 1 T
494.066 317.507 517.5 299.332 484.109 247.254 0 0.742163 1 T
502.253 529.948 467.93 538.35 485.991 573.855 0.0204849 0.848677 1 T
467.93 538.35 453.619 573.622 485.991 573.855 0.039315 0.871262 1 T
332.483 659.55 332.854 725.971 371.04 668.043 0.00121508 0.812936 1 T
450.04 602.085 492.491 604 485.991 573.855 0.0288078 0.85899 1 T
465.386 451.994 466.958 471.597 495.227 468.027 0.0535739 0.887422 1 T
453.619 573.622 450.04 602.085 485.991 573.855 0.0129648 0.838356 1 T
293.657 671.416 332.854 725.971 332.483 659.55 0.00114481 0.812623 1 T
467.93 538.35 502.253 529.948 485.538 488.707 0.134363 0.973821 1 T
500.617 444.614 509.822 405.463 464.12 414.993 0 0.802189 1 T
453.619 573.622 467.93 538.35 421.604 563.174 0.167583 1 1 T
197.451 62.6455 181.888 70.0161 167.917 96.8052 0 0.617231 1 T
452.001 491.345 485.538 488.707 466.958 471.597 0.370932 1 1 T
450.04 602.085 453.619 573.622 421.604 563.174 0.0118947 0.836898 1 T
447.649 631.489 434.78 672.245 497.985 634.634 0 0.803628 1 T
492.491 604 447.649 631.489 497.985 634.634 0.0167761 0.843775 1 T
466.958 471.597 465.386 451.994 436.14 474.096 0.298216 1 1 T
422.653 492.612 452.001 491.345 436.14 474.096 0.290177 1 1 T
452.001 491.345 466.958 471.597 436.14 474.096 0.402483 1 1 T
154.356 480.311 144.541 498.356 165.968 500.224 0.0118947 0.836845 1 T
467.93 538.35 485.538 488.707 452.001 491.345 0.360966 1 1 T
422.653 492.612 419.409 522.047 452.001 491.345 0.163025 1 1 T
467.93 538.35 419.409 522.047 421.604 563.174 0.448692 1 1 T
154.356 480.311 183.683 461.689 147.171 456.945 0.067033 0.902288 1 T
465.386 451.994 500.617 444.614 464.12 414.993 0 0.805742 1 T
410.315 483.283 422.653 492.612 436.14 474.096 0.00189626 0.816291 1 T
419.409 522.047 422.653 492.612 410.315 483.283 0 0.791508 1 T
419.409 522.047 396.262 543.862 421.604 563.174 0.120277 0.958945 1 T
144.541 498.356 150.044 541.594 165.968 500.224 0.0125979 0.837917 1 T
472.778 362.246 509.822 405.463 519.555 357.201 0 0.78689 1 T
122.111 370.067 146.491 328.64 119.552 311.522 0 0.753223 1 T
452.001 491.345 419.409 522.047 467.93 538.35 0.730067 1 1 T
456.107 90.0864 428.825 57.2202 448.248 105.584 0 0.656729 1 T
154.356 480.311 165.968 500.224 183.36 481.593 0.0550984 0.88913 1 T
170.771 585.808 203.773 582.791 186.948 548.591 0.0616351 0.896242 1 T
170.771 585.808 209.352 611.213 203.773 582.791 0.0216854 0.850143 1 T
447.649 631.489 492.491 604 450.04 602.085 0.0236172 0.852612 1 T
465.386 451.994 428.514 455.985 436.14 474.096 0.0193499 0.847191 1 T
170.771 585.808 186.948 548.591 150.044 541.594 0.0452614 0.878076 1 T
170.771 585.808 165.984 616.541 209.352 611.213 0.067033 0.902214 1 T
154.356 480.311 183.36 481.593 183.683 461.689 0.107647 0.945761 1 T
235.292 570.27 186.948 548.591 203.773 582.791 0.142004 0.981761 1 T
151.914 256.743 119.552 311.522 146.491 328.64 0 0.754223 1 T
235.292 570.27 203.773 582.791 209.352 611.213 0.0199094 0.84793 1 T
428.514 455.985 410.315 483.283 436.14 474.096 0.0216854 0.850155 1 T
200.202 500.731 235.458 528.908 229.776 499.724 0.107647 0.945635 1 T
235.292 570.27 259.912 548.933 235.458 528.908 0.239576 1 1 T
200.202 500.731 229.776 499.724 214.718 482.215 0.167583 1 1 T
161.962 647.567 228.647 680.345 214.54 640.674 0.000709364 0.809422 1 T
183.36 481.593 165.968 500.224 200.202 500.731 0.604416 1 1 T
165.968 500.224 150.044 541.594 186.948 548.591 0.253073 1 1 T
242.109 489.719 229.776 499.724 235.458 528.908 0 0.799733 1 T
235.292 570.27 235.458 528.908 186.948 548.591 0.332624 1 1 T
214.718 482.215 229.776 499.724 242.109 489.719 0.00195315 0.816505 1 T
405.553 591.7 450.04 602.085 421.604 563.174 0 0.782838 1 T
214.718 482.215 183.36 481.593 200.202 500.731 0.604416 1 1 T
183.696 424.21 135.041 417.767 147.171 456.945 0.000957119 0.811426 1 T
396.262 543.862 405.553 591.7 421.604 563.174 0 0.776078 1 T
214.718 482.215 183.683 461.689 183.36 481.593 0.413575 1 1 T
161.962 647.567 214.54 640.674 165.984 616.541 0.0535739 0.887474 1 T
165.968 500.224 186.948 548.591 200.202 500.731 0.542446 1 1 T
494.066 317.507 472.778 362.246 519.555 357.201 0 0.790544 1 T
428.514 455.985 465.386 451.994 464.12 414.993 0.00331756 0.820805 1 T
371.04 668.043 434.78 672.245 395.66 618.835 0.00213411 0.817139 1 T
200.202 500.731 186.948 548.591 235.458 528.908 0.637967 1 1 T
434.686 133.266 463.527 153.04 448.248 105.584 0 0.735412 1 T
183.696 424.21 147.171 456.945 183.683 461.689 0.00117943 0.812853 1 T
214.718 482.215 222.191 462.973 183.683 461.689 0.0582765 0.892636 1 T
419.409 522.047 410.315 483.283 390.127 494.371 0 0.76888 1 T
509.822 405.463 472.778 362.246 464.12 414.993 0 0.79782 1 T
390.127 494.371 396.262 543.862 419.409 522.047 0.00154121 0.814641 1 T
178.786 112.231 197.451 62.6455 167.917 96.8052 0 0.67577 1 T
214.718 482.215 242.109 489.719 222.191 462.973 0.0616351 0.89624 1 T
209.352 611.213 165.984 616.541 214.54 640.674 0.0535739 0.887443 1 T
434.78 672.245 447.649 631.489 395.66 618.835 0.00262298 0.81882 1 T
235.292 570.27 254.657 597.356 259.912 548.933 0 0.787352 1 T
450.04 602.085 405.553 591.7 447.649 631.489 0.00514175 0.825131 1 T
122.111 370.067 135.041 417.767 171.728 371.566 0 0.797094 1 T
235.292 570.27 209.352 611.213 254.657 597.356 0 0.791295 1 T
266.885 623.969 228.647 680.345 293.657 671.416 0.00303811 0.819969 1 T
470.962 197.576 463.527 153.04 431.184 183.906 0 0.764095 1 T
428.825 57.2202 445.489 69.3408 405.737 26.8208 0 0.606648 0.988296 T
235.458 528.908 259.912 548.933 263.664 499.168 0.00384056 0.82224 1 T
235.458 528.908 263.664 499.168 242.109 489.719 0 0.77918 1 T
183.696 424.21 183.683 461.689 222.191 462.973 0.00707677 0.828995 1 T
458.408 288.317 494.066 317.507 484.109 247.254 0 0.758003 1 T
470.962 197.576 454.072 235.61 484.109 247.254 0 0.711936 1 T
178.786 112.231 165.984 161.214 196.378 139.418 0 0.751404 1 T
266.885 623.969 214.54 640.674 228.647 680.345 0.00419247 0.823069 1 T
214.54 640.674 254.657 597.356 209.352 611.213 0.0172624 0.844366 1 T
428.514 455.985 404.933 440.353 410.315 483.283 0 0.754494 1 T
122.111 370.067 171.728 371.566 146.491 328.64 0 0.800216 1 T
218.935 30.2734 181.888 70.0161 197.451 62.6455 0 0.616848 1 T
183.696 424.21 171.728 371.566 135.041 417.767 0.000541075 0.807719 1 T
447.649 631.489 405.553 591.7 395.66 618.835 0.00972457 0.833401 1 T
203.692 190.13 165.984 161.214 161.747 206.301 0 0.775754 1 T
463.527 153.04 434.686 133.266 431.184 183.906 0 0.74144 1 T
404.933 440.353 428.514 455.985 464.12 414.993 0 0.751443 1 T
371.04 668.043 331.569 580.868 332.483 659.55 0.00514175 0.825108 1 T
404.933 440.353 390.127 494.371 410.315 483.283 0 0.71869 1 T
242.109 489.719 246.688 445.556 222.191 462.973 0 0.761864 1 T
332.483 659.55 331.569 580.868 293.657 671.416 0.00514175 0.825234 1 T
396.262 543.862 362.879 550.112 405.553 591.7 0 0.719681 1 T
266.885 623.969 254.657 597.356 214.54 640.674 0.0249982 0.85427 1 T
472.778 362.246 494.066 317.507 458.408 288.317 0 0.787668 1 T
151.914 256.743 184.23 243.624 161.747 206.301 0 0.725975 1 T
362.879 550.112 396.262 543.862 390.127 494.371 0 0.732532 1 T
151.914 256.743 146.491 328.64 182.296 296.686 0 0.768112 1 T
254.657 597.356 296.519 552.456 259.912 548.933 0 0.733021 1 T
242.109 489.719 263.664 499.168 246.688 445.556 0 0.730677 1 T
454.072 235.61 458.408 288.317 484.109 247.254 0 0.719336 1 T
203.692 190.13 196.378 139.418 165.984 161.214 0 0.755848 1 T
183.696 424.21 222.191 462.973 246.688 445.556 0 0.756917 1 T
263.664 499.168 259.912 548.933 296.519 552.456 0 0.745908 1 T
331.569 580.868 371.04 668.043 395.66 618.835 0.0052936 0.825491 1 T
454.072 235.61 470.962 197.576 431.184 183.906 0 0.752213 1 T
417.033 93.0469 434.686 133.266 448.248 105.584 0 0.695358 1 T
266.885 623.969 293.657 671.416 331.569 580.868 0.00561065 0.82608 1 T
428.825 57.2202 417.033 93.0469 448.248 105.584 0 0.695434 1 T
405.553 591.7 362.879 550.112 395.66 618.835 0 0.791573 1 T
472.778 362.246 421.68 388.854 464.12 414.993 0 0.797009 1 T
182.296 296.686 146.491 328.64 171.728 371.566 0 0.797043 1 T
266.885 623.969 296.519 552.456 254.657 597.356 0 0.799961 1 T
421.68 388.854 404.933 440.353 464.12 414.993 0 0.797085 1 T
151.914 256.743 182.296 296.686 184.23 243.624 0 0.732669 1 T
178.786 112.231 196.378 139.418 213.161 97.9033 0 0.714032 1 T
203.692 190.13 161.747 206.301 184.23 243.624 0 0.763279 1 T
178.786 112.231 213.161 97.9033 197.451 62.6455 0 0.714062 1 T
183.696 424.21 226.941 395.292 171.728 371.566 0 0.805598 1 T
183.696 424.21 246.688 445.556 226.941 395.292 0 0.804587 1 T
362.879 550.112 331.569 580.868 395.66 618.835 0.0708873 0.906415 1 T
458.408 288.317 415.476 337.291 472.778 362.246 0 0.800762 1 T
434.686 133.266 409.495 138.234 431.184 183.906 0 0.725162 1 T
266.885 623.969 331.569 580.868 296.519 552.456 0.158589 0.998973 1 T
415.476 337.291 421.68 388.854 472.778 362.246 0 0.804409 1 T
458.408 288.317 454.072 235.61 436.101 260.77 0 0.765596 1 T
203.692 190.13 223.879 143.295 196.378 139.418 0 0.737164 1 T
434.686 133.266 417.033 93.0469 409.495 138.234 0 0.714943 1 T
400.199 40.7944 428.825 57.2202 405.737 26.8208 0 0.667315 1 T
171.728 371.566 230.725 343.364 182.296 296.686 0.000901559 0.811073 1 T
171.728 371.566 226.941 395.292 230.725 343.364 0.00136862 0.813811 1 T
411.244 235.246 454.072 235.61 431.184 183.906 0 0.766215 1 T
218.935 30.2734 197.451 62.6455 228.039 44.2114 0 0.676532 1 T
223.879 143.295 213.161 97.9033 196.378 139.418 0 0.727908 1 T
417.033 93.0469 428.825 57.2202 400.199 40.7944 0 0.695189 1 T
204.898 267.707 184.23 243.624 182.296 296.686 0 0.778889 1 T
407.36 297.922 458.408 288.317 436.101 260.77 0 0.786753 1 T
421.68 388.854 389.884 386.149 404.933 440.353 0 0.744005 1 T
458.408 288.317 407.36 297.922 415.476 337.291 0 0.793608 1 T
390.127 494.371 404.933 440.353 360.957 426.517 0 0.691275 1 T
409.495 138.234 403.645 152.815 431.184 183.906 0 0.672582 1 T
203.692 190.13 184.23 243.624 230.172 240.71 0 0.778214 1 T
228.039 44.2114 197.451 62.6455 213.161 97.9033 0 0.710056 1 T
454.072 235.61 411.244 235.246 436.101 260.77 0 0.776312 1 T
246.688 445.556 261.273 389.932 226.941 395.292 0 0.757551 1 T
362.879 550.112 390.127 494.371 360.957 426.517 0 0.670753 1 T
294.541 428.633 246.688 445.556 263.664 499.168 0 0.705117 1 T
204.898 267.707 182.296 296.686 236.908 302.914 0 0.797385 1 T
294.541 428.633 263.664 499.168 296.519 552.456 0 0.688331 1 T
230.725 343.364 236.908 302.914 182.296 296.686 0 0.80289 1 T
374.467 13.7891 400.199 40.7944 405.737 26.8208 0 0.688811 1 T
389.884 386.149 421.68 388.854 415.476 337.291 0 0.754803 1 T
203.692 190.13 232.393 156.946 223.879 143.295 0 0.690586 1 T
204.898 267.707 230.172 240.71 184.23 243.624 0 0.789666 1 T
218.935 30.2734 228.039 44.2114 251.648 16.8306 0 0.6934 1 T
230.725 343.364 226.941 395.292 261.273 389.932 0 0.768904 1 T
417.033 93.0469 387.332 122.591 409.495 138.234 0 0.718854 1 T
400.354 209.15 411.244 235.246 431.184 183.906 0 0.696882 1 T
411.244 235.246 407.36 297.922 436.101 260.77 0 0.796266 1 T
403.645 152.815 393.862 163.133 431.184 183.906 0 0.706575 1 T
396.255 181.044 397.411 193.508 431.184 183.906 0 0.717181 1 T
393.862 163.133 396.255 181.044 431.184 183.906 0 0.708306 1 T
329.449 462.943 331.569 580.868 362.879 550.112 0 0.760146 1 T
296.519 552.456 331.569 580.868 329.449 462.943 0 0.770885 1 T
314.089 11.2739 266.895 10.771 251.648 16.8306 0 0.647564 1 T
397.411 193.508 400.354 209.15 431.184 183.906 0 0.715063 1 T
374.467 13.7891 354.061 7.69043 314.089 11.2739 0 0.66479 1 T
223.879 143.295 247.625 126.553 213.161 97.9033 0 0.737091 1 T
203.692 190.13 230.172 240.71 239.527 213.655 0 0.710837 1 T
415.476 337.291 407.36 297.922 402.661 324.272 0 0.642696 1 T
203.692 190.13 241.922 197.689 241.689 185.32 0 0.732103 1 T
203.692 190.13 243.137 167.202 232.393 156.946 0 0.720658 1 T
204.898 267.707 236.908 302.914 230.172 240.71 0.000541075 0.80773 1 T
203.692 190.13 241.689 185.32 243.137 167.202 0 0.721644 1 T
387.332 122.591 403.645 152.815 409.495 138.234 0 0.6913 1 T
400.199 40.7944 379.083 71.8672 417.033 93.0469 0 0.734457 1 T
404.933 440.353 389.884 386.149 360.957 426.517 0 0.689626 1 T
203.692 190.13 239.527 213.655 241.922 197.689 0 0.731525 1 T
245.306 328.827 236.908 302.914 230.725 343.364 0 0.666979 1 T
294.541 428.633 261.273 389.932 246.688 445.556 0 0.704389 1 T
377.442 295.256 407.36 297.922 411.244 235.246 0 0.778718 1 T
223.879 143.295 232.393 156.946 247.625 126.553 0 0.710495 1 T
213.161 97.9033 252.804 75.3247 228.039 44.2114 0 0.747004 1 T
417.033 93.0469 379.083 71.8672 387.332 122.591 0 0.733901 1 T
415.476 337.291 398.194 348.754 389.884 386.149 0 0.58949 0.953979 T
400.199 40.7944 374.467 13.7891 366.379 27.8735 0 0.717789 1 T
407.36 297.922 377.442 295.256 402.661 324.272 0 0.75687 1 T
398.194 348.754 415.476 337.291 402.661 324.272 0 0.646004 1 T
247.625 126.553 252.804 75.3247 213.161 97.9033 0 0.746623 1 T
230.172 240.71 236.908 302.914 269.107 298.417 0 0.792947 1 T
261.273 389.932 252.221 353.218 230.725 343.364 0 0.611812 0.998624 T
262.796 29.7959 251.648 16.8306 228.039 44.2114 0 0.726212 1 T
374.467 13.7891 314.089 11.2739 366.379 27.8735 0 0.727645 1 T
245.306 328.827 269.107 298.417 236.908 302.914 0 0.771564 1 T
403.645 152.815 387.332 122.591 388.562 140.726 0 0.671801 1 T
245.306 328.827 230.725 343.364 252.221 353.218 0 0.668234 1 T
397.411 193.508 396.255 181.044 377.65 180.122 0 0.752366 1 T
393.862 163.133 403.645 152.815 388.562 140.726 0 0.70759 1 T
262.796 29.7959 314.089 11.2739 251.648 16.8306 0 0.725551 1 T
396.255 181.044 393.862 163.133 377.65 180.122 0 0.743701 1 T
329.449 462.943 362.879 550.112 360.957 426.517 0 0.750273 1 T
379.083 71.8672 400.199 40.7944 366.379 27.8735 0 0.770694 1 T
294.541 428.633 296.519 552.456 329.449 462.943 0 0.762111 1 T
261.128 182.937 241.689 185.32 241.922 197.689 0 0.75877 1 T
248.33 144.544 247.625 126.553 232.393 156.946 0 0.691589 1 T
411.244 235.246 400.354 209.15 382.688 216.841 0 0.72185 1 T
248.33 144.544 232.393 156.946 243.137 167.202 0 0.72454 1 T
261.128 182.937 243.137 167.202 241.689 185.32 0 0.75017 1 T
397.411 193.508 381.94 199.307 400.354 209.15 0 0.750994 1 T
262.796 29.7959 228.039 44.2114 252.804 75.3247 0 0.782238 1 T
377.442 295.256 389.384 319.97 402.661 324.272 0 0.653495 1 T
387.332 122.591 379.083 71.8672 357.479 111.298 0.0106022 0.834927 1 T
381.94 199.307 397.411 193.508 377.65 180.122 0 0.752343 1 T
259.438 220.792 239.527 213.655 230.172 240.71 0 0.734069 1 T
239.527 213.655 258.442 202.232 241.922 197.689 0 0.756488 1 T
377.442 295.256 411.244 235.246 350.635 246.033 0 0.766687 1 T
277.544 113.84 252.804 75.3247 247.625 126.553 0.0322623 0.863146 1 T
387.332 122.591 362.447 133.049 388.562 140.726 0 0.784683 1 T
245.306 328.827 259.421 324.056 269.107 298.417 0 0.672789 1 T
393.862 163.133 370.852 155.469 377.65 180.122 0 0.772025 1 T
389.884 386.149 398.194 348.754 377.468 377.606 0 0.628753 1 T
370.852 155.469 393.862 163.133 388.562 140.726 0 0.773991 1 T
362.447 133.049 387.332 122.591 357.479 111.298 0 0.787848 1 T
261.128 182.937 241.922 197.689 258.442 202.232 0 0.756471 1 T
314.089 11.2739 315.511 24.8066 366.379 27.8735 0 0.725725 1 T
262.796 29.7959 315.511 24.8066 314.089 11.2739 0 0.728895 1 T
294.985 247.688 230.172 240.71 269.107 298.417 0 0.778301 1 T
389.384 319.97 377.442 295.256 354.818 322.255 0.00104683 0.81197 1 T
389.884 386.149 377.468 377.606 360.957 426.517 0 0.627031 1 T
248.33 144.544 274.676 135.664 247.625 126.553 0 0.792611 1 T
277.544 113.84 247.625 126.553 274.676 135.664 0 0.79712 1 T
400.354 209.15 381.94 199.307 382.688 216.841 0 0.739386 1 T
261.128 182.937 267.643 158.072 243.137 167.202 0 0.781676 1 T
275.95 380.777 252.221 353.218 261.273 389.932 0 0.643614 1 T
248.33 144.544 243.137 167.202 267.643 158.072 0 0.784183 1 T
354.908 181.671 381.94 199.307 377.65 180.122 0 0.806149 1 T
316.184 61.6318 379.083 71.8672 366.379 27.8735 0.0963239 0.933733 1 T
379.083 71.8672 316.184 61.6318 357.479 111.298 0.0936815 0.930968 1 T
269.107 298.417 259.421 324.056 294.027 324.234 0.00168455 0.815398 1 T
370.852 155.469 354.908 181.671 377.65 180.122 0 0.798859 1 T
411.244 235.246 382.688 216.841 350.635 246.033 0 0.732984 1 T
294.541 428.633 275.95 380.777 261.273 389.932 0 0.642897 1 T
317.868 115.681 362.447 133.049 357.479 111.298 0.030487 0.860999 1 T
362.447 133.049 370.852 155.469 388.562 140.726 0.00544985 0.825855 1 T
259.438 220.792 258.442 202.232 239.527 213.655 0 0.750729 1 T
261.128 182.937 258.442 202.232 285.531 183.188 0.001841 0.816007 1 T
277.544 113.84 316.184 61.6318 252.804 75.3247 0.192323 1 1 T
277.544 113.84 274.676 135.664 317.868 115.681 0.0351177 0.866508 1 T
262.796 29.7959 252.804 75.3247 316.184 61.6318 0.203196 1 1 T
377.442 295.256 343.277 287.979 354.818 322.255 0 0.773704 1 T
385.737 336.143 398.194 348.754 402.661 324.272 0 0.639808 1 T
316.184 61.6318 317.868 115.681 357.479 111.298 0.197685 1 1 T
261.128 182.937 285.531 183.188 267.643 158.072 0 0.806971 1 T
389.384 319.97 385.737 336.143 402.661 324.272 0 0.660498 1 T
277.544 113.84 317.868 115.681 316.184 61.6318 0.260099 1 1 T
294.985 247.688 259.438 220.792 230.172 240.71 0 0.741851 1 T
248.33 144.544 267.643 158.072 274.676 135.664 0.0115578 0.836336 1 T
294.027 324.234 304.48 289.605 269.107 298.417 0 0.787522 1 T
315.511 24.8066 316.184 61.6318 366.379 27.8735 0.187103 1 1 T
354.908 181.671 362.342 201.804 381.94 199.307 0 0.761336 1 T
262.796 29.7959 316.184 61.6318 315.511 24.8066 0.341818 1 1 T
354.908 181.671 370.852 155.469 342.505 151.868 0.10183 0.939488 1 T
317.868 115.681 319.251 135.27 362.447 133.049 0.00173519 0.815517 1 T
245.306 328.827 252.221 353.218 266.149 339.523 0 0.658406 1 T
370.852 155.469 362.447 133.049 342.505 151.868 0.182023 1 1 T
274.676 135.664 319.251 135.27 317.868 115.681 0.00254692 0.818528 1 T
245.306 328.827 266.149 339.523 259.421 324.056 0 0.675313 1 T
381.94 199.307 362.342 201.804 382.688 216.841 0 0.781598 1 T
343.277 287.979 377.442 295.256 350.635 246.033 0 0.772322 1 T
320.857 176.248 354.908 181.671 342.505 151.868 0.0861755 0.922817 1 T
258.442 202.232 279.731 204.509 285.531 183.188 0 0.77522 1 T
296.583 153.078 267.643 158.072 285.531 183.188 0.142004 0.981717 1 T
296.583 153.078 274.676 135.664 267.643 158.072 0.253073 1 1 T
362.447 133.049 319.251 135.27 342.505 151.868 0.220649 1 1 T
373.739 327.459 389.384 319.97 354.818 322.255 0 0.587779 0.950557 T
296.583 153.078 285.531 183.188 320.857 176.248 0.134363 0.973725 1 T
294.985 247.688 269.107 298.417 304.48 289.605 0 0.785175 1 T
296.583 153.078 319.251 135.27 274.676 135.664 0.239576 1 1 T
259.438 220.792 279.731 204.509 258.442 202.232 0 0.795349 1 T
319.674 151.489 320.857 176.248 342.505 151.868 0.182023 1 1 T
294.027 324.234 259.421 324.056 276.989 330.422 0 0.583301 0.941601 T
319.251 135.27 319.674 151.489 342.505 151.868 0.182023 1 1 T
296.583 153.078 320.857 176.248 319.674 151.489 0.290177 1 1 T
354.908 181.671 320.857 176.248 339.62 199.878 0 0.768042 1 T
296.583 153.078 319.674 151.489 319.251 135.27 0.298216 1 1 T
302.985 201.099 320.857 176.248 285.531 183.188 0 0.771257 1 T
362.342 201.804 354.908 181.671 339.62 199.878 0 0.770827 1 T
302.985 201.099 285.531 183.188 279.731 204.509 0 0.776548 1 T
362.342 201.804 352.845 222.929 382.688 216.841 0 0.804507 1 T
385.737 336.143 389.384 319.97 373.739 327.459 0 0.690588 1 T
382.688 216.841 352.845 222.929 350.635 246.033 0 0.780742 1 T
259.438 220.792 291.085 224.631 279.731 204.509 0.00101604 0.811789 1 T
398.194 348.754 368.587 363.965 377.468 377.606 0 0.630386 1 T
324.434 280.526 343.277 287.979 350.635 246.033 0.0506485 0.884136 1 T
276.989 330.422 259.421 324.056 266.149 339.523 0 0.695197 1 T
294.985 247.688 304.48 289.605 324.434 280.526 0.0963239 0.933685 1 T
294.985 247.688 291.085 224.631 259.438 220.792 0 0.79019 1 T
356.151 324.532 373.739 327.459 354.818 322.255 0 0.499893 0.774786 T
320.857 176.248 321.429 199.934 339.62 199.878 0 0.793908 1 T
377.468 377.606 368.587 363.965 360.957 426.517 0 0.622726 1 T
302.985 201.099 321.429 199.934 320.857 176.248 0 0.795326 1 T
352.845 222.929 362.342 201.804 339.62 199.878 0.000688375 0.809293 1 T
275.95 380.777 285.901 366.117 252.221 353.218 0 0.645606 1 T
343.277 287.979 341.598 310.709 354.818 322.255 0 0.565808 0.906616 T
323.099 247.012 324.434 280.526 350.635 246.033 0.391683 1 1 T
294.985 247.688 324.434 280.526 323.099 247.012 0.588301 1 1 T
294.027 324.234 309.809 312.169 304.48 289.605 0 0.588771 0.952542 T
294.027 324.234 276.989 330.422 294.918 326.367 0 0.502001 0.779001 T
302.985 201.099 279.731 204.509 291.085 224.631 0.0012896 0.813396 1 T
385.737 336.143 368.587 363.965 398.194 348.754 0 0.670488 1 T
294.541 428.633 285.901 366.117 275.95 380.777 0 0.637746 1 T
322.68 223.698 323.099 247.012 350.635 246.033 0.0177624 0.845117 1 T
352.845 222.929 322.68 223.698 350.635 246.033 0.0313623 0.862016 1 T
294.985 247.688 323.099 247.012 322.68 223.698 0.0280028 0.85799 1 T
252.221 353.218 285.901 366.117 266.149 339.523 0 0.685904 1 T
294.985 247.688 322.68 223.698 291.085 224.631 0.0616351 0.896309 1 T
347.056 378.376 329.449 462.943 360.957 426.517 0 0.702977 1 T
322.68 223.698 352.845 222.929 339.62 199.878 0.158589 0.998965 1 T
321.429 199.934 322.68 223.698 339.62 199.878 0.177078 1 1 T
341.598 310.709 343.277 287.979 324.434 280.526 0 0.698559 1 T
294.541 428.633 329.449 462.943 309.687 379.853 0 0.716184 1 T
324.434 280.526 304.48 289.605 309.809 312.169 0 0.708134 1 T
302.985 201.099 291.085 224.631 322.68 223.698 0.314957 1 1 T
302.985 201.099 322.68 223.698 321.429 199.934 0.298216 1 1 T
341.598 310.709 356.151 324.532 354.818 322.255 0 0.486837 0.748675 T
294.027 324.234 294.918 326.367 309.809 312.169 0 0.498883 0.772766 T
385.737 336.143 373.739 327.459 358.245 336.943 0 0.646587 1 T
368.587 363.965 347.056 378.376 360.957 426.517 0 0.699184 1 T
295.233 338.72 276.989 330.422 266.149 339.523 0 0.655726 1 T
373.739 327.459 356.151 324.532 358.245 336.943 0 0.639435 1 T
294.541 428.633 309.687 379.853 285.901 366.117 0 0.709517 1 T
324.434 280.526 326.394 309.019 341.598 310.709 0 0.724205 1 T
309.809 312.169 326.394 309.019 324.434 280.526 0 0.729061 1 T
295.233 338.72 294.918 326.367 276.989 330.422 0 0.646331 1 T
368.587 363.965 385.737 336.143 358.245 336.943 0 0.727269 1 T
295.233 338.72 266.149 339.523 285.901 366.117 0 0.737827 1 T
356.151 324.532 341.598 310.709 358.245 336.943 0 0.582995 0.940991 T
295.233 338.72 309.809 312.169 294.918 326.367 0 0.603048 0.981096 T
329.449 462.943 347.056 378.376 328.259 352.042 0.000824124 0.810389 1 T
328.259 352.042 309.687 379.853 329.449 462.943 0 0.806116 1 T
347.056 378.376 368.587 363.965 358.245 336.943 0 0.771062 1 T
295.233 338.72 285.901 366.117 309.687 379.853 0 0.778405 1 T
326.394 309.019 328.259 352.042 341.598 310.709 0 0.789343 1 T
309.809 312.169 328.259 352.042 326.394 309.019 0 0.794353 1 T
341.598 310.709 328.259 352.042 358.245 336.943 0 0.799818 1 T
295.233 338.72 328.259 352.042 309.809 312.169 0 0.799157 1 T
328.259 352.042 347.056 378.376 358.245 336.943 0.000957119 0.811443 1 T
295.233 338.72 309.687 379.853 328.259 352.042 0.00728469 0.82935 1 T

grestore
showpage
