%!PS-Adobe-2.0 EPSF-2.0
%%BoundingBox: 0 0 729 387
%%EndComments

gsave

/threshold 0.05 def

% RGB color command - r g b C
/C { setrgbcolor } bind def

% Point - x_center y_center PointSize/2 0 360 r g b P
/P { C arc fill } bind def

% Segment - x2 y2 x1 y1 r g b S
/S { C moveto lineto stroke } bind def

% Flat-shaded triangle - x3 y3 x2 y2 x1 y1 r g b T
/T { C newpath moveto lineto lineto closepath fill } bind def
% The gouraudtriangle PostScript fragement below is free
% written by Frederic Delhoume (delhoume@ilog.fr)
/bd{bind def}bind def /triangle { aload pop   setrgbcolor  aload pop 5 3
roll 4 2 roll 3 2 roll exch moveto lineto lineto closepath fill } bd
/computediff1 { 2 copy sub abs threshold ge {pop pop pop true} { exch 2
index sub abs threshold ge { pop pop true} { sub abs threshold ge } ifelse
} ifelse } bd /computediff3 { 3 copy 0 get 3 1 roll 0 get 3 1 roll 0 get
computediff1 {true} { 3 copy 1 get 3 1 roll 1 get 3 1 roll 1 get
computediff1 {true} { 3 copy 2 get 3 1 roll  2 get 3 1 roll 2 get
computediff1 } ifelse } ifelse } bd /middlecolor { aload pop 4 -1 roll
aload pop 4 -1 roll add 2 div 5 1 roll 3 -1 roll add 2 div 3 1 roll add 2
div 3 1 roll exch 3 array astore } bd /gouraudtriangle { computediff3 { 4
-1 roll aload 7 1 roll 6 -1 roll pop 3 -1 roll pop add 2 div 3 1 roll add
2 div exch 3 -1 roll aload 7 1 roll exch pop 4 -1 roll pop add 2 div 3 1
roll add 2 div exch 3 -1 roll aload 7 1 roll pop 3 -1 roll pop add 2 div 3
1 roll add 2 div exch 7 3 roll 10 -3 roll dup 3 index middlecolor 4 1 roll
2 copy middlecolor 4 1 roll 3 copy pop middlecolor 4 1 roll 13 -1 roll
aload pop 17 index 6 index 15 index 19 index 6 index 17 index 6 array
astore 10 index 10 index 14 index gouraudtriangle 17 index 5 index 17
index 19 index 5 index 19 index 6 array astore 10 index 9 index 13 index
gouraudtriangle 13 index 16 index 5 index 15 index 18 index 5 index 6
array astore 12 index 12 index 9 index gouraudtriangle 17 index 16 index
15 index 19 index 18 index 17 index 6 array astore 10 index 12 index 14
index gouraudtriangle 18 {pop} repeat } { aload pop 5 3 roll aload pop 7 3
roll aload pop 9 3 roll 8 index 6 index 4 index add add 3 div 10 1 roll 7
index 5 index 3 index add add 3 div 10 1 roll 6 index 4 index 2 index add
add 3 div 10 1 roll 9 {pop} repeat 3 array astore triangle } ifelse } bd

0.1 setlinewidth
0 0 0 setrgbcolor
0 0 729 387 rectfill

309.375 213.188 311.438 203.375 308.875 189.688 0 0.521569 0.819608 T
308.5 181.25 299.25 171.125 308.875 189.688 0 0.533333 0.843137 T
294.438 160.563 299.25 171.125 286.5 142.563 0 0.494118 0.764706 T
302.75 245.938 311.438 203.375 309.375 213.188 0 0.494118 0.760784 T
282.438 137.75 294.438 160.563 286.5 142.563 0 0.513726 0.803922 T
446.313 278.625 465.313 290.5 440 272.625 0 0.45098 0.678431 T
308.875 189.688 311.438 203.375 308.5 181.25 0 0.505882 0.784314 T
483.188 312.625 483.188 307.938 482.25 333.75 0 0.552941 0.886275 T
443.313 207.813 440 188.063 439.25 199.5 0 0.596078 0.968628 T
449.25 153.313 440.688 157.438 440 188.063 0 0.670588 1 T
286.5 142.563 299.25 171.125 308.5 181.25 0 0.545098 0.866667 T
439.25 199.5 445.875 227.813 443.313 207.813 0 0.588235 0.94902 T
454.5 130.563 446.75 134.625 449.25 153.313 0 0.654902 1 T
483.188 307.938 465.313 290.5 473.438 300.5 0 0.509804 0.792157 T
275.438 114 282.438 137.75 277.5 112.875 0 0.568627 0.913726 T
473.438 300.5 465.313 290.5 446.313 278.625 0 0.552941 0.882353 T
483.188 307.938 479.125 331 482.25 333.75 0 0.658824 1 T
447.813 254.5 447 253.625 446.313 278.625 0 0.54902 0.87451 T
446.75 134.625 440.688 157.438 449.25 153.313 0 0.658824 1 T
447 253.625 447.813 254.5 445.875 227.813 0 0.541176 0.858824 T
277.5 112.875 282.438 137.75 286.5 142.563 0 0.568627 0.909804 T
439.25 199.5 440 188.063 425.875 187.75 0 0.65098 1 T
440 188.063 440.688 157.438 424.563 171.438 0 0.721569 1 T
281.563 260.063 296.313 252.125 285.375 256.813 0 0.462745 0.701961 T
473.438 300.5 479.125 331 483.188 307.938 0 0.737255 1 T
458.375 110.563 449.938 107 454.5 130.563 0 0.670588 1 T
269.625 84.625 275.438 114 277.5 112.875 0 0.576471 0.92549 T
473.125 344.75 474.125 356.688 482.25 333.75 0 0.662745 1 T
473.438 300.5 446.313 278.625 445.938 287.563 0 0.756863 1 T
464.125 375.75 474.125 356.688 464.875 362.125 0 0.670588 1 T
424.875 385.875 425.125 387 441.875 387 0 0.67451 1 T
445.25 386.375 424.875 385.875 441.875 387 0 0.67451 1 T
445.875 227.813 439.25 199.5 439.375 224.563 0 0.623529 1 T
449.938 107 446.75 134.625 454.5 130.563 0 0.666667 1 T
440 188.063 424.563 171.438 425.875 187.75 0 0.662745 1 T
479.125 331 473.125 344.75 482.25 333.75 0 0.682353 1 T
464.125 375.75 451.813 378.875 454.813 383.563 0 0.698039 1 T
425.125 387 424.875 385.875 422.5 387 0 0.678431 1 T
445.938 299.438 473.438 300.5 445.938 287.563 0.0470588 0.882353 1 T
308.5 181.25 300.438 148.875 286.5 142.563 0 0.670588 1 T
308.5 181.25 311.438 203.375 320.938 185.25 0 0.713726 1 T
269.063 74.75 267.75 74.9375 269.625 84.625 0 0.556863 0.886275 T
241.313 292.75 251.875 290.438 270.375 270.25 0 0.52549 0.827451 T
465.688 77.75 455.813 83.625 458.375 110.563 0 0.666667 1 T
272.813 265 281.563 260.063 285.375 256.813 0 0.458824 0.690196 T
445.25 386.375 454.813 383.563 451.813 378.875 0 0.701961 1 T
447 253.625 445.875 227.813 439.375 224.563 0 0.635294 1 T
479.125 331 473.438 300.5 463.813 317.938 0 0.811765 1 T
473.438 300.5 445.938 299.438 463.813 317.938 0.00784314 0.831373 1 T
296.313 252.125 281.563 260.063 293.438 260 0 0.537255 0.847059 T
269.063 74.75 269.625 84.625 277.5 112.875 0 0.560784 0.898039 T
422.688 387 424.875 385.875 420.25 387 0 0.737255 1 T
474.125 356.688 473.125 344.75 464.875 362.125 0 0.67451 1 T
451.813 378.875 424.875 385.875 445.25 386.375 0 0.733333 1 T
431.75 140.688 440.688 157.438 446.75 134.625 0 0.741176 1 T
305.5 387 277.188 369.688 297.25 387 0 0.682353 1 T
458.375 110.563 455.813 83.625 449.938 107 0 0.670588 1 T
319.375 195.188 311.438 203.375 307.188 220.25 0 0.607843 0.988235 T
286.5 142.563 286.313 110.313 277.5 112.875 0 0.705882 1 T
308.5 181.25 320.938 185.25 323.375 169.313 0 0.717647 1 T
451.813 378.875 464.125 375.75 464.875 362.125 0 0.709804 1 T
300.438 148.875 308.5 181.25 323.375 169.313 0 0.752941 1 T
270.375 270.25 268.313 276 272.813 265 0 0.505882 0.784314 T
424.563 171.438 440.688 157.438 431.75 140.688 0 0.737255 1 T
463.813 317.938 464.063 336.5 479.125 331 0 0.776471 1 T
468.563 44.375 463.063 65.875 465.688 77.75 0 0.631373 1 T
320.938 185.25 311.438 203.375 319.375 195.188 0 0.647059 1 T
267.75 74.9375 264.125 40.125 263.313 41.875 0 0.584314 0.945098 T
445.938 299.438 445.375 322.125 463.813 317.938 0.00784314 0.827451 1 T
264.125 40.125 267.75 74.9375 269.063 74.75 0 0.560784 0.898039 T
479.125 331 464.063 336.5 473.125 344.75 0 0.780392 1 T
300.438 148.875 292.688 132.188 286.5 142.563 0 0.682353 1 T
427.813 207.875 439.25 199.5 425.875 187.75 0 0.686275 1 T
439.25 199.5 427.813 207.875 439.375 224.563 0 0.686275 1 T
449.938 107 440.813 122.188 446.75 134.625 0 0.729412 1 T
463.063 65.875 455.813 83.625 465.688 77.75 0 0.658824 1 T
445.938 299.438 445.938 299.375 445.375 322.125 0 0.521569 0.819608 T
235.813 306.563 251.875 290.438 241.313 292.75 0 0.556863 0.886275 T
286.313 110.313 286.5 142.563 292.688 132.188 0 0.670588 1 T
445.938 299.375 445.938 299.438 446.438 285.875 0 0.521569 0.819608 T
439.375 224.563 439.188 249.063 447 253.625 0 0.666667 1 T
277.5 112.875 286.313 110.313 269.063 74.75 0 0.713726 1 T
446.75 134.625 440.813 122.188 431.75 140.688 0 0.737255 1 T
446.438 285.875 447 253.625 442.875 270.375 0 0.631373 1 T
445.375 322.125 464.063 336.5 463.813 317.938 0.00784314 0.831373 1 T
426.75 372.688 424.875 385.875 451.813 378.875 0 0.768628 1 T
281.563 260.063 272.813 265 268.313 276 0 0.619608 1 T
307.188 220.25 314.313 212.875 319.375 195.188 0 0.607843 0.992157 T
252.688 355.313 277.188 369.688 258.813 350.563 0 0.72549 1 T
447 253.625 439.188 249.063 442.875 270.375 0 0.65098 1 T
420.25 387 424.875 385.875 388.5 387 0 0.760784 1 T
238.625 323.688 244.688 340.563 235.813 306.563 0 0.603922 0.988235 T
270.375 270.25 251.875 290.438 258.75 287.938 0 0.541176 0.858824 T
307.188 220.25 301.75 235.875 314.125 229 0 0.662745 1 T
270.375 270.25 258.75 287.938 268.313 276 0 0.505882 0.788235 T
277.188 369.688 305.5 387 287.188 364.125 0 0.721569 1 T
320.938 185.25 332.813 176 323.375 169.313 0 0.776471 1 T
424.563 171.438 431.75 140.688 415.313 166.938 0 0.741176 1 T
266.063 4.5625 263.313 41.875 264.125 40.125 0 0.588235 0.94902 T
319.375 195.188 332.813 176 320.938 185.25 0 0.756863 1 T
424.563 171.438 414.688 184 425.875 187.75 0 0.72549 1 T
451.813 349.5 464.875 362.125 473.125 344.75 0 0.8 1 T
281.563 260.063 277.688 274.188 293.438 260 0 0.713726 1 T
473.125 344.75 464.063 336.5 451.813 349.5 0 0.8 1 T
450.375 337.688 464.063 336.5 445.375 322.125 0 0.741176 1 T
324.563 149 300.438 148.875 323.375 169.313 0 0.796079 1 T
434.313 101.25 440.813 122.188 449.938 107 0 0.784314 1 T
449.938 107 455.813 83.625 434.313 101.25 0 0.780392 1 T
464.875 362.125 443.75 361.438 451.813 378.875 0 0.807843 1 T
305.313 246.438 301.75 235.875 293.438 260 0 0.647059 1 T
314.313 212.875 307.188 220.25 314.125 229 0 0.65098 1 T
450 54.5625 463.063 65.875 468.563 44.375 0 0.760784 1 T
258.813 350.563 277.188 369.688 287.188 364.125 0 0.713726 1 T
286.313 110.313 279 73.8125 269.063 74.75 0 0.701961 1 T
431.25 223.688 439.188 249.063 439.375 224.563 0 0.72549 1 T
300.438 148.875 302.5 124.813 292.688 132.188 0 0.772549 1 T
268.313 276 277.688 274.188 281.563 260.063 0 0.686275 1 T
323.375 169.313 332.813 176 333.313 164.375 0 0.768628 1 T
427.813 207.875 431.25 223.688 439.375 224.563 0 0.713726 1 T
431.75 140.688 440.813 122.188 429.938 113.188 0 0.792157 1 T
415.313 166.938 414.688 184 424.563 171.438 0 0.721569 1 T
447.563 66.375 455.813 83.625 463.063 65.875 0 0.776471 1 T
258.813 350.563 244.688 340.563 252.688 355.313 0 0.733333 1 T
264.125 40.125 269.063 74.75 277.125 53.5625 0 0.705882 1 T
451.813 378.875 443.75 361.438 426.75 372.688 0 0.811765 1 T
399.5 375.313 424.875 385.875 426.75 372.688 0 0.752941 1 T
333.313 164.375 324.563 149 323.375 169.313 0 0.776471 1 T
425.875 187.75 414.688 184 427.813 207.875 0 0.713726 1 T
292.688 132.188 302.5 124.813 286.313 110.313 0 0.772549 1 T
451.813 349.5 464.063 336.5 450.375 337.688 0 0.803922 1 T
339.625 187.563 332.813 176 319.375 195.188 0 0.792157 1 T
324.563 149 302.5 124.813 300.438 148.875 0 0.796079 1 T
305.5 387 309.313 387 287.188 364.125 0 0.721569 1 T
451.813 349.5 443.75 361.438 464.875 362.125 0 0.811765 1 T
442.875 270.375 439.188 249.063 437.25 265.25 0 0.709804 1 T
429.938 113.188 440.813 122.188 434.313 101.25 0 0.784314 1 T
431.75 140.688 417.438 148.688 415.313 166.938 0 0.733333 1 T
314.125 229 301.75 235.875 305.313 246.438 0 0.658824 1 T
327.5 211.313 319.375 195.188 314.313 212.875 0 0.729412 1 T
434.313 101.25 455.813 83.625 442.813 79.9375 0 0.780392 1 T
241.375 306.875 251.875 290.438 235.813 306.563 0 0.647059 1 T
293.438 260 277.688 274.188 286.125 280 0 0.760784 1 T
279 73.8125 277.125 53.5625 269.063 74.75 0 0.709804 1 T
244.688 340.563 241.375 306.875 235.813 306.563 0 0.737255 1 T
442.813 79.9375 455.813 83.625 447.563 66.375 0 0.784314 1 T
424.875 385.875 399.5 375.313 388.5 387 0 0.760784 1 T
266.625 0 266.063 4.5625 268.125 0 0 0.666667 1 T
442.875 270.375 444.875 282.188 446.438 285.875 0 0.513726 0.803922 T
463.063 65.875 450 54.5625 447.563 66.375 0 0.768628 1 T
319.375 195.188 327.5 211.313 339.625 187.563 0 0.737255 1 T
293.438 260 293.438 263.938 305.313 246.438 0 0.517647 0.811765 T
427.125 239.125 439.188 249.063 431.25 223.688 0 0.733333 1 T
427.813 207.875 414.688 184 413.938 195.25 0 0.792157 1 T
286.125 280 293.438 263.938 293.438 260 0 0.517647 0.811765 T
429.938 113.188 419.688 122.125 431.75 140.688 0 0.741176 1 T
446.438 285.875 444.875 282.188 449.938 300.375 0 0.505882 0.792157 T
333.313 164.375 332.813 176 348.188 163.75 0 0.788235 1 T
437.25 265.25 439.188 249.063 427.125 239.125 0 0.721569 1 T
404.313 164.438 414.688 184 415.313 166.938 0 0.776471 1 T
468.563 44.375 474.188 4.5 468.625 10.125 0 0.611765 1 T
314.125 229 327.5 211.313 314.313 212.875 0 0.737255 1 T
286.313 110.313 302.5 124.813 309.25 99.8125 0 0.8 1 T
385.75 158.875 377.938 154.625 382.125 161 0 0.815686 1 T
264.125 40.125 276.813 17.9375 266.063 4.5625 0 0.690196 1 T
468.625 10.125 450 54.5625 468.563 44.375 0 0.666667 1 T
258.75 287.938 251.875 290.438 248.813 304 0 0.639216 1 T
248.813 304 251.875 290.438 241.375 306.875 0 0.658824 1 T
270.75 288.75 277.688 274.188 268.313 276 0 0.709804 1 T
417.438 148.688 431.75 140.688 413.688 132.25 0 0.74902 1 T
382.125 161 377.938 154.625 375 162.813 0 0.784314 1 T
442.813 79.9375 425.063 85.9375 434.313 101.25 0.00392157 0.819608 1 T
348.188 163.75 332.813 176 339.625 187.563 0 0.784314 1 T
429.938 113.188 434.313 101.25 420.563 96 0 0.803922 1 T
417.438 148.688 407.625 153.938 415.313 166.938 0 0.768628 1 T
426.75 372.688 443.75 361.438 435.625 349 0 0.796079 1 T
427.813 207.875 416.938 222.438 431.25 223.688 0 0.745098 1 T
309.313 387 313.625 387 310.625 371.75 0 0.768628 1 T
244.688 340.563 258.813 350.563 256.563 329.438 0 0.796079 1 T
333.313 164.375 345.938 151 324.563 149 0 0.772549 1 T
437.25 265.25 444.875 282.188 442.875 270.375 0 0.588235 0.94902 T
270.75 288.75 268.313 276 258.75 287.938 0 0.709804 1 T
386.375 150.375 377.938 154.625 385.75 158.875 0 0.760784 1 T
287.188 364.125 309.313 387 310.625 371.75 0 0.768628 1 T
407.625 153.938 404.313 164.438 415.313 166.938 0 0.776471 1 T
244.688 340.563 252.188 316.125 241.375 306.875 0 0.788235 1 T
286.313 110.313 300 60.5625 279 73.8125 0 0.796079 1 T
447.563 66.375 429.438 67.9375 442.813 79.9375 0.0117647 0.835294 1 T
375 162.813 377.938 154.625 369.875 155 0 0.737255 1 T
413.938 195.25 416.938 222.438 427.813 207.875 0 0.745098 1 T
382.125 161 385.875 166.875 385.75 158.875 0 0.788235 1 T
435.625 349 443.75 361.438 451.813 349.5 0 0.788235 1 T
309.25 99.8125 303 91 286.313 110.313 0 0.792157 1 T
431.75 140.688 419.688 122.125 413.688 132.25 0 0.74902 1 T
400.813 175.188 414.688 184 404.313 164.438 0.0117647 0.839216 1 T
287.188 364.125 268.313 339.125 258.813 350.563 0 0.796079 1 T
425.063 85.9375 420.563 96 434.313 101.25 0 0.803922 1 T
451.813 349.5 450.375 337.688 438.25 335 0 0.694118 1 T
385.875 166.875 382.125 161 375 162.813 0 0.760784 1 T
264.125 40.125 277.125 53.5625 276.813 17.9375 0 0.709804 1 T
286.125 280 277.688 274.188 270.75 288.75 0 0.772549 1 T
413.938 195.25 414.688 184 400.563 194.25 0 0.807843 1 T
377.188 144.375 377.938 154.625 386.375 150.375 0 0.705882 1 T
442.813 79.9375 429.438 67.9375 425.063 85.9375 0.00784314 0.831373 1 T
369.875 155 377.938 154.625 377.188 144.375 0 0.67451 1 T
328.438 112.25 302.5 124.813 324.563 149 0 0.8 1 T
385.75 158.875 393.063 161.25 386.375 150.375 0 0.784314 1 T
385.875 166.875 393.063 161.25 385.75 158.875 0 0.811765 1 T
450 54.5625 426.563 51.4375 447.563 66.375 0.0509804 0.886275 1 T
348.188 163.75 345.938 151 333.313 164.375 0 0.768628 1 T
252.188 316.125 244.688 340.563 256.563 329.438 0 0.780392 1 T
426.75 372.688 418 359.313 399.5 375.313 0 0.772549 1 T
420.563 96 419.688 122.125 429.938 113.188 0 0.776471 1 T
450.375 337.688 446.375 325.188 438.25 335 0 0.721569 1 T
404.313 164.438 393.063 161.25 400.813 175.188 0.254902 1 1 T
400.563 194.25 414.688 184 400.813 175.188 0 0.807843 1 T
431.25 223.688 416.938 222.438 427.125 239.125 0 0.752941 1 T
268.125 0 266.063 4.5625 277.813 0 0 0.682353 1 T
407.625 153.938 393.063 161.25 404.313 164.438 0.0705882 0.905882 1 T
435.625 349 418 359.313 426.75 372.688 0 0.772549 1 T
400.813 175.188 393.063 161.25 385.875 166.875 0.737255 1 1 T
303 91 300 60.5625 286.313 110.313 0 0.792157 1 T
358.5 180.75 348.188 163.75 339.625 187.563 0.0156863 0.843137 1 T
241.375 306.875 252.188 316.125 248.813 304 0 0.8 1 T
426.563 51.4375 429.438 67.9375 447.563 66.375 0.0431373 0.87451 1 T
427.125 239.125 426.375 261.625 437.25 265.25 0 0.741176 1 T
385.875 166.875 390.063 177.688 400.813 175.188 0.192157 1 1 T
273.438 291.25 285.625 295.063 286.125 280 0.0509804 0.882353 1 T
474.188 4.5 475 0 468.625 10.125 0 0.596078 0.968628 T
375 162.813 372 181.25 385.875 166.875 0.152941 0.992157 1 T
248.813 304 259.563 297.313 258.75 287.938 0 0.72549 1 T
357.938 190.625 358.5 180.75 339.625 187.563 0.00784314 0.831373 1 T
258.813 350.563 268.313 339.125 256.563 329.438 0 0.796079 1 T
310.625 371.75 313.625 387 337 387 0 0.784314 1 T
375 162.813 369.875 155 359 158.875 0.054902 0.890196 1 T
327.5 211.313 314.125 229 330.125 225.688 0 0.756863 1 T
286.125 280 270.75 288.75 273.438 291.25 0.0313726 0.862745 1 T
259.563 297.313 270.75 288.75 258.75 287.938 0 0.733333 1 T
279 73.8125 300 60.5625 277.125 53.5625 0 0.796079 1 T
305.313 246.438 325 241.875 314.125 229 0 0.729412 1 T
417.438 148.688 407.125 138.75 407.625 153.938 0 0.772549 1 T
388.5 387 399.5 375.313 371.938 387 0 0.807843 1 T
385.875 166.875 372 181.25 390.063 177.688 0.290196 1 1 T
386.375 150.375 393.063 161.25 391.313 146.813 0 0.756863 1 T
400.563 194.25 400.813 175.188 390.063 177.688 0.180392 1 1 T
276.625 316 285.625 295.063 267.188 315.125 0.65098 1 1 T
391.313 146.813 393.063 161.25 407.625 153.938 0.027451 0.854902 1 T
359 158.875 372 181.25 375 162.813 0.0117647 0.835294 1 T
309.25 99.8125 302.5 124.813 328.438 112.25 0 0.811765 1 T
327.5 211.313 341.5 214.313 339.625 187.563 0 0.768628 1 T
435.625 349 451.813 349.5 438.25 335 0 0.792157 1 T
324.563 149 345.938 151 340.5 130 0 0.776471 1 T
267.188 315.125 285.625 295.063 263.25 306.688 0.168627 1 1 T
263.25 306.688 285.625 295.063 273.438 291.25 0.407843 1 1 T
348.188 163.75 358.5 180.75 359 158.875 0.137255 0.976471 1 T
425.063 85.9375 429.438 67.9375 412.313 64.0625 0.0627451 0.898039 1 T
386.375 150.375 391.313 146.813 377.188 144.375 0 0.721569 1 T
413.688 132.25 407.125 138.75 417.438 148.688 0 0.772549 1 T
280.188 342.875 268.313 339.125 287.188 364.125 0 0.772549 1 T
259.563 297.313 248.813 304 252.188 316.125 0.12549 0.964706 1 T
390.063 177.688 372 181.25 400.563 194.25 0.298039 1 1 T
377.188 144.375 368.375 149.438 369.875 155 0 0.756863 1 T
267.188 315.125 252.188 316.125 256.563 329.438 0.603922 1 1 T
369.875 155 368.375 149.438 359 158.875 0 0.756863 1 T
420.563 96 425.063 85.9375 407.188 72.5625 0.00784314 0.831373 1 T
436.313 275.875 444.875 282.188 437.25 265.25 0 0.639216 1 T
449.938 300.375 444.875 282.188 449.563 300.688 0 0.509804 0.792157 T
252.188 316.125 267.188 315.125 263.25 306.688 0.282353 1 1 T
267.188 315.125 268.313 339.125 276.625 316 0.486275 1 1 T
359 158.875 345.938 151 348.188 163.75 0.027451 0.858824 1 T
357.938 190.625 372 181.25 358.5 180.75 0.737255 1 1 T
368 387 371.938 387 399.5 375.313 0 0.803922 1 T
259.563 297.313 273.438 291.25 270.75 288.75 0.337255 1 1 T
358.5 180.75 372 181.25 359 158.875 0.74902 1 1 T
373.063 194.25 372 181.25 357.938 190.625 0.690196 1 1 T
400.563 194.25 372 181.25 373.063 194.25 0.701961 1 1 T
437.25 265.25 426.375 261.625 436.313 275.875 0 0.647059 1 T
339.625 187.563 355.188 204.813 357.938 190.625 0 0.776471 1 T
256.563 329.438 268.313 339.125 267.188 315.125 0.568627 1 1 T
263.25 306.688 259.563 297.313 252.188 316.125 0.498039 1 1 T
263.25 306.688 273.438 291.25 259.563 297.313 0.509804 1 1 T
412.313 64.0625 429.438 67.9375 426.563 51.4375 0.0901961 0.92549 1 T
449.563 300.688 449.438 312.938 449.938 300.375 0 0.533333 0.839216 T
305.313 246.438 293.438 263.938 304.125 254.875 0 0.54902 0.87451 T
303 91 309.25 99.8125 317.125 88.125 0.0666667 0.901961 1 T
400.563 194.25 407.5 220.125 413.938 195.25 0 0.784314 1 T
310.625 371.75 306.438 355.875 287.188 364.125 0 0.776471 1 T
328.438 112.25 324.563 149 340.5 130 0 0.772549 1 T
376.438 16.1875 388.5 27.375 392.938 22.25 0 0.756863 1 T
407.625 153.938 407.125 138.75 391.313 146.813 0.00784314 0.827451 1 T
376.438 16.1875 390.313 0 376.875 0 0 0.67451 1 T
266.063 4.5625 276.813 17.9375 277.813 0 0 0.682353 1 T
446.375 325.188 449.438 312.938 445.813 321.625 0 0.603922 0.980392 T
407.5 220.125 416.938 222.438 413.938 195.25 0 0.772549 1 T
412.313 64.0625 407.188 72.5625 425.063 85.9375 0.00784314 0.831373 1 T
339.125 386.438 310.625 371.75 337 387 0 0.784314 1 T
283.313 317.438 285.625 295.063 276.625 316 0 0.690196 1 T
314.125 229 325 241.875 330.125 225.688 0 0.733333 1 T
361.563 24.8125 374.25 24.375 376.438 16.1875 0 0.701961 1 T
402.813 118.625 419.688 122.125 420.563 96 0 0.807843 1 T
358.438 148.125 345.938 151 359 158.875 0.00784314 0.835294 1 T
359 158.875 368.375 149.438 358.438 148.125 0.00392157 0.827451 1 T
475 0 471.25 0 468.625 10.125 0 0.596078 0.968628 T
339.125 386.438 342.875 387 362.25 387 0.00784314 0.831373 1 T
338.875 387 339.125 386.438 337 387 0 0.776471 1 T
450 54.5625 429.688 29.25 426.563 51.4375 0 0.784314 1 T
280.188 342.875 287.188 364.125 291.5 345.5 0 0.768628 1 T
342.875 387 339.125 386.438 339.25 387 0 0.776471 1 T
367.375 139.5 368.375 149.438 377.188 144.375 0 0.788235 1 T
373.063 194.25 384.75 213.25 400.563 194.25 0.0235294 0.854902 1 T
412.313 260.375 426.375 261.625 427.125 239.125 0 0.811765 1 T
427.125 239.125 416.938 222.438 412.313 260.375 0 0.788235 1 T
339.25 387 339.125 386.438 338.875 387 0 0.737255 1 T
290.625 281.875 293.438 263.938 286.125 280 0 0.568627 0.909804 T
328.438 112.25 317.125 88.125 309.25 99.8125 0.0117647 0.839216 1 T
359.875 0 376.438 16.1875 376.875 0 0 0.67451 1 T
339.625 187.563 341.5 214.313 355.188 204.813 0 0.784314 1 T
376.438 16.1875 374.25 24.375 388.5 27.375 0 0.709804 1 T
286.125 280 285.625 295.063 290.625 281.875 0 0.588235 0.94902 T
317.125 88.125 300 60.5625 303 91 0.027451 0.854902 1 T
276.625 316 268.313 339.125 280.688 333.875 0 0.764706 1 T
330.125 225.688 341.5 214.313 327.5 211.313 0 0.776471 1 T
357.938 190.625 355.188 204.813 373.063 194.25 0 0.796079 1 T
396.5 360.5 368 387 399.5 375.313 0 0.803922 1 T
407.188 72.5625 403.188 89.375 420.563 96 0 0.811765 1 T
413.688 132.25 419.688 122.125 402.813 118.625 0 0.807843 1 T
391.313 146.813 380.625 126.5 377.188 144.375 0 0.803922 1 T
392.938 22.25 392.75 0 376.438 16.1875 0 0.678431 1 T
399.5 375.313 418 359.313 396.5 360.5 0 0.803922 1 T
287.188 364.125 306.438 355.875 291.5 345.5 0 0.772549 1 T
403.938 32.1875 398.563 37.25 426.563 51.4375 0 0.792157 1 T
412.313 64.0625 426.563 51.4375 398.563 37.25 0.0745098 0.909804 1 T
358.438 148.125 368.375 149.438 367.375 139.5 0 0.803922 1 T
349.375 370.75 362.25 387 364.813 387 0.00784314 0.831373 1 T
391.313 146.813 407.125 138.75 396.375 132.563 0 0.815686 1 T
310.625 371.75 339.125 386.438 326.625 367.375 0 0.803922 1 T
446.375 325.188 438.875 329.25 438.25 335 0 0.643137 1 T
420.563 96 403.188 89.375 402.813 118.625 0 0.807843 1 T
450 54.5625 468.625 10.125 454.063 16.1875 0 0.721569 1 T
304.125 254.875 325 241.875 305.313 246.438 0 0.576471 0.929412 T
349.375 370.75 339.125 386.438 362.25 387 0.00784314 0.831373 1 T
402.813 118.625 407.125 138.75 413.688 132.25 0 0.815686 1 T
445.813 321.625 438.875 329.25 446.375 325.188 0 0.635294 1 T
403.938 32.1875 392.938 22.25 388.5 27.375 0 0.796079 1 T
426.563 51.4375 429.688 29.25 403.938 32.1875 0 0.780392 1 T
376.438 16.1875 359.875 0 361.563 24.8125 0 0.67451 1 T
280.688 333.875 268.313 339.125 280.188 342.875 0.00392157 0.815686 1 T
400.563 194.25 384.75 213.25 407.5 220.125 0.0470588 0.882353 1 T
377.188 144.375 380.625 126.5 367.375 139.5 0 0.776471 1 T
355.188 204.813 384.75 213.25 373.063 194.25 0 0.811765 1 T
276.625 316 280.688 333.875 283.313 317.438 0 0.709804 1 T
365.813 359.5 364.813 387 368 387 0.00392157 0.827451 1 T
358.313 126.75 345.938 151 358.438 148.125 0.0156863 0.839216 1 T
319.313 53.75 300 60.5625 317.125 88.125 0.380392 1 1 T
412.313 64.0625 393.875 60.1875 407.188 72.5625 0.027451 0.854902 1 T
396.375 132.563 380.625 126.5 391.313 146.813 0.00392157 0.823529 1 T
412.313 260.375 416.938 222.438 407.5 220.125 0 0.8 1 T
416.688 338.438 418 359.313 435.625 349 0 0.8 1 T
396.375 132.563 407.125 138.75 402.813 118.625 0.0470588 0.878431 1 T
398.563 37.25 403.938 32.1875 388.5 27.375 0 0.796079 1 T
319.313 53.75 317.125 88.125 331.938 64.1875 0.211765 1 1 T
326.625 367.375 306.438 355.875 310.625 371.75 0 0.8 1 T
340.5 130 345.938 151 358.313 126.75 0.0156863 0.843137 1 T
454.063 16.1875 429.688 29.25 450 54.5625 0 0.788235 1 T
328.438 112.25 355.688 83.5625 317.125 88.125 0.168627 1 1 T
392.75 0 390.313 0 376.438 16.1875 0 0.678431 1 T
398.563 37.25 393.875 60.1875 412.313 64.0625 0.027451 0.854902 1 T
349.375 370.75 326.625 367.375 339.125 386.438 0.0235294 0.85098 1 T
367.375 139.5 358.313 126.75 358.438 148.125 0.0196078 0.85098 1 T
438.25 335 416.688 338.438 435.625 349 0 0.803922 1 T
276.813 17.9375 277.125 53.5625 302 28.1875 0 0.780392 1 T
277.125 53.5625 300 60.5625 302 28.1875 0 0.780392 1 T
294.375 313 285.625 295.063 283.313 317.438 0 0.72549 1 T
388.125 85.25 403.188 89.375 407.188 72.5625 0.054902 0.890196 1 T
317.125 88.125 355.688 83.5625 331.938 64.1875 0.145098 0.984314 1 T
291.5 345.5 280.688 333.875 280.188 342.875 0 0.807843 1 T
340.5 130 358.313 126.75 328.438 112.25 0.121569 0.960784 1 T
396.5 360.5 365.813 359.5 368 387 0.00392157 0.827451 1 T
465.188 0 468.625 10.125 471.25 0 0 0.721569 1 T
402.813 118.625 380.625 126.5 396.375 132.563 0.462745 1 1 T
365.813 359.5 349.375 370.75 364.813 387 0.00784314 0.831373 1 T
345.063 48.0625 361.563 24.8125 339.313 40.75 0.0941177 0.929412 1 T
363.688 28.375 374.25 24.375 361.563 24.8125 0 0.729412 1 T
338.563 243.938 341.5 214.313 330.125 225.688 0 0.796079 1 T
441.313 292.938 444.875 282.188 436.313 275.875 0 0.65098 1 T
304.125 254.875 293.438 263.938 293.75 270.688 0 0.545098 0.870588 T
407.188 72.5625 393.875 60.1875 388.125 85.25 0.0235294 0.854902 1 T
445.813 321.625 449.438 312.938 446.375 318.938 0 0.568627 0.909804 T
449.563 300.688 444.875 282.188 441.313 292.938 0 0.635294 1 T
405.813 6.5625 392.938 22.25 403.938 32.1875 0 0.721569 1 T
436.313 275.875 426.375 261.625 415.875 273.438 0 0.741176 1 T
367.375 139.5 380.625 126.5 358.313 126.75 0.027451 0.854902 1 T
338.563 243.938 330.125 225.688 325 241.875 0 0.815686 1 T
396.5 360.5 418 359.313 416.688 338.438 0 0.803922 1 T
402.813 118.625 403.188 89.375 383.875 103.25 0.184314 1 1 T
407.5 220.125 384.75 213.25 382.313 235.813 0.133333 0.972549 1 T
361.563 24.8125 345.063 48.0625 363.688 28.375 0 0.713726 1 T
331.938 64.1875 345.063 48.0625 319.313 53.75 0.419608 1 1 T
319.313 53.75 345.063 48.0625 339.313 40.75 0.168627 1 1 T
383.375 32.9375 398.563 37.25 388.5 27.375 0.00392157 0.819608 1 T
415.875 273.438 426.375 261.625 412.313 260.375 0 0.733333 1 T
388.5 27.375 374.25 24.375 383.375 32.9375 0.00392157 0.815686 1 T
382.313 235.813 412.313 260.375 407.5 220.125 0.368627 1 1 T
356.688 223.625 384.75 213.25 355.188 204.813 0.0470588 0.882353 1 T
447.938 307.75 449.438 312.938 449.563 300.688 0 0.564706 0.905882 T
383.875 103.25 380.625 126.5 402.813 118.625 0.384314 1 1 T
355.188 204.813 341.5 214.313 356.688 223.625 0.0235294 0.85098 1 T
383.375 32.9375 393.875 60.1875 398.563 37.25 0.192157 1 1 T
383.875 103.25 403.188 89.375 388.125 85.25 0.0784314 0.913726 1 T
356.688 104.125 328.438 112.25 358.313 126.75 0.129412 0.968628 1 T
293.75 270.688 293.438 263.938 290.625 281.875 0 0.533333 0.839216 T
356.688 104.125 355.688 83.5625 328.438 112.25 0.101961 0.941177 1 T
289.75 329.75 283.313 317.438 280.688 333.875 0 0.784314 1 T
468.625 10.125 465.188 0 454.063 16.1875 0 0.729412 1 T
357.813 55.1875 345.063 48.0625 331.938 64.1875 0.4 1 1 T
361.563 24.8125 359.875 0 339.313 40.75 0 0.745098 1 T
331.938 64.1875 355.688 83.5625 357.813 55.1875 0.396078 1 1 T
382.313 235.813 384.75 213.25 356.688 223.625 0.0862745 0.921569 1 T
290.625 281.875 285.625 295.063 291.25 290.438 0 0.607843 0.992157 T
388.125 85.25 393.875 60.1875 375.938 55.6875 0.345098 1 1 T
358.313 126.75 380.625 126.5 356.688 104.125 0.482353 1 1 T
368.438 34.75 374.25 24.375 363.688 28.375 0.054902 0.890196 1 T
438.25 335 438.875 329.25 416.688 338.438 0 0.733333 1 T
375.938 55.6875 393.875 60.1875 383.375 32.9375 0.384314 1 1 T
356.688 104.125 380.625 126.5 383.875 103.25 0.431373 1 1 T
383.375 32.9375 374.25 24.375 368.438 34.75 0.0431373 0.87451 1 T
324.125 30.375 300 60.5625 319.313 53.75 0 0.792157 1 T
412.313 260.375 382.313 235.813 392.5 265.875 0.129412 0.968628 1 T
356.688 223.625 341.5 214.313 338.563 243.938 0.0235294 0.854902 1 T
403.938 32.1875 429.688 29.25 405.813 6.5625 0 0.752941 1 T
388.125 85.25 355.688 83.5625 383.875 103.25 0.717647 1 1 T
375.938 55.6875 355.688 83.5625 388.125 85.25 0.713726 1 1 T
363.688 28.375 345.063 48.0625 368.438 34.75 0.227451 1 1 T
280.688 333.875 291.5 345.5 300.75 338.438 0 0.811765 1 T
446.375 318.938 438.875 329.25 445.813 321.625 0 0.607843 0.988235 T
357.813 55.1875 355.688 83.5625 375.938 55.6875 0.729412 1 1 T
383.875 103.25 355.688 83.5625 356.688 104.125 0.647059 1 1 T
368.438 34.75 345.063 48.0625 357.813 55.1875 0.611765 1 1 T
291.5 345.5 306.438 355.875 300.75 338.438 0 0.811765 1 T
349.375 370.75 330.75 350.063 326.625 367.375 0.00392157 0.823529 1 T
330.75 350.063 306.438 355.875 326.625 367.375 0.00392157 0.823529 1 T
324.125 30.375 319.313 53.75 339.313 40.75 0 0.764706 1 T
396.625 0 392.75 0 392.938 22.25 0 0.72549 1 T
368.438 34.75 375.938 55.6875 383.375 32.9375 0.647059 1 1 T
375.938 55.6875 368.438 34.75 357.813 55.1875 0.745098 1 1 T
446.375 318.938 449.438 312.938 447.938 307.75 0 0.588235 0.956863 T
382.313 235.813 377.563 264.25 392.5 265.875 0.705882 1 1 T
294.375 313 283.313 317.438 289.75 329.75 0 0.784314 1 T
392.5 265.875 415.875 273.438 412.313 260.375 0 0.772549 1 T
280.688 333.875 300.75 338.438 289.75 329.75 0 0.807843 1 T
296.188 300.75 285.625 295.063 294.375 313 0 0.639216 1 T
405.813 6.5625 396.625 0 392.938 22.25 0 0.72549 1 T
330.75 350.063 349.375 370.75 365.813 359.5 0.0235294 0.85098 1 T
377.563 264.25 382.313 235.813 360.938 260.875 0.317647 1 1 T
356.688 223.625 352.875 252.313 382.313 235.813 0.494118 1 1 T
365.813 359.5 396.5 360.5 392.813 342.313 0.00392157 0.819608 1 T
276.813 17.9375 299.125 0 277.813 0 0 0.776471 1 T
352.875 252.313 356.688 223.625 338.563 243.938 0.309804 1 1 T
416.688 338.438 392.813 342.313 396.5 360.5 0 0.815686 1 T
291.25 290.438 285.625 295.063 296.188 300.75 0 0.635294 1 T
392.5 265.875 377.563 264.25 384.063 274.438 0.0156863 0.839216 1 T
441.313 292.938 447.938 307.75 449.563 300.688 0 0.611765 1 T
325 241.875 304.125 254.875 315.125 254.813 0 0.596078 0.972549 T
300.75 338.438 306.438 355.875 330.75 350.063 0.00392157 0.819608 1 T
382.313 235.813 352.875 252.313 360.938 260.875 0.482353 1 1 T
302 28.1875 300 60.5625 324.125 30.375 0.00392157 0.815686 1 T
315.125 254.813 338.563 243.938 325 241.875 0 0.686275 1 T
360.938 260.875 367.938 271.813 377.563 264.25 0.0313726 0.862745 1 T
339.313 40.75 359.875 0 324.125 30.375 0 0.780392 1 T
465.188 0 454.563 0 454.063 16.1875 0 0.729412 1 T
429.688 29.25 454.063 16.1875 439.563 0 0 0.792157 1 T
424.625 290.438 436.313 275.875 415.875 273.438 0 0.709804 1 T
441.375 321.438 438.875 329.25 446.375 318.938 0 0.678431 1 T
416.688 338.438 438.875 329.25 427.375 328.313 0 0.721569 1 T
436.313 275.875 424.625 290.438 441.313 292.938 0 0.713726 1 T
377.563 264.25 369.625 292.875 384.063 274.438 0.0235294 0.85098 1 T
369.625 292.875 377.563 264.25 367.938 271.813 0.0235294 0.85098 1 T
289.75 329.75 311.813 324.125 294.375 313 0.0117647 0.835294 1 T
302 28.1875 303.25 0 276.813 17.9375 0 0.780392 1 T
300.75 338.438 311.813 324.125 289.75 329.75 0.0156863 0.843137 1 T
384.063 274.438 399.688 288.875 392.5 265.875 0 0.807843 1 T
365.813 359.5 368 334.438 330.75 350.063 0.027451 0.858824 1 T
392.5 265.875 399.688 288.875 415.875 273.438 0 0.807843 1 T
405.813 6.5625 429.688 29.25 414.75 0 0 0.784314 1 T
392.813 342.313 368 334.438 365.813 359.5 0.0235294 0.854902 1 T
392.813 342.313 416.688 338.438 389.25 322.438 0.113725 0.94902 1 T
427.375 328.313 438.875 329.25 441.375 321.438 0 0.729412 1 T
330.75 350.063 311.813 324.125 300.75 338.438 0.027451 0.858824 1 T
352.875 252.313 338.563 243.938 340.938 263.438 0 0.721569 1 T
396.625 0 405.813 6.5625 406.438 0 0 0.768628 1 T
304.125 254.875 293.75 270.688 308.688 267 0 0.647059 1 T
447.938 307.75 441.313 292.938 443.375 304.563 0 0.654902 1 T
454.063 16.1875 454.563 0 439.563 0 0 0.788235 1 T
303.25 0 299.125 0 276.813 17.9375 0 0.780392 1 T
381.063 294.5 384.063 274.438 369.625 292.875 0.0392157 0.87451 1 T
429.688 29.25 429.688 0 414.75 0 0 0.784314 1 T
447.938 307.75 442.813 315.25 446.375 318.938 0 0.662745 1 T
360.938 260.875 352.875 252.313 340.938 263.438 0 0.745098 1 T
429.688 0 429.688 29.25 439.563 0 0 0.792157 1 T
381.063 294.5 399.688 288.875 384.063 274.438 0.00784314 0.827451 1 T
360.938 260.875 351.438 276.25 367.938 271.813 0 0.745098 1 T
446.375 318.938 442.813 315.25 441.375 321.438 0 0.690196 1 T
389.25 322.438 368 334.438 392.813 342.313 0.176471 1 1 T
416.688 338.438 403.25 317.5 389.25 322.438 0 0.803922 1 T
293.75 270.688 290.625 281.875 296.313 284.438 0 0.623529 1 T
406.438 0 405.813 6.5625 414.75 0 0 0.796079 1 T
324.125 30.375 359.875 0 331.75 0 0 0.788235 1 T
304.125 254.875 308.688 267 315.125 254.813 0 0.65098 1 T
338.563 243.938 315.125 254.813 340.938 263.438 0 0.741176 1 T
324.125 30.375 305.563 0 302 28.1875 0.0196078 0.847059 1 T
416.688 318.625 416.688 338.438 427.375 328.313 0 0.792157 1 T
330.75 350.063 368 334.438 336.188 324.5 0.0431373 0.87451 1 T
336.188 324.5 311.813 324.125 330.75 350.063 0.0392157 0.87451 1 T
291.25 290.438 296.313 284.438 290.625 281.875 0 0.627451 1 T
415.875 273.438 399.688 288.875 424.625 290.438 0 0.796079 1 T
381.063 294.5 369.625 292.875 371.25 317.688 0.690196 1 1 T
389.25 322.438 381.063 294.5 371.25 317.688 0.682353 1 1 T
443.375 304.563 442.813 315.25 447.938 307.75 0 0.721569 1 T
371.25 317.688 368 334.438 389.25 322.438 0.698039 1 1 T
367.938 271.813 351.438 276.25 369.625 292.875 0 0.756863 1 T
441.313 292.938 435.563 307.125 443.375 304.563 0 0.74902 1 T
416.688 318.625 403.25 317.5 416.688 338.438 0 0.788235 1 T
294.375 313 311.813 324.125 308.563 308.938 0 0.745098 1 T
381.063 294.5 389.25 322.438 396.063 305.813 0.0352941 0.866667 1 T
396.063 305.813 399.688 288.875 381.063 294.5 0.164706 1 1 T
369.625 292.875 355.938 314.313 371.25 317.688 0.0705882 0.905882 1 T
432.813 316 427.375 328.313 441.375 321.438 0 0.776471 1 T
435.563 307.125 441.313 292.938 424.625 290.438 0 0.74902 1 T
355.938 314.313 368 334.438 371.25 317.688 0.121569 0.960784 1 T
308.563 308.938 296.188 300.75 294.375 313 0 0.745098 1 T
305.563 0 303.25 0 302 28.1875 0.0196078 0.847059 1 T
305.563 0 324.125 30.375 331.75 0 0.027451 0.858824 1 T
340.938 263.438 351.438 276.25 360.938 260.875 0 0.745098 1 T
389.25 322.438 403.25 317.5 396.063 305.813 0.0980392 0.933333 1 T
336.188 324.5 368 334.438 355.938 314.313 0.254902 1 1 T
296.188 300.75 296.25 289.563 291.25 290.438 0 0.643137 1 T
441.375 321.438 442.813 315.25 432.813 316 0 0.764706 1 T
293.75 270.688 297.5 279.313 308.688 267 0 0.643137 1 T
424.625 290.438 399.688 288.875 416.188 298.875 0 0.807843 1 T
435.563 307.125 442.813 315.25 443.375 304.563 0 0.776471 1 T
413.438 308.375 399.688 288.875 396.063 305.813 0.0705882 0.905882 1 T
297.5 279.313 293.75 270.688 296.313 284.438 0 0.623529 1 T
427.375 328.313 432.813 316 416.688 318.625 0 0.803922 1 T
396.063 305.813 403.25 317.5 413.438 308.375 0.0980392 0.937255 1 T
416.188 298.875 399.688 288.875 413.438 308.375 0.0470588 0.878431 1 T
325.625 310.063 311.813 324.125 336.188 324.5 0 0.796079 1 T
296.313 284.438 291.25 290.438 296.25 289.563 0 0.623529 1 T
413.438 308.375 403.25 317.5 416.688 318.625 0.129412 0.968628 1 T
346.75 289.688 355.938 314.313 369.625 292.875 0 0.796079 1 T
355.938 314.313 337.375 309.75 336.188 324.5 0 0.811765 1 T
435.563 307.125 424.625 290.438 431.438 311 0.00392157 0.819608 1 T
424.625 290.438 416.188 298.875 431.438 311 0.027451 0.858824 1 T
432.813 316 442.813 315.25 431.438 311 0.00392157 0.823529 1 T
431.438 311 442.813 315.25 435.563 307.125 0.00392157 0.815686 1 T
416.688 318.625 432.813 316 413.438 308.375 0.513726 1 1 T
369.625 292.875 351.438 276.25 346.75 289.688 0 0.772549 1 T
308.563 308.938 311.813 324.125 325.625 310.063 0 0.796079 1 T
315.125 254.813 318.625 270.813 340.938 263.438 0 0.72549 1 T
432.813 316 431.438 311 413.438 308.375 0 0.811765 1 T
416.188 298.875 413.438 308.375 431.438 311 0.47451 1 1 T
308.688 267 318.625 270.813 315.125 254.813 0 0.737255 1 T
296.25 289.563 296.188 300.75 298.75 293.813 0 0.690196 1 T
336.188 324.5 337.375 309.75 325.625 310.063 0 0.815686 1 T
296.188 300.75 308.563 308.938 303.375 297.375 0 0.713726 1 T
298.75 293.813 296.188 300.75 303.375 297.375 0 0.713726 1 T
341.063 300.75 337.375 309.75 355.938 314.313 0 0.803922 1 T
331.938 277.5 351.438 276.25 340.938 263.438 0 0.772549 1 T
305.125 277 308.688 267 297.5 279.313 0 0.67451 1 T
341.063 300.75 355.938 314.313 346.75 289.688 0 0.796079 1 T
297.5 279.313 296.313 284.438 301.938 286.563 0 0.705882 1 T
296.313 284.438 296.25 289.563 301.938 286.563 0 0.709804 1 T
346.75 289.688 351.438 276.25 331.938 277.5 0 0.788235 1 T
340.938 263.438 318.625 270.813 331.938 277.5 0 0.764706 1 T
298.75 293.813 301.938 286.563 296.25 289.563 0 0.737255 1 T
325.625 310.063 313.125 295.313 308.563 308.938 0 0.8 1 T
325.625 310.063 337.375 309.75 330.188 296.875 0 0.815686 1 T
297.5 279.313 301.938 286.563 305.125 277 0 0.721569 1 T
308.688 267 305.125 277 313.625 281.813 0 0.768628 1 T
313.625 281.813 318.625 270.813 308.688 267 0 0.768628 1 T
308.563 308.938 313.125 295.313 303.375 297.375 0 0.803922 1 T
330.188 296.875 337.375 309.75 341.063 300.75 0 0.811765 1 T
301.938 286.563 298.75 293.813 303.375 297.375 0 0.752941 1 T
341.063 300.75 346.75 289.688 330.188 296.875 0.0784314 0.913726 1 T
330.188 296.875 313.125 295.313 325.625 310.063 0.00392157 0.823529 1 T
346.75 289.688 331.938 277.5 330.188 296.875 0.0745098 0.909804 1 T
303.375 297.375 313.125 295.313 301.938 286.563 0.0156863 0.843137 1 T
331.938 277.5 318.625 270.813 313.625 281.813 0.00392157 0.815686 1 T
301.938 286.563 313.625 281.813 305.125 277 0 0.803922 1 T
313.625 281.813 330.188 296.875 331.938 277.5 0.564706 1 1 T
301.938 286.563 313.125 295.313 313.625 281.813 0.423529 1 1 T
313.625 281.813 313.125 295.313 330.188 296.875 0.701961 1 1 T

grestore
showpage
