%!PS-Adobe-2.0 EPSF-2.0
%%BoundingBox: 0 0 883 539
%%EndComments

gsave

/threshold 0.05 def

% RGB color command - r g b C
/C { setrgbcolor } bind def

% Point - x_center y_center PointSize/2 0 360 r g b P
/P { C arc fill } bind def

% Segment - x2 y2 x1 y1 r g b S
/S { C moveto lineto stroke } bind def

% Flat-shaded triangle - x3 y3 x2 y2 x1 y1 r g b T
/T { C newpath moveto lineto lineto closepath fill } bind def
% The gouraudtriangle PostScript fragement below is free
% written by Frederic Delhoume (delhoume@ilog.fr)
/bd{bind def}bind def /triangle { aload pop   setrgbcolor  aload pop 5 3
roll 4 2 roll 3 2 roll exch moveto lineto lineto closepath fill } bd
/computediff1 { 2 copy sub abs threshold ge {pop pop pop true} { exch 2
index sub abs threshold ge { pop pop true} { sub abs threshold ge } ifelse
} ifelse } bd /computediff3 { 3 copy 0 get 3 1 roll 0 get 3 1 roll 0 get
computediff1 {true} { 3 copy 1 get 3 1 roll 1 get 3 1 roll 1 get
computediff1 {true} { 3 copy 2 get 3 1 roll  2 get 3 1 roll 2 get
computediff1 } ifelse } ifelse } bd /middlecolor { aload pop 4 -1 roll
aload pop 4 -1 roll add 2 div 5 1 roll 3 -1 roll add 2 div 3 1 roll add 2
div 3 1 roll exch 3 array astore } bd /gouraudtriangle { computediff3 { 4
-1 roll aload 7 1 roll 6 -1 roll pop 3 -1 roll pop add 2 div 3 1 roll add
2 div exch 3 -1 roll aload 7 1 roll exch pop 4 -1 roll pop add 2 div 3 1
roll add 2 div exch 3 -1 roll aload 7 1 roll pop 3 -1 roll pop add 2 div 3
1 roll add 2 div exch 7 3 roll 10 -3 roll dup 3 index middlecolor 4 1 roll
2 copy middlecolor 4 1 roll 3 copy pop middlecolor 4 1 roll 13 -1 roll
aload pop 17 index 6 index 15 index 19 index 6 index 17 index 6 array
astore 10 index 10 index 14 index gouraudtriangle 17 index 5 index 17
index 19 index 5 index 19 index 6 array astore 10 index 9 index 13 index
gouraudtriangle 13 index 16 index 5 index 15 index 18 index 5 index 6
array astore 12 index 12 index 9 index gouraudtriangle 17 index 16 index
15 index 19 index 18 index 17 index 6 array astore 10 index 12 index 14
index gouraudtriangle 18 {pop} repeat } { aload pop 5 3 roll aload pop 7 3
roll aload pop 9 3 roll 8 index 6 index 4 index add add 3 div 10 1 roll 7
index 5 index 3 index add add 3 div 10 1 roll 6 index 4 index 2 index add
add 3 div 10 1 roll 9 {pop} repeat 3 array astore triangle } ifelse } bd

0.1 setlinewidth
0 0 0 setrgbcolor
0 0 883 539 rectfill

496.563 374.25 444.625 361.75 0 0.45098 0.67451 S
444.625 361.75 391.625 346.125 0 0.45098 0.67451 S
545.25 384.5 496.563 374.25 0 0.45098 0.67451 S
448.813 365.188 444.625 361.75 0 0.45098 0.67451 S
444.625 361.75 448.813 365.188 0 0.45098 0.67451 S
492.313 375.438 444.625 361.75 0 0.45098 0.67451 S
444.625 361.75 492.313 375.438 0 0.45098 0.67451 S
496.563 374.25 492.313 375.438 0 0.45098 0.67451 S
492.313 375.438 496.563 374.25 0 0.45098 0.67451 S
391.625 346.125 448.813 365.188 0 0.45098 0.67451 S
448.813 365.188 391.625 346.125 0 0.45098 0.67451 S
532.188 383.438 496.563 374.25 0 0.45098 0.67451 S
496.563 374.25 532.188 383.438 0 0.45098 0.67451 S
403.813 352.063 391.625 346.125 0 0.45098 0.67451 S
391.625 346.125 403.813 352.063 0 0.45098 0.67451 S
391.625 346.125 340.563 326.25 0 0.45098 0.67451 S
448.813 365.188 492.313 375.438 0 0.45098 0.67451 S
492.313 375.438 448.813 365.188 0 0.780392 1 S
545.25 384.5 532.188 383.438 0 0.45098 0.67451 S
532.188 383.438 545.25 384.5 0 0.45098 0.67451 S
588.75 393.063 545.25 384.5 0 0.45098 0.67451 S
433.5 423.125 480.688 434.563 0 0.811765 1 S
448.813 365.188 403.813 352.063 0 0.768628 1 S
403.813 352.063 448.813 365.188 0 0.45098 0.67451 S
443.25 396.688 448.813 365.188 0 0.768628 1 S
448.813 365.188 443.25 396.688 0 0.780392 1 S
492.313 375.438 532.188 383.438 0 0.45098 0.67451 S
532.188 383.438 492.313 375.438 0 0.74902 1 S
448.813 365.188 484.063 406.313 0 0.780392 1 S
484.063 406.313 448.813 365.188 0 0.780392 1 S
383.188 409.813 433.5 423.125 0 0.8 1 S
433.5 423.125 443.25 396.688 0 0.8 1 S
443.25 396.688 433.5 423.125 0 0.811765 1 S
484.063 406.313 492.313 375.438 0 0.780392 1 S
492.313 375.438 484.063 406.313 0 0.752941 1 S
480.688 434.563 443.25 396.688 0 0.811765 1 S
443.25 396.688 480.688 434.563 0 0.811765 1 S
484.063 406.313 480.688 434.563 0 0.788235 1 S
480.688 434.563 484.063 406.313 0 0.811765 1 S
403.813 352.063 340.563 326.25 0 0.45098 0.67451 S
340.563 326.25 403.813 352.063 0 0.45098 0.67451 S
480.688 434.563 522.688 444.75 0 0.788235 1 S
443.25 396.688 403.813 352.063 0 0.768628 1 S
403.813 352.063 443.25 396.688 0 0.768628 1 S
545.25 384.5 566.5 389.438 0 0.45098 0.67451 S
566.5 389.438 545.25 384.5 0 0.45098 0.67451 S
433.5 423.125 399.875 384.688 0 0.8 1 S
399.875 384.688 433.5 423.125 0 0.8 1 S
520.25 414 492.313 375.438 0 0.752941 1 S
492.313 375.438 520.25 414 0 0.74902 1 S
484.063 406.313 443.25 396.688 0 0.811765 1 S
443.25 396.688 484.063 406.313 0 0.780392 1 S
399.875 384.688 403.813 352.063 0 0.713726 1 S
403.813 352.063 399.875 384.688 0 0.768628 1 S
522.688 444.75 484.063 406.313 0 0.788235 1 S
484.063 406.313 522.688 444.75 0 0.792157 1 S
399.875 384.688 383.188 409.813 0 0.8 1 S
383.188 409.813 399.875 384.688 0 0.760784 1 S
443.25 396.688 399.875 384.688 0 0.8 1 S
399.875 384.688 443.25 396.688 0 0.768628 1 S
532.188 383.438 520.25 414 0 0.682353 1 S
520.25 414 532.188 383.438 0 0.74902 1 S
360.563 335.25 403.813 352.063 0 0.45098 0.67451 S
403.813 352.063 360.563 335.25 0 0.713726 1 S
520.25 414 484.063 406.313 0 0.792157 1 S
484.063 406.313 520.25 414 0 0.752941 1 S
340.563 326.25 360.563 335.25 0 0.45098 0.67451 S
522.688 444.75 520.25 414 0 0.792157 1 S
520.25 414 522.688 444.75 0 0.729412 1 S
566.5 389.438 532.188 383.438 0 0.682353 1 S
532.188 383.438 566.5 389.438 0 0.45098 0.67451 S
566.5 389.438 588.75 393.063 0 0.45098 0.67451 S
333 393.813 383.188 409.813 0 0.760784 1 S
360.563 335.25 399.875 384.688 0 0.713726 1 S
399.875 384.688 360.563 335.25 0 0.713726 1 S
522.688 444.75 557.5 453.625 0 0.729412 1 S
532.188 383.438 550.188 419.938 0 0.682353 1 S
550.188 419.938 532.188 383.438 0 0.682353 1 S
357.375 369.75 383.188 409.813 0 0.760784 1 S
383.188 409.813 357.375 369.75 0 0.760784 1 S
520.25 414 557.5 453.625 0 0.737255 1 S
557.5 453.625 520.25 414 0 0.729412 1 S
357.375 369.75 399.875 384.688 0 0.713726 1 S
399.875 384.688 357.375 369.75 0 0.760784 1 S
550.188 419.938 520.25 414 0 0.737255 1 S
520.25 414 550.188 419.938 0 0.682353 1 S
566.5 389.438 550.188 419.938 0 0.588235 0.94902 S
550.188 419.938 566.5 389.438 0 0.682353 1 S
360.563 335.25 357.375 369.75 0 0.713726 1 S
357.375 369.75 360.563 335.25 0 0.623529 1 S
478.563 211.125 448.5 223.938 0 0.478431 0.729412 S
550.188 419.938 557.5 453.625 0 0.643137 1 S
557.5 453.625 550.188 419.938 0 0.737255 1 S
333 393.813 357.375 369.75 0 0.701961 1 S
357.375 369.75 333 393.813 0 0.760784 1 S
593.875 393.5 566.5 389.438 0 0.592157 0.960784 S
572.563 423.938 566.5 389.438 0 0.588235 0.94902 S
566.5 389.438 572.563 423.938 0 0.592157 0.960784 S
360.563 335.25 324 313.625 0 0.623529 1 S
448.5 223.938 421.563 237.313 0 0.494118 0.764706 S
509.75 197.25 478.563 211.125 0 0.478431 0.733333 S
478.563 211.125 485.813 208.375 0 0.478431 0.733333 S
485.813 208.375 478.563 211.125 0 0.478431 0.729412 S
557.5 453.625 583.563 461 0 0.643137 1 S
550.188 419.938 583.563 461 0 0.658824 1 S
583.563 461 550.188 419.938 0 0.643137 1 S
485.813 208.375 448.5 223.938 0 0.494118 0.764706 S
448.5 223.938 485.813 208.375 0 0.478431 0.729412 S
572.563 423.938 550.188 419.938 0 0.658824 1 S
550.188 419.938 572.563 423.938 0 0.588235 0.94902 S
357.375 369.75 324 313.625 0 0.623529 1 S
324 313.625 357.375 369.75 0 0.623529 1 S
463.688 219.063 448.5 223.938 0 0.494118 0.764706 S
448.5 223.938 463.688 219.063 0 0.494118 0.764706 S
287.813 373.563 333 393.813 0 0.701961 1 S
333 393.813 320.5 350.625 0 0.701961 1 S
320.5 350.625 333 393.813 0 0.701961 1 S
572.563 423.938 593.875 393.5 0 0.592157 0.960784 S
593.875 393.5 572.563 423.938 0 0.478431 0.729412 S
512 270.313 535.5 259.563 0 0.784314 1 S
491 280.938 512 270.313 0 0.768628 1 S
320.5 350.625 357.375 369.75 0 0.623529 1 S
357.375 369.75 320.5 350.625 0 0.701961 1 S
463.688 219.063 421.563 237.313 0 0.509804 0.796079 S
421.563 237.313 463.688 219.063 0 0.494118 0.764706 S
485.813 208.375 509.75 197.25 0 0.478431 0.733333 S
509.75 197.25 485.813 208.375 0 0.803922 1 S
583.563 461 572.563 423.938 0 0.658824 1 S
572.563 423.938 583.563 461 0 0.541176 0.862745 S
560.438 248.688 603.375 232.063 0 0.490196 0.752941 S
421.563 237.313 399 251.875 0 0.517647 0.807843 S
534.688 185.5 509.75 197.25 0 0.780392 1 S
535.5 259.563 560.438 248.688 0 0.772549 1 S
485.813 208.375 463.688 219.063 0 0.796079 1 S
463.688 219.063 485.813 208.375 0 0.494118 0.764706 S
473.563 291.688 491 280.938 0 0.72549 1 S
421.563 237.313 444.188 229.875 0 0.509804 0.796079 S
444.188 229.875 421.563 237.313 0 0.517647 0.807843 S
612.75 395.5 593.875 393.5 0 0.490196 0.756863 S
512 270.313 503.313 238.875 0 0.768628 1 S
503.313 238.875 512 270.313 0 0.784314 1 S
503.313 238.875 535.5 259.563 0 0.792157 1 S
535.5 259.563 503.313 238.875 0 0.784314 1 S
535.5 259.563 522.375 228.875 0 0.792157 1 S
522.375 228.875 535.5 259.563 0 0.772549 1 S
522.375 228.875 509.75 197.25 0 0.803922 1 S
509.75 197.25 522.375 228.875 0 0.780392 1 S
485.813 208.375 503.313 238.875 0 0.811765 1 S
503.313 238.875 485.813 208.375 0 0.796079 1 S
512 270.313 486.063 248.5 0 0.768628 1 S
486.063 248.5 512 270.313 0 0.768628 1 S
485.813 208.375 522.375 228.875 0 0.803922 1 S
522.375 228.875 485.813 208.375 0 0.811765 1 S
586.563 425.875 593.875 393.5 0 0.478431 0.729412 S
593.875 393.5 586.563 425.875 0 0.490196 0.756863 S
603.375 232.063 585.438 237.438 0 0.490196 0.752941 S
585.438 237.438 603.375 232.063 0 0.47451 0.72549 S
260.438 358.313 287.813 373.563 0 0.576471 0.92549 S
486.063 248.5 491 280.938 0 0.768628 1 S
491 280.938 486.063 248.5 0 0.72549 1 S
603.375 232.063 636.563 218.813 0 0.47451 0.72549 S
324 313.625 320.5 350.625 0 0.623529 1 S
320.5 350.625 324 313.625 0 0.509804 0.796079 S
542.5 218.25 509.75 197.25 0 0.780392 1 S
509.75 197.25 542.5 218.25 0 0.780392 1 S
463.688 219.063 503.313 238.875 0 0.796079 1 S
503.313 238.875 463.688 219.063 0 0.811765 1 S
559.813 172.688 534.688 185.5 0 0.733333 1 S
560.438 248.688 522.375 228.875 0 0.772549 1 S
522.375 228.875 560.438 248.688 0 0.792157 1 S
444.188 229.875 463.688 219.063 0 0.509804 0.796079 S
463.688 219.063 444.188 229.875 0 0.772549 1 S
486.063 248.5 463.688 219.063 0 0.772549 1 S
463.688 219.063 486.063 248.5 0 0.811765 1 S
542.5 218.25 534.688 185.5 0 0.780392 1 S
534.688 185.5 542.5 218.25 0 0.72549 1 S
572.563 423.938 586.563 425.875 0 0.478431 0.729412 S
586.563 425.875 572.563 423.938 0 0.560784 0.894118 S
542.5 218.25 560.438 248.688 0 0.741176 1 S
560.438 248.688 542.5 218.25 0 0.792157 1 S
560.438 248.688 585.438 237.438 0 0.741176 1 S
585.438 237.438 560.438 248.688 0 0.490196 0.752941 S
491 280.938 471.375 257.813 0 0.72549 1 S
471.375 257.813 491 280.938 0 0.72549 1 S
399 251.875 444.188 229.875 0 0.517647 0.807843 S
444.188 229.875 399 251.875 0 0.52549 0.827451 S
522.375 228.875 503.313 238.875 0 0.792157 1 S
503.313 238.875 522.375 228.875 0 0.811765 1 S
460.5 302.5 473.563 291.688 0 0.666667 1 S
583.563 461 599.438 466.313 0 0.541176 0.862745 S
599.438 466.313 572.563 423.938 0 0.541176 0.862745 S
572.563 423.938 599.438 466.313 0 0.560784 0.894118 S
486.063 248.5 503.313 238.875 0 0.811765 1 S
503.313 238.875 486.063 248.5 0 0.768628 1 S
287.813 373.563 320.5 350.625 0 0.635294 1 S
320.5 350.625 287.813 373.563 0 0.701961 1 S
473.563 291.688 471.375 257.813 0 0.662745 1 S
471.375 257.813 473.563 291.688 0 0.72549 1 S
542.5 218.25 522.375 228.875 0 0.792157 1 S
522.375 228.875 542.5 218.25 0 0.780392 1 S
486.063 248.5 444.188 229.875 0 0.784314 1 S
444.188 229.875 486.063 248.5 0 0.772549 1 S
562.688 207 534.688 185.5 0 0.72549 1 S
534.688 185.5 562.688 207 0 0.733333 1 S
585.438 237.438 542.5 218.25 0 0.741176 1 S
542.5 218.25 585.438 237.438 0 0.764706 1 S
471.375 257.813 444.188 229.875 0 0.729412 1 S
444.188 229.875 471.375 257.813 0 0.784314 1 S
585.438 237.438 636.563 218.813 0 0.509804 0.792157 S
636.563 218.813 585.438 237.438 0 0.47451 0.72549 S
486.063 248.5 471.375 257.813 0 0.72549 1 S
471.375 257.813 486.063 248.5 0 0.784314 1 S
399 251.875 428 241.125 0 0.52549 0.827451 S
428 241.125 399 251.875 0 0.545098 0.866667 S
612.75 395.5 586.563 425.875 0 0.45098 0.67451 S
586.563 425.875 612.75 395.5 0 0.490196 0.756863 S
460 267.125 473.563 291.688 0 0.662745 1 S
473.563 291.688 460 267.125 0 0.666667 1 S
562.688 207 559.813 172.688 0 0.733333 1 S
559.813 172.688 562.688 207 0 0.65098 1 S
399 251.875 382.25 268.188 0 0.545098 0.866667 S
428 241.125 444.188 229.875 0 0.52549 0.827451 S
444.188 229.875 428 241.125 0 0.729412 1 S
583.688 158.625 559.813 172.688 0 0.662745 1 S
542.5 218.25 562.688 207 0 0.72549 1 S
562.688 207 542.5 218.25 0 0.764706 1 S
562.688 207 585.438 237.438 0 0.682353 1 S
585.438 237.438 562.688 207 0 0.764706 1 S
324 313.625 300.875 286.313 0 0.509804 0.796079 S
586.563 425.875 599.438 466.313 0 0.45098 0.67451 S
599.438 466.313 586.563 425.875 0 0.560784 0.894118 S
452.438 313.5 460.5 302.5 0 0.588235 0.94902 S
460 267.125 460.5 302.5 0 0.666667 1 S
460.5 302.5 460 267.125 0 0.584314 0.941177 S
428 241.125 471.375 257.813 0 0.729412 1 S
471.375 257.813 428 241.125 0 0.737255 1 S
608.813 225.813 585.438 237.438 0 0.509804 0.792157 S
585.438 237.438 608.813 225.813 0 0.682353 1 S
460 267.125 471.375 257.813 0 0.737255 1 S
471.375 257.813 460 267.125 0 0.662745 1 S
581.5 195.063 559.813 172.688 0 0.65098 1 S
559.813 172.688 581.5 195.063 0 0.662745 1 S
608.813 225.813 636.563 218.813 0 0.494118 0.760784 S
636.563 218.813 608.813 225.813 0 0.509804 0.792157 S
320.5 350.625 300.875 286.313 0 0.509804 0.796079 S
300.875 286.313 320.5 350.625 0 0.509804 0.796079 S
219.938 326.375 260.438 358.313 0 0.576471 0.92549 S
591.625 425.313 612.75 395.5 0 0.45098 0.67451 S
612.75 395.5 591.625 425.313 0 0.45098 0.67451 S
621.875 395.063 612.75 395.5 0 0.45098 0.67451 S
428 241.125 460 267.125 0 0.737255 1 S
460 267.125 428 241.125 0 0.682353 1 S
428 241.125 382.25 268.188 0 0.54902 0.870588 S
382.25 268.188 428 241.125 0 0.545098 0.866667 S
562.688 207 608.813 225.813 0 0.709804 1 S
608.813 225.813 562.688 207 0 0.682353 1 S
460.5 302.5 452.625 276.688 0 0.588235 0.94902 S
452.625 276.688 460.5 302.5 0 0.584314 0.941177 S
591.625 425.313 586.563 425.875 0 0.45098 0.682353 S
586.563 425.875 591.625 425.313 0 0.45098 0.67451 S
581.5 195.063 562.688 207 0 0.709804 1 S
562.688 207 581.5 195.063 0 0.65098 1 S
260.438 358.313 255.438 347.375 0 0.576471 0.92549 S
255.438 347.375 260.438 358.313 0 0.576471 0.92549 S
583.688 158.625 581.5 195.063 0 0.552941 0.882353 S
581.5 195.063 583.688 158.625 0 0.662745 1 S
636.563 218.813 665.875 204.875 0 0.494118 0.760784 S
287.813 373.563 296.563 326.438 0 0.635294 1 S
296.563 326.438 287.813 373.563 0 0.635294 1 S
604.25 468.875 586.563 425.875 0 0.45098 0.67451 S
586.563 425.875 604.25 468.875 0 0.45098 0.682353 S
428 241.125 416.563 253.313 0 0.682353 1 S
416.563 253.313 428 241.125 0 0.54902 0.870588 S
320.5 350.625 296.563 326.438 0 0.635294 1 S
296.563 326.438 320.5 350.625 0 0.509804 0.796079 S
449.875 324.688 452.438 313.5 0 0.498039 0.768628 S
452.625 276.688 452.438 313.5 0 0.588235 0.94902 S
452.438 313.5 452.625 276.688 0 0.494118 0.768628 S
608.813 225.813 581.5 195.063 0 0.709804 1 S
581.5 195.063 608.813 225.813 0 0.607843 0.988235 S
452.625 276.688 460 267.125 0 0.682353 1 S
460 267.125 452.625 276.688 0 0.584314 0.941177 S
599.438 466.313 604.25 468.875 0 0.45098 0.67451 S
416.563 253.313 460 267.125 0 0.682353 1 S
460 267.125 416.563 253.313 0 0.682353 1 S
416.563 253.313 382.25 268.188 0 0.584314 0.941177 S
382.25 268.188 416.563 253.313 0 0.54902 0.870588 S
287.813 373.563 255.438 347.375 0 0.576471 0.92549 S
255.438 347.375 287.813 373.563 0 0.635294 1 S
604.25 143.25 583.688 158.625 0 0.572549 0.917647 S
591.625 425.313 621.875 395.063 0 0.45098 0.67451 S
665.875 204.875 608.813 225.813 0 0.494118 0.760784 S
608.813 225.813 665.875 204.875 0 0.521569 0.819608 S
452.438 313.5 450.125 286.813 0 0.498039 0.768628 S
450.125 286.813 452.438 313.5 0 0.494118 0.768628 S
583.688 158.625 597.063 182.5 0 0.572549 0.917647 S
597.063 182.5 583.688 158.625 0 0.552941 0.882353 S
416.563 253.313 452.625 276.688 0 0.682353 1 S
452.625 276.688 416.563 253.313 0 0.627451 1 S
382.25 268.188 373.5 286.875 0 0.584314 0.941177 S
604.25 468.875 591.625 425.313 0 0.45098 0.682353 S
628.375 213.875 608.813 225.813 0 0.521569 0.819608 S
608.813 225.813 628.375 213.875 0 0.607843 0.988235 S
581.5 195.063 628.375 213.875 0 0.631373 1 S
628.375 213.875 581.5 195.063 0 0.607843 0.988235 S
597.063 182.5 581.5 195.063 0 0.631373 1 S
581.5 195.063 597.063 182.5 0 0.552941 0.882353 S
296.563 326.438 300.875 286.313 0 0.45098 0.67451 S
450.125 286.813 449.875 324.688 0 0.498039 0.768628 S
300.875 286.313 296.563 326.438 0 0.509804 0.796079 S
373.5 286.875 375.563 324.75 0 0.494118 0.768628 S
452.625 276.688 450.125 286.813 0 0.494118 0.768628 S
450.125 286.813 452.625 276.688 0 0.631373 1 S
373.5 286.875 416.563 253.313 0 0.584314 0.941177 S
416.563 253.313 373.5 286.875 0 0.584314 0.941177 S
452.625 276.688 411.375 267 0 0.631373 1 S
411.375 267 452.625 276.688 0 0.627451 1 S
665.875 204.875 628.375 213.875 0 0.521569 0.819608 S
628.375 213.875 665.875 204.875 0 0.505882 0.788235 S
604.25 143.25 597.063 182.5 0 0.45098 0.67451 S
597.063 182.5 604.25 143.25 0 0.572549 0.917647 S
411.375 267 416.563 253.313 0 0.584314 0.941177 S
416.563 253.313 411.375 267 0 0.627451 1 S
375.563 324.75 377.188 347.188 0 0.494118 0.768628 S
597.063 182.5 628.375 213.875 0 0.513726 0.8 S
628.375 213.875 597.063 182.5 0 0.631373 1 S
255.438 347.375 296.563 326.438 0 0.576471 0.92549 S
411.375 267 450.125 286.813 0 0.631373 1 S
296.563 326.438 255.438 347.375 0 0.635294 1 S
450.125 286.813 411.375 267 0 0.584314 0.941177 S
411.375 267 373.5 286.875 0 0.627451 1 S
255.438 347.375 219.938 326.375 0 0.576471 0.92549 S
373.5 286.875 411.375 267 0 0.584314 0.941177 S
219.938 326.375 255.438 347.375 0 0.635294 1 S
377.188 347.188 373.5 286.875 0 0.494118 0.768628 S
373.5 286.875 377.188 347.188 0 0.498039 0.768628 S
618.375 126.625 604.25 143.25 0 0.466667 0.705882 S
453.5 297.938 450.125 286.813 0 0.584314 0.941177 S
604.25 143.25 606.688 169.625 0 0.466667 0.705882 S
606.688 169.625 604.25 143.25 0 0.45098 0.67451 S
300.875 286.313 299.125 253.625 0 0.45098 0.67451 S
665.875 204.875 687.375 190.438 0 0.505882 0.788235 S
597.063 182.5 606.688 169.625 0 0.45098 0.67451 S
606.688 169.625 597.063 182.5 0 0.533333 0.843137 S
680.125 451.313 665.688 406.375 0 0.572549 0.921569 S
375.188 308.125 373.5 286.875 0 0.498039 0.768628 S
373.5 286.875 375.188 308.125 0 0.627451 1 S
450.125 286.813 414.563 282.625 0 0.584314 0.941177 S
414.563 282.625 450.125 286.813 0 0.584314 0.941177 S
628.375 213.875 640.938 201.938 0 0.513726 0.8 S
640.938 201.938 628.375 213.875 0 0.52549 0.827451 S
640.938 201.938 597.063 182.5 0 0.513726 0.8 S
597.063 182.5 640.938 201.938 0 0.533333 0.843137 S
687.375 190.438 628.375 213.875 0 0.505882 0.788235 S
628.375 213.875 687.375 190.438 0 0.52549 0.827451 S
299.125 253.625 296.563 326.438 0 0.45098 0.67451 S
296.563 326.438 299.125 253.625 0 0.45098 0.67451 S
411.375 267 375.188 308.125 0 0.631373 1 S
375.188 308.125 411.375 267 0 0.627451 1 S
642.938 485.875 648.75 482.688 0 0.623529 1 S
411.375 267 414.563 282.625 0 0.584314 0.941177 S
414.563 282.625 411.375 267 0 0.631373 1 S
375.188 308.125 377.188 347.188 0 0.584314 0.941177 S
377.188 347.188 375.188 308.125 0 0.498039 0.768628 S
678.313 454.375 680.125 451.313 0 0.572549 0.921569 S
648.75 482.688 678.313 454.375 0 0.623529 1 S
414.563 282.625 453.5 297.938 0 0.584314 0.941177 S
453.5 297.938 414.563 282.625 0 0.545098 0.866667 S
463.5 310.188 453.5 297.938 0 0.54902 0.870588 S
606.688 169.625 618.375 126.625 0 0.466667 0.705882 S
296.563 326.438 294.375 296.625 0 0.576471 0.92549 S
294.375 296.625 296.563 326.438 0 0.45098 0.67451 S
377.188 347.188 390.375 371.313 0 0.584314 0.941177 S
640.938 201.938 606.688 169.625 0 0.533333 0.843137 S
606.688 169.625 640.938 201.938 0 0.45098 0.67451 S
665.688 406.375 608.688 385.813 0 0.45098 0.67451 S
294.375 296.625 255.438 347.375 0 0.576471 0.92549 S
255.438 347.375 294.375 296.625 0 0.576471 0.92549 S
414.563 282.625 375.188 308.125 0 0.682353 1 S
375.188 308.125 414.563 282.625 0 0.631373 1 S
640.938 201.938 687.375 190.438 0 0.513726 0.8 S
687.375 190.438 640.938 201.938 0 0.52549 0.827451 S
665.688 406.375 678.313 454.375 0 0.572549 0.921569 S
678.313 454.375 665.688 406.375 0 0.643137 1 S
428 300.25 453.5 297.938 0 0.545098 0.866667 S
453.5 297.938 428 300.25 0 0.54902 0.870588 S
390.375 371.313 375.188 308.125 0 0.584314 0.941177 S
375.188 308.125 390.375 371.313 0 0.588235 0.94902 S
247.25 313.688 219.938 326.375 0 0.635294 1 S
219.938 326.375 247.25 313.688 0 0.635294 1 S
205.063 284.438 219.938 326.375 0 0.635294 1 S
480.563 323.625 463.5 310.188 0 0.521569 0.815686 S
642.938 485.875 678.313 454.375 0 0.690196 1 S
678.313 454.375 642.938 485.875 0 0.623529 1 S
247.25 313.688 255.438 347.375 0 0.576471 0.92549 S
255.438 347.375 247.25 313.688 0 0.635294 1 S
606.875 157.313 606.688 169.625 0 0.45098 0.67451 S
414.563 282.625 428 300.25 0 0.545098 0.866667 S
428 300.25 414.563 282.625 0 0.682353 1 S
428 300.25 463.5 310.188 0 0.54902 0.870588 S
463.5 310.188 428 300.25 0 0.517647 0.815686 S
299.125 253.625 294.375 296.625 0 0.45098 0.67451 S
665.688 406.375 649.875 401.313 0 0.643137 1 S
649.875 401.313 665.688 406.375 0 0.45098 0.67451 S
375.188 308.125 389.688 331.813 0 0.682353 1 S
389.688 331.813 375.188 308.125 0 0.588235 0.94902 S
389.688 331.813 414.563 282.625 0 0.682353 1 S
414.563 282.625 389.688 331.813 0 0.682353 1 S
608.688 385.813 649.875 401.313 0 0.45098 0.67451 S
642.125 190.938 606.688 169.625 0 0.45098 0.67451 S
606.688 169.625 642.125 190.938 0 0.45098 0.67451 S
640.938 201.938 642.125 190.938 0 0.45098 0.67451 S
642.125 190.938 640.938 201.938 0 0.521569 0.819608 S
504.063 337.813 480.563 323.625 0 0.498039 0.772549 S
389.688 331.813 390.375 371.313 0 0.658824 1 S
390.375 371.313 389.688 331.813 0 0.588235 0.94902 S
621.375 484.063 642.938 485.875 0 0.701961 1 S
649.875 401.313 678.313 454.375 0 0.643137 1 S
678.313 454.375 649.875 401.313 0 0.666667 1 S
588.063 376.813 561.25 365.313 0 0.45098 0.67451 S
390.375 371.313 415.438 396.25 0 0.658824 1 S
649.875 401.313 588.063 376.813 0 0.45098 0.67451 S
453 319.625 463.5 310.188 0 0.517647 0.815686 S
463.5 310.188 453 319.625 0 0.521569 0.815686 S
640.938 201.938 694.75 176.5 0 0.521569 0.819608 S
694.75 176.5 640.938 201.938 0 0.513726 0.8 S
532 352 504.063 337.813 0 0.478431 0.733333 S
642.938 485.875 657.813 452.188 0 0.701961 1 S
657.813 452.188 642.938 485.875 0 0.690196 1 S
428 300.25 389.688 331.813 0 0.733333 1 S
389.688 331.813 428 300.25 0 0.682353 1 S
687.375 190.438 694.75 176.5 0 0.513726 0.8 S
561.25 365.313 532 352 0 0.458824 0.690196 S
657.813 452.188 678.313 454.375 0 0.666667 1 S
678.313 454.375 657.813 452.188 0 0.690196 1 S
642.125 190.938 606.875 157.313 0 0.45098 0.67451 S
480.563 323.625 453 319.625 0 0.501961 0.780392 S
453 319.625 480.563 323.625 0 0.521569 0.815686 S
294.375 296.625 247.25 313.688 0 0.576471 0.92549 S
247.25 313.688 294.375 296.625 0 0.52549 0.827451 S
389.688 331.813 415.438 396.25 0 0.666667 1 S
415.438 396.25 389.688 331.813 0 0.658824 1 S
213.125 240.188 205.063 284.438 0 0.623529 1 S
428 300.25 453 319.625 0 0.517647 0.815686 S
453 319.625 428 300.25 0 0.737255 1 S
588.063 376.813 619.438 391.688 0 0.45098 0.67451 S
619.438 391.688 588.063 376.813 0 0.45098 0.67451 S
488.875 339.938 480.563 323.625 0 0.501961 0.780392 S
480.563 323.625 488.875 339.938 0 0.498039 0.772549 S
649.875 401.313 657.813 452.188 0 0.666667 1 S
657.813 452.188 649.875 401.313 0 0.721569 1 S
619.438 391.688 561.25 365.313 0 0.462745 0.698039 S
561.25 365.313 619.438 391.688 0 0.45098 0.67451 S
418.5 357.438 428 300.25 0 0.733333 1 S
428 300.25 418.5 357.438 0 0.737255 1 S
657.813 452.188 621.375 484.063 0 0.701961 1 S
621.375 484.063 657.813 452.188 0 0.74902 1 S
205.063 284.438 247.25 313.688 0 0.701961 1 S
247.25 313.688 205.063 284.438 0 0.635294 1 S
649.875 401.313 619.438 391.688 0 0.721569 1 S
619.438 391.688 649.875 401.313 0 0.45098 0.67451 S
694.75 176.5 642.125 190.938 0 0.521569 0.819608 S
642.125 190.938 694.75 176.5 0 0.509804 0.796079 S
418.5 357.438 389.688 331.813 0 0.666667 1 S
389.688 331.813 418.5 357.438 0 0.733333 1 S
488.875 339.938 504.063 337.813 0 0.498039 0.772549 S
504.063 337.813 488.875 339.938 0 0.490196 0.752941 S
415.438 396.25 451.313 420.875 0 0.721569 1 S
586.313 476.25 621.375 484.063 0 0.752941 1 S
415.438 396.25 418.5 357.438 0 0.666667 1 S
418.5 357.438 415.438 396.25 0 0.721569 1 S
578.313 377.5 561.25 365.313 0 0.458824 0.690196 S
561.25 365.313 578.313 377.5 0 0.462745 0.698039 S
294.375 296.625 321.5 262.875 0 0.52549 0.827451 S
504.063 337.813 532.5 359.75 0 0.478431 0.733333 S
532.5 359.75 504.063 337.813 0 0.490196 0.752941 S
532 352 578.313 377.5 0 0.458824 0.690196 S
578.313 377.5 532 352 0 0.47451 0.72549 S
532.5 359.75 532 352 0 0.478431 0.733333 S
532 352 532.5 359.75 0 0.47451 0.72549 S
657.813 452.188 619.438 391.688 0 0.741176 1 S
619.438 391.688 657.813 452.188 0 0.721569 1 S
694.75 176.5 710.438 126.563 0 0.647059 1 S
418.5 357.438 453 319.625 0 0.737255 1 S
453 319.625 418.5 357.438 0 0.776471 1 S
488.875 339.938 453 319.625 0 0.776471 1 S
453 319.625 488.875 339.938 0 0.501961 0.780392 S
626.75 182.563 642.125 190.938 0 0.513726 0.8 S
621.375 484.063 619.75 443.75 0 0.752941 1 S
619.75 443.75 621.375 484.063 0 0.74902 1 S
418.5 357.438 451.313 420.875 0 0.729412 1 S
451.313 420.875 418.5 357.438 0 0.721569 1 S
321.5 262.875 247.25 313.688 0 0.52549 0.827451 S
247.25 313.688 321.5 262.875 0 0.52549 0.827451 S
451.313 420.875 495.188 443.5 0 0.760784 1 S
239.313 185.25 213.125 240.188 0 0.623529 1 S
619.438 391.688 578.313 377.5 0 0.772549 1 S
578.313 377.5 619.438 391.688 0 0.462745 0.698039 S
542.188 462.438 586.313 476.25 0 0.780392 1 S
657.813 452.188 619.75 443.75 0 0.74902 1 S
619.75 443.75 657.813 452.188 0 0.741176 1 S
453 319.625 460.813 383.438 0 0.776471 1 S
460.813 383.438 453 319.625 0 0.776471 1 S
619.75 443.75 619.438 391.688 0 0.772549 1 S
619.438 391.688 619.75 443.75 0 0.741176 1 S
586.313 476.25 619.75 443.75 0 0.784314 1 S
619.75 443.75 586.313 476.25 0 0.752941 1 S
495.188 443.5 542.188 462.438 0 0.784314 1 S
532.5 359.75 488.875 339.938 0 0.8 1 S
488.875 339.938 532.5 359.75 0 0.490196 0.752941 S
460.813 383.438 451.313 420.875 0 0.760784 1 S
451.313 420.875 460.813 383.438 0 0.729412 1 S
418.5 357.438 460.813 383.438 0 0.776471 1 S
460.813 383.438 418.5 357.438 0 0.729412 1 S
532.5 359.75 578.313 377.5 0 0.47451 0.72549 S
578.313 377.5 532.5 359.75 0 0.8 1 S
642.125 190.938 679.688 165.375 0 0.513726 0.8 S
679.688 165.375 642.125 190.938 0 0.509804 0.796079 S
488.875 339.938 460.813 383.438 0 0.803922 1 S
460.813 383.438 488.875 339.938 0 0.776471 1 S
619.75 443.75 578.313 377.5 0 0.788235 1 S
578.313 377.5 619.75 443.75 0 0.772549 1 S
460.813 383.438 495.188 443.5 0 0.772549 1 S
495.188 443.5 460.813 383.438 0 0.760784 1 S
231.813 232.625 213.125 240.188 0 0.623529 1 S
213.125 240.188 231.813 232.625 0 0.623529 1 S
586.313 476.25 569.063 428.688 0 0.780392 1 S
569.063 428.688 586.313 476.25 0 0.784314 1 S
275.75 272.938 247.25 313.688 0 0.52549 0.827451 S
247.25 313.688 275.75 272.938 0 0.701961 1 S
275.75 272.938 205.063 284.438 0 0.701961 1 S
205.063 284.438 275.75 272.938 0 0.701961 1 S
694.75 176.5 679.688 165.375 0 0.509804 0.796079 S
679.688 165.375 694.75 176.5 0 0.654902 1 S
513.25 408 488.875 339.938 0 0.803922 1 S
488.875 339.938 513.25 408 0 0.8 1 S
569.063 428.688 542.188 462.438 0 0.780392 1 S
542.188 462.438 569.063 428.688 0 0.792157 1 S
513.25 408 495.188 443.5 0 0.784314 1 S
495.188 443.5 513.25 408 0 0.772549 1 S
513.25 408 542.188 462.438 0 0.792157 1 S
542.188 462.438 513.25 408 0 0.784314 1 S
578.313 377.5 569.063 428.688 0 0.788235 1 S
569.063 428.688 578.313 377.5 0 0.8 1 S
569.063 428.688 532.5 359.75 0 0.811765 1 S
532.5 359.75 569.063 428.688 0 0.8 1 S
513.25 408 532.5 359.75 0 0.8 1 S
532.5 359.75 513.25 408 0 0.811765 1 S
694.75 176.5 697.125 108.313 0 0.654902 1 S
697.125 108.313 694.75 176.5 0 0.647059 1 S
231.813 232.625 205.063 284.438 0 0.701961 1 S
205.063 284.438 231.813 232.625 0 0.623529 1 S
710.438 126.563 697.125 108.313 0 0.647059 1 S
619.75 443.75 569.063 428.688 0 0.784314 1 S
569.063 428.688 619.75 443.75 0 0.788235 1 S
460.813 383.438 513.25 408 0 0.803922 1 S
513.25 408 460.813 383.438 0 0.772549 1 S
679.688 165.375 626.75 182.563 0 0.513726 0.8 S
626.75 182.563 679.688 165.375 0 0.501961 0.776471 S
589.875 179.5 626.75 182.563 0 0.498039 0.772549 S
569.063 428.688 513.25 408 0 0.792157 1 S
513.25 408 569.063 428.688 0 0.811765 1 S
275.75 272.938 321.5 262.875 0 0.494118 0.764706 S
321.5 262.875 275.75 272.938 0 0.52549 0.827451 S
321.5 262.875 378.563 229.313 0 0.494118 0.764706 S
697.125 108.313 658.563 73.1875 0 0.678431 1 S
697.125 108.313 679.688 165.375 0 0.654902 1 S
679.688 165.375 697.125 108.313 0 0.733333 1 S
239.313 185.25 231.813 232.625 0 0.713726 1 S
231.813 232.625 239.313 185.25 0 0.623529 1 S
378.563 229.313 275.75 272.938 0 0.494118 0.764706 S
275.75 272.938 378.563 229.313 0 0.494118 0.764706 S
633.375 161.063 626.75 182.563 0 0.501961 0.776471 S
626.75 182.563 633.375 161.063 0 0.498039 0.772549 S
231.813 232.625 275.75 272.938 0 0.760784 1 S
275.75 272.938 231.813 232.625 0 0.701961 1 S
658.563 73.1875 612.063 59.5 0 0.678431 1 S
530.125 185.125 589.875 179.5 0 0.486275 0.745098 S
378.563 229.313 454.375 201.938 0 0.478431 0.733333 S
311.875 129 239.313 185.25 0 0.713726 1 S
697.125 108.313 612.063 59.5 0 0.686275 1 S
612.063 59.5 697.125 108.313 0 0.678431 1 S
633.375 161.063 679.688 165.375 0 0.733333 1 S
679.688 165.375 633.375 161.063 0 0.501961 0.776471 S
633.375 161.063 589.875 179.5 0 0.498039 0.772549 S
589.875 179.5 633.375 161.063 0 0.490196 0.752941 S
454.375 201.938 530.125 185.125 0 0.478431 0.729412 S
346.438 229.688 275.75 272.938 0 0.494118 0.764706 S
275.75 272.938 346.438 229.688 0 0.760784 1 S
646.438 97.4375 679.688 165.375 0 0.733333 1 S
679.688 165.375 646.438 97.4375 0 0.733333 1 S
346.438 229.688 378.563 229.313 0 0.478431 0.733333 S
378.563 229.313 346.438 229.688 0 0.494118 0.764706 S
239.313 185.25 310.188 176.875 0 0.713726 1 S
310.188 176.875 239.313 185.25 0 0.713726 1 S
697.125 108.313 646.438 97.4375 0 0.733333 1 S
646.438 97.4375 697.125 108.313 0 0.686275 1 S
346.438 229.688 231.813 232.625 0 0.760784 1 S
231.813 232.625 346.438 229.688 0 0.760784 1 S
589.875 179.5 552.438 168.813 0 0.486275 0.745098 S
552.438 168.813 589.875 179.5 0 0.490196 0.752941 S
346.438 229.688 454.375 201.938 0 0.478431 0.733333 S
454.375 201.938 346.438 229.688 0 0.478431 0.733333 S
310.188 176.875 231.813 232.625 0 0.760784 1 S
231.813 232.625 310.188 176.875 0 0.713726 1 S
612.063 59.5 646.438 97.4375 0 0.686275 1 S
646.438 97.4375 612.063 59.5 0 0.74902 1 S
552.438 168.813 530.125 185.125 0 0.486275 0.745098 S
530.125 185.125 552.438 168.813 0 0.478431 0.733333 S
612.063 59.5 528.438 60.75 0 0.74902 1 S
530.125 185.125 447.938 192.375 0 0.478431 0.729412 S
447.938 192.375 530.125 185.125 0 0.478431 0.733333 S
646.438 97.4375 633.375 161.063 0 0.733333 1 S
633.375 161.063 646.438 97.4375 0 0.788235 1 S
447.938 192.375 454.375 201.938 0 0.478431 0.729412 S
454.375 201.938 447.938 192.375 0 0.478431 0.733333 S
633.375 161.063 552.438 168.813 0 0.490196 0.752941 S
552.438 168.813 633.375 161.063 0 0.788235 1 S
418.625 84.0625 311.875 129 0 0.768628 1 S
311.875 129 310.188 176.875 0 0.768628 1 S
310.188 176.875 311.875 129 0 0.713726 1 S
528.438 60.75 646.438 97.4375 0 0.74902 1 S
646.438 97.4375 528.438 60.75 0 0.752941 1 S
310.188 176.875 346.438 229.688 0 0.8 1 S
346.438 229.688 310.188 176.875 0 0.760784 1 S
447.938 192.375 346.438 229.688 0 0.478431 0.733333 S
346.438 229.688 447.938 192.375 0 0.8 1 S
528.438 60.75 418.625 84.0625 0 0.780392 1 S
552.5 102.313 633.375 161.063 0 0.788235 1 S
633.375 161.063 552.5 102.313 0 0.788235 1 S
311.875 129 428.688 129.563 0 0.768628 1 S
428.688 129.563 311.875 129 0 0.768628 1 S
552.438 168.813 447.938 192.375 0 0.478431 0.733333 S
447.938 192.375 552.438 168.813 0 0.811765 1 S
447.938 192.375 310.188 176.875 0 0.8 1 S
310.188 176.875 447.938 192.375 0 0.8 1 S
646.438 97.4375 552.5 102.313 0 0.788235 1 S
552.5 102.313 646.438 97.4375 0 0.752941 1 S
528.438 60.75 552.5 102.313 0 0.752941 1 S
552.5 102.313 528.438 60.75 0 0.780392 1 S
552.5 102.313 418.625 84.0625 0 0.780392 1 S
418.625 84.0625 552.5 102.313 0 0.780392 1 S
552.5 102.313 552.438 168.813 0 0.788235 1 S
552.438 168.813 552.5 102.313 0 0.811765 1 S
428.688 129.563 418.625 84.0625 0 0.768628 1 S
418.625 84.0625 428.688 129.563 0 0.780392 1 S
428.688 129.563 552.438 168.813 0 0.811765 1 S
552.438 168.813 428.688 129.563 0 0.811765 1 S
310.188 176.875 428.688 129.563 0 0.768628 1 S
428.688 129.563 310.188 176.875 0 0.8 1 S
428.688 129.563 447.938 192.375 0 0.811765 1 S
447.938 192.375 428.688 129.563 0 0.8 1 S
428.688 129.563 552.5 102.313 0 0.780392 1 S
552.5 102.313 428.688 129.563 0 0.811765 1 S

grestore
showpage
