#VRML V2.0 utf8

# Produced by 3d Toolbox 1.0 (Pierre Alliez, CNET / DIH / HDM)

# Mesh : 299 vertices, 562 faces
DEF Mesh-ROOT Transform {
  translation 0 0 0
  rotation 0 0 0 0
  scale 1 1 1
  children [
    Shape {
      appearance Appearance {
        material Material {
          diffuseColor 0.2 0.3 0.5
          ambientIntensity 0.2
          specularColor 0.1 0.1 0.1
          shininess 0.84
          transparency 0
        }
      }
      geometry DEF Mesh-FACES IndexedFaceSet {
        ccw TRUE
        solid TRUE
        coord DEF Mesh-COORD Coordinate { point [
          -1.92178 0.3346 -1.85165,
          -1.87002 -0.14781 -1.59069,
          -1.80413 -0.5525 -1.6956,
          -1.76538 -0.79938 -1.71997,
          -1.6733 -1.07555 -1.53857,
          -0.909274 -2.23334 -0.6694,
          -0.523504 -2.45282 -0.55391,
          -0.0945979 -2.49029 -0.35773,
          -1.3671 -1.67146 -1.08744,
          -1.6217 -1.00464 -1.28481,
          -1.48412 -1.14375 -1.0138,
          -1.26709 -1.38221 -0.77302,
          -1.13262 -1.75488 -0.7034,
          -0.997273 -2.02999 -0.61376,
          -0.6063 -2.34987 -0.24912,
          -0.292278 -2.45441 -0.19455,
          -0.749425 -2.14981 -0.27787,
          -0.524425 -2.17419 -0.01538,
          -0.37864 -2.35114 -0.03184,
          0.0112959 -2.35901 0.03494,
          -0.299425 -2.20797 0.1315,
          -0.3613 -1.93822 0.11275,
          0.0241007 -1.99407 0.19215,
          0.0200672 -2.22089 0.17631,
          -0.895031 -1.87194 -0.43475,
          -0.989369 -1.55625 -0.48663,
          -0.758823 -1.65409 -0.29595,
          -0.630612 -1.87618 -0.13414,
          -1.7463 -0.68622 -1.50256,
          -1.8285 -0.15256 -1.29875,
          -1.68663 -0.63813 -1.16065,
          -1.5585 -0.6325 -0.88657,
          -1.36918 -1.03682 -0.79397,
          -1.72975 -0.15069 -0.99905,
          -1.52663 -0.16256 -0.71725,
          -1.32662 -0.54875 -0.59537,
          -1.0776 -0.90662 -0.44963,
          -1.10185 -0.42118 -0.3853,
          -0.840287 -0.61995 -0.22463,
          -0.823138 -0.95813 -0.19287,
          -1.00758 -1.24073 -0.42605,
          -0.210322 -1.70047 0.12498,
          -0.396595 -1.64034 0.0626299,
          -0.22571 -1.55642 0.1692,
          0.034325 -1.68441 0.14212,
          -0.3878 -1.51484 0.12227,
          -0.495459 -1.46764 0.00469995,
          -0.423175 -1.38812 0.07462,
          -0.26755 -1.41937 0.17837,
          -0.093175 -1.44375 0.2015,
          0.04245 -1.55062 0.20025,
          -0.160712 -1.2725 0.1591,
          0.0520973 -1.30689 0.19342,
          0.0449109 -1.45008 0.21447,
          -0.559096 -1.57923 -0.10118,
          -0.703687 -1.3107 -0.23734,
          -0.509472 -0.94847 0.0022099,
          -0.445641 -1.10437 0.07041,
          -0.432187 -1.20512 0.05545,
          -0.436573 -1.28856 0.01963,
          -0.310675 -1.28375 0.11275,
          -0.324425 -1.15875 0.15337,
          -0.0538 -1.14188 0.27837,
          -0.193027 -1.13157 0.22564,
          -0.123777 -1.00194 0.28554,
          0.0620973 -1.00371 0.30818,
          0.0549109 -1.14735 0.28568,
          -0.315675 -1.03938 0.19712,
          -0.101526 -0.87048 0.25416,
          -0.263654 -0.58378 0.08371,
          -0.0456414 -0.62484 0.2248,
          0.0728986 -0.6757 0.25665,
          0.0649109 -0.87281 0.26627,
          -0.679347 -0.79313 -0.10342,
          -0.4713 -0.56563 -0.03912,
          -0.109425 -0.42187 0.1615,
          -0.318367 -0.42325 0.15573,
          -0.206959 -0.37914 0.28152,
          -0.0999328 -0.40008 0.34084,
          -0.0128683 -0.47975 0.38743,
          -0.410675 -0.39875 0.06463,
          -0.514929 -0.31438 -0.0916899,
          -0.36255 -0.2475 0.14525,
          -0.27005 -0.325 0.29587,
          -0.0953195 -0.32368 0.46351,
          -0.150675 -0.16816 0.39525,
          -0.0130275 -0.0897 0.47098,
          0.0916966 -0.24653 0.52693,
          0.0824891 -0.49555 0.42205,
          -1.28852 -0.14631 -0.50037,
          -1.44591 0.19008 -0.66184,
          -1.20104 0.17644 -0.50038,
          -0.920373 -0.1363 -0.29835,
          -0.850778 0.21154 -0.35737,
          -1.12354 0.44387 -0.52475,
          -0.865013 0.46888 -0.4535,
          -0.60246 0.47355 -0.41502,
          -0.425615 0.34281 -0.24021,
          -0.546665 0.01544 -0.17118,
          -0.3163 -0.02259 0.00524998,
          -0.215988 -0.08166 0.21568,
          -0.10595 0.20633 0.17771,
          -0.3213 0.70388 -0.33725,
          -0.102578 1.0318 -0.22404,
          0.103299 0.40905 0.21137,
          0.123299 1.20914 -0.19786,
          -1.38852 0.72532 -0.74676,
          -1.43708 0.53121 -0.75402,
          -1.62396 0.72817 -1.01382,
          -1.3435 0.9045 -0.67473,
          -1.26993 0.7813 -0.61998,
          -1.2235 0.64325 -0.60287,
          -1.07293 0.60138 -0.51475,
          -1.14182 0.7255 -0.52689,
          -0.986869 0.73013 -0.471,
          -0.869639 0.60457 -0.47016,
          -0.656925 0.607 -0.456,
          -0.754425 0.73137 -0.456,
          -0.558995 0.72942 -0.48952,
          -0.471925 0.65575 -0.4435,
          -0.518066 0.92151 -0.461,
          -0.352936 1.05373 -0.44895,
          -1.6335 0.27581 -0.8672,
          -1.79788 0.36394 -1.17002,
          -1.89129 0.25607 -1.47727,
          -1.89995 0.53458 -1.73939,
          -1.83537 0.73263 -1.49247,
          -1.79675 0.66738 -1.2706,
          -1.46207 1.02102 -0.86271,
          -1.70413 0.89075 -1.1519,
          -1.56662 1.187 -0.90658,
          -1.20907 1.26151 -0.641,
          -1.77163 1.04137 -1.2869,
          -1.87254 0.83579 -1.83166,
          -1.78591 1.27868 -1.52774,
          -1.63412 1.33637 -0.98843,
          -0.962512 1.31825 -0.52038,
          -0.840792 1.04916 -0.43747,
          -1.09683 1.01151 -0.48581,
          -0.989369 1.51763 -0.48663,
          -0.690675 1.46825 -0.43663,
          -0.735675 1.29247 -0.49799,
          -0.521925 1.20637 -0.49162,
          -0.38255 1.35763 -0.366,
          -0.2988 1.51888 -0.3135,
          -0.650656 1.65138 -0.38975,
          -0.568762 1.957 -0.51163,
          -0.126925 1.88075 -0.46475,
          -1.01856 1.73075 -0.4985,
          -1.31977 1.46012 -0.64975,
          -1.37413 1.64512 -0.69598,
          -1.02799 2.04024 -0.66726,
          0.1337 1.79181 -0.43643,
          0.141177 2.33872 -0.69438,
          -0.446705 2.36984 -0.71475,
          -0.984806 2.337 -0.8428,
          -1.36334 2.16739 -1.01262,
          -1.41291 1.89448 -0.89911,
          -1.67037 1.60575 -1.21942,
          -1.77788 1.5895 -1.64372,
          -1.64909 1.88614 -1.37287,
          1.914 -0.27194 -1.39685,
          1.829 -0.26694 -1.0888,
          1.92275 0.24456 -1.26813,
          1.95431 0.60763 -1.49525,
          1.93025 1.18325 -1.42497,
          1.6165 2.07223 -1.08899,
          1.81838 1.81513 -1.31568,
          1.65502 1.79364 -0.97911,
          1.60963 1.54763 -0.77407,
          1.85943 1.49289 -1.25105,
          1.83338 1.22638 -1.07755,
          1.28691 1.96926 -0.72775,
          1.25707 2.26888 -0.90092,
          0.727479 2.33563 -0.74643,
          0.833738 1.91512 -0.55037,
          0.394325 1.862 -0.47662,
          1.54587 1.37013 -0.7216,
          1.76275 1.0795 -0.99405,
          1.42459 1.17906 -0.711,
          1.64839 0.92018 -0.94355,
          1.22646 1.44825 -0.54537,
          0.903738 1.602 -0.42975,
          1.26646 1.66075 -0.55788,
          0.926862 1.41762 -0.47725,
          0.618075 1.32575 -0.3885,
          0.326547 1.01886 -0.23502,
          0.54745 1.49075 -0.3335,
          0.5637 1.02373 -0.46979,
          1.29275 0.94325 -0.54413,
          1.52174 0.8019 -0.73255,
          0.722049 0.88053 -0.49149,
          0.740594 1.16513 -0.52288,
          0.960726 1.24005 -0.54041,
          1.04894 0.98965 -0.486,
          1.18834 1.25013 -0.57788,
          1.864 0.77325 -1.24315,
          1.92709 0.93802 -1.33466,
          1.93307 0.54738 -1.36892,
          1.78196 0.61937 -1.10262,
          1.98045 0.13006 -1.52024,
          1.92252 -0.32975 -1.64185,
          0.778229 0.43018 -0.44923,
          0.602049 0.31136 -0.26923,
          0.6587 0.61637 -0.4735,
          1.59508 0.43366 -0.83304,
          1.29025 0.36513 -0.586,
          1.39962 0.56075 -0.67225,
          1.77025 0.16644 -0.95592,
          1.64338 -0.26319 -0.79722,
          1.5897 0.0917599 -0.741,
          1.34962 0.0958099 -0.5685,
          0.513075 0.67513 -0.35787,
          0.747606 0.68579 -0.52194,
          0.943131 0.67387 -0.49725,
          1.17586 0.66013 -0.5285,
          1.04815 0.54289 -0.52016,
          1.34275 0.65138 -0.59475,
          1.4631 0.66731 -0.70373,
          0.835613 0.557 -0.49538,
          1.03459 0.40825 -0.50287,
          1.25088 0.5245 -0.57412,
          1.5582 0.63364 -0.82508,
          1.7465 -0.74813 -1.25,
          0.703274 -0.02511 -0.20371,
          0.483075 -0.0456899 -0.016,
          0.199587 -0.09802 0.46266,
          0.326825 -0.18066 0.38337,
          0.293751 0.19433 0.16611,
          0.390966 -0.10045 0.1981,
          0.434325 -0.34562 0.2765,
          0.521825 -0.275 0.12462,
          0.654305 -0.35387 -0.12267,
          1.05758 -0.19775 -0.34884,
          0.950702 -0.67848 -0.27316,
          1.21725 -0.49866 -0.4453,
          0.59745 -0.59938 -0.07038,
          1.00993 0.15303 -0.4059,
          1.4165 -0.23444 -0.56975,
          1.424 -0.63813 -0.66538,
          0.170759 -0.48828 0.38596,
          0.2637 -0.33417 0.45351,
          0.185564 -0.63484 0.22143,
          0.364359 -0.39745 0.26405,
          0.257333 -0.41129 0.33084,
          0.467449 -0.44904 0.13573,
          0.400073 -0.60476 0.0641999,
          0.55745 -0.42813 0.0371201,
          0.25745 -0.43438 0.15088,
          0.617272 -0.98686 -0.02739,
          0.787958 -0.84192 -0.14342,
          0.917487 -1.01688 -0.241,
          0.240336 -1.01362 0.27554,
          0.228525 -0.88168 0.24416,
          0.4237 -1.06626 0.17838,
          0.258112 -1.28397 0.14812,
          0.299587 -1.14989 0.21395,
          0.42245 -1.18 0.13462,
          0.525382 -1.23511 0.0337701,
          0.542201 -1.13605 0.0478899,
          0.16245 -1.15063 0.27025,
          0.3537 -1.43937 0.16025,
          0.399325 -1.305 0.09337,
          0.521552 -1.31977 -0.00279999,
          0.501825 -1.41812 0.0527501,
          0.804566 -1.70493 -0.33595,
          0.617337 -1.61923 -0.13202,
          0.773677 -1.35891 -0.27529,
          0.569495 -1.50016 -0.02361,
          1.06797 -1.30905 -0.47773,
          1.02769 -1.62375 -0.53725,
          0.668993 -1.91667 -0.16512,
          0.408075 -1.96572 0.09337,
          0.462525 -1.67034 0.04214,
          0.30311 -1.57495 0.1587,
          0.181825 -1.45313 0.19275,
          0.465199 -1.54316 0.10227,
          0.2752 -1.71879 0.11498,
          1.299 -1.4622 -0.84057,
          1.14881 -1.82572 -0.76256,
          1.52275 -1.2425 -1.09317,
          1.42475 -1.12598 -0.86481,
          1.65466 -1.11212 -1.37228,
          1.1626 -0.97858 -0.50963,
          1.63587 -0.73312 -0.96655,
          1.78675 -0.79818 -1.59354,
          1.844 -0.67063 -1.78747,
          1.789 -0.91563 -1.80997,
          1.68736 -1.18434 -1.62615,
          0.7637 -2.19919 -0.31788,
          0.54995 -2.20606 -0.04413,
          0.997297 -2.09251 -0.66544,
          0.915612 -1.93069 -0.48287,
          0.92858 -2.24849 -0.70044,
          0.389404 -2.37777 -0.051,
          0.266434 -2.46183 -0.16405,
          0.329325 -2.22609 0.11462,
          0.60604 -2.37525 -0.25689,
          1.36436 -1.7595 -1.15744]
        }
        coordIndex [
          4, 8, 9, -1,
          9, 8, 10, -1,
          10, 8, 11, -1,
          11, 8, 12, -1,
          12, 8, 13, -1,
          13, 8, 5, -1,
          15, 14, 6, -1,
          6, 14, 5, -1,
          5, 14, 16, -1,
          16, 14, 17, -1,
          17, 14, 18, -1,
          18, 14, 15, -1,
          15, 7, 19, -1,
          19, 20, 18, -1,
          18, 20, 17, -1,
          17, 20, 21, -1,
          21, 20, 22, -1,
          22, 20, 23, -1,
          23, 20, 19, -1,
          7, 15, 6, -1,
          15, 19, 18, -1,
          5, 16, 13, -1,
          13, 24, 12, -1,
          12, 24, 25, -1,
          25, 24, 26, -1,
          26, 24, 27, -1,
          27, 24, 16, -1,
          16, 24, 13, -1,
          21, 27, 17, -1,
          16, 17, 27, -1,
          9, 28, 4, -1,
          4, 28, 3, -1,
          3, 28, 2, -1,
          2, 28, 1, -1,
          1, 28, 29, -1,
          29, 28, 30, -1,
          30, 28, 9, -1,
          32, 31, 10, -1,
          10, 31, 30, -1,
          30, 31, 33, -1,
          33, 31, 34, -1,
          34, 31, 35, -1,
          35, 31, 32, -1,
          35, 36, 37, -1,
          37, 36, 38, -1,
          38, 36, 39, -1,
          39, 36, 40, -1,
          40, 36, 11, -1,
          11, 36, 32, -1,
          32, 36, 35, -1,
          10, 30, 9, -1,
          11, 32, 10, -1,
          25, 11, 12, -1,
          11, 25, 40, -1,
          22, 41, 21, -1,
          21, 41, 42, -1,
          42, 41, 43, -1,
          43, 41, 44, -1,
          44, 41, 22, -1,
          42, 45, 46, -1,
          46, 45, 47, -1,
          47, 45, 48, -1,
          48, 45, 43, -1,
          43, 45, 42, -1,
          50, 49, 43, -1,
          43, 49, 48, -1,
          48, 49, 51, -1,
          51, 49, 52, -1,
          52, 49, 53, -1,
          53, 49, 50, -1,
          50, 43, 44, -1,
          46, 54, 42, -1,
          42, 54, 27, -1,
          27, 54, 26, -1,
          21, 42, 27, -1,
          26, 55, 25, -1,
          25, 55, 40, -1,
          40, 55, 39, -1,
          39, 55, 56, -1,
          56, 55, 57, -1,
          57, 55, 58, -1,
          58, 55, 59, -1,
          59, 55, 47, -1,
          47, 55, 46, -1,
          46, 55, 54, -1,
          54, 55, 26, -1,
          48, 60, 47, -1,
          47, 60, 59, -1,
          59, 60, 58, -1,
          58, 60, 61, -1,
          61, 60, 51, -1,
          51, 60, 48, -1,
          52, 62, 51, -1,
          51, 62, 63, -1,
          63, 62, 64, -1,
          64, 62, 65, -1,
          65, 62, 66, -1,
          66, 62, 52, -1,
          64, 67, 63, -1,
          63, 67, 61, -1,
          61, 67, 57, -1,
          57, 67, 56, -1,
          61, 57, 58, -1,
          63, 61, 51, -1,
          64, 68, 67, -1,
          67, 68, 56, -1,
          56, 68, 69, -1,
          69, 68, 70, -1,
          70, 68, 71, -1,
          71, 68, 72, -1,
          72, 68, 65, -1,
          65, 68, 64, -1,
          74, 73, 56, -1,
          56, 73, 39, -1,
          39, 73, 38, -1,
          38, 73, 74, -1,
          74, 56, 69, -1,
          76, 75, 77, -1,
          77, 75, 78, -1,
          78, 75, 79, -1,
          79, 75, 70, -1,
          70, 75, 69, -1,
          69, 80, 74, -1,
          74, 80, 81, -1,
          81, 80, 82, -1,
          82, 80, 83, -1,
          83, 80, 76, -1,
          76, 80, 69, -1,
          76, 77, 83, -1,
          79, 84, 78, -1,
          78, 84, 77, -1,
          77, 84, 83, -1,
          83, 84, 85, -1,
          85, 84, 86, -1,
          86, 84, 87, -1,
          70, 71, 79, -1,
          88, 79, 71, -1,
          87, 84, 79, -1,
          87, 79, 88, -1,
          37, 89, 35, -1,
          35, 89, 34, -1,
          34, 89, 90, -1,
          90, 89, 91, -1,
          91, 89, 92, -1,
          92, 89, 37, -1,
          92, 93, 91, -1,
          91, 93, 94, -1,
          94, 93, 95, -1,
          95, 93, 96, -1,
          96, 93, 97, -1,
          97, 93, 98, -1,
          98, 93, 92, -1,
          74, 81, 38, -1,
          37, 38, 92, -1,
          81, 92, 38, -1,
          98, 92, 81, -1,
          98, 81, 99, -1,
          82, 99, 81, -1,
          85, 100, 82, -1,
          82, 100, 99, -1,
          85, 82, 83, -1,
          85, 101, 100, -1,
          100, 101, 99, -1,
          99, 101, 97, -1,
          97, 101, 102, -1,
          102, 101, 103, -1,
          103, 101, 104, -1,
          104, 101, 86, -1,
          86, 101, 85, -1,
          86, 87, 104, -1,
          99, 97, 98, -1,
          30, 33, 29, -1,
          105, 103, 104, -1,
          107, 106, 108, -1,
          108, 106, 109, -1,
          109, 106, 110, -1,
          110, 106, 111, -1,
          111, 106, 107, -1,
          94, 112, 111, -1,
          111, 112, 113, -1,
          113, 112, 114, -1,
          114, 112, 115, -1,
          115, 112, 95, -1,
          95, 112, 94, -1,
          96, 116, 95, -1,
          95, 116, 115, -1,
          115, 116, 117, -1,
          118, 116, 119, -1,
          119, 116, 96, -1,
          110, 111, 113, -1,
          114, 115, 117, -1,
          118, 119, 120, -1,
          102, 120, 119, -1,
          102, 119, 97, -1,
          121, 102, 103, -1,
          121, 120, 102, -1,
          94, 107, 91, -1,
          90, 91, 107, -1,
          107, 122, 90, -1,
          90, 122, 34, -1,
          34, 122, 33, -1,
          33, 122, 123, -1,
          123, 122, 108, -1,
          108, 122, 107, -1,
          94, 111, 107, -1,
          97, 119, 96, -1,
          29, 124, 1, -1,
          1, 124, 0, -1,
          0, 124, 125, -1,
          125, 124, 126, -1,
          126, 124, 127, -1,
          127, 124, 123, -1,
          123, 124, 29, -1,
          108, 127, 123, -1,
          109, 128, 108, -1,
          108, 128, 129, -1,
          129, 128, 130, -1,
          130, 128, 131, -1,
          131, 128, 109, -1,
          108, 129, 127, -1,
          126, 127, 129, -1,
          129, 132, 126, -1,
          126, 132, 133, -1,
          133, 132, 134, -1,
          134, 132, 135, -1,
          135, 132, 130, -1,
          130, 132, 129, -1,
          137, 136, 138, -1,
          138, 136, 131, -1,
          131, 136, 139, -1,
          139, 136, 140, -1,
          140, 136, 141, -1,
          141, 136, 137, -1,
          120, 142, 137, -1,
          137, 142, 141, -1,
          141, 142, 140, -1,
          140, 142, 143, -1,
          143, 142, 121, -1,
          121, 142, 120, -1,
          131, 109, 138, -1,
          103, 143, 121, -1,
          103, 144, 143, -1,
          143, 144, 145, -1,
          145, 144, 146, -1,
          146, 144, 147, -1,
          147, 144, 105, -1,
          105, 144, 103, -1,
          143, 145, 140, -1,
          139, 140, 145, -1,
          145, 148, 139, -1,
          139, 148, 149, -1,
          149, 148, 150, -1,
          150, 148, 151, -1,
          151, 148, 146, -1,
          146, 148, 145, -1,
          139, 149, 131, -1,
          149, 130, 131, -1,
          130, 149, 135, -1,
          135, 149, 150, -1,
          105, 152, 147, -1,
          153, 147, 152, -1,
          154, 147, 153, -1,
          147, 154, 146, -1,
          151, 146, 154, -1,
          151, 154, 155, -1,
          151, 155, 156, -1,
          151, 156, 157, -1,
          151, 157, 150, -1,
          150, 158, 135, -1,
          135, 158, 134, -1,
          134, 158, 159, -1,
          159, 158, 160, -1,
          160, 158, 157, -1,
          157, 158, 150, -1,
          160, 157, 156, -1,
          126, 133, 125, -1,
          0, 125, 133, -1,
          33, 123, 29, -1,
          162, 161, 163, -1,
          167, 166, 168, -1,
          168, 169, 170, -1,
          167, 168, 170, -1,
          171, 165, 170, -1,
          169, 171, 170, -1,
          172, 169, 168, -1,
          172, 168, 166, -1,
          172, 166, 173, -1,
          172, 173, 174, -1,
          172, 174, 175, -1,
          176, 175, 174, -1,
          174, 153, 176, -1,
          153, 152, 176, -1,
          105, 176, 152, -1,
          171, 169, 177, -1,
          178, 171, 177, -1,
          177, 179, 178, -1,
          180, 178, 179, -1,
          181, 179, 177, -1,
          175, 182, 183, -1,
          172, 175, 183, -1,
          169, 172, 183, -1,
          177, 169, 183, -1,
          181, 177, 183, -1,
          182, 181, 183, -1,
          181, 182, 184, -1,
          185, 184, 182, -1,
          105, 186, 187, -1,
          176, 105, 187, -1,
          175, 176, 187, -1,
          182, 175, 187, -1,
          185, 182, 187, -1,
          186, 185, 187, -1,
          186, 188, 185, -1,
          179, 189, 190, -1,
          188, 191, 192, -1,
          185, 188, 192, -1,
          184, 185, 192, -1,
          193, 184, 192, -1,
          194, 193, 192, -1,
          191, 194, 192, -1,
          193, 194, 195, -1,
          184, 193, 195, -1,
          181, 184, 195, -1,
          179, 181, 195, -1,
          189, 179, 195, -1,
          194, 189, 195, -1,
          178, 196, 197, -1,
          171, 178, 197, -1,
          165, 171, 197, -1,
          196, 164, 197, -1,
          164, 196, 198, -1,
          199, 198, 196, -1,
          179, 190, 180, -1,
          196, 178, 180, -1,
          199, 196, 180, -1,
          190, 199, 180, -1,
          199, 163, 198, -1,
          163, 161, 200, -1,
          198, 163, 200, -1,
          164, 198, 200, -1,
          161, 201, 200, -1,
          203, 202, 204, -1,
          206, 205, 207, -1,
          199, 205, 208, -1,
          163, 199, 208, -1,
          162, 163, 208, -1,
          209, 162, 208, -1,
          210, 209, 208, -1,
          205, 210, 208, -1,
          210, 205, 211, -1,
          206, 211, 205, -1,
          188, 212, 191, -1,
          188, 186, 212, -1,
          212, 203, 204, -1,
          213, 191, 204, -1,
          215, 214, 216, -1,
          218, 217, 207, -1,
          204, 202, 219, -1,
          213, 204, 219, -1,
          214, 213, 219, -1,
          216, 214, 219, -1,
          220, 216, 219, -1,
          202, 220, 219, -1,
          220, 206, 221, -1,
          216, 220, 221, -1,
          215, 216, 221, -1,
          217, 215, 221, -1,
          207, 217, 221, -1,
          206, 207, 221, -1,
          207, 205, 222, -1,
          218, 207, 222, -1,
          190, 218, 222, -1,
          199, 190, 222, -1,
          205, 199, 222, -1,
          105, 104, 186, -1,
          223, 161, 162, -1,
          225, 224, 203, -1,
          226, 104, 87, -1,
          226, 227, 228, -1,
          104, 226, 228, -1,
          186, 104, 228, -1,
          212, 186, 228, -1,
          203, 212, 228, -1,
          225, 203, 228, -1,
          229, 225, 228, -1,
          227, 229, 228, -1,
          227, 230, 231, -1,
          231, 225, 229, -1,
          227, 231, 229, -1,
          231, 232, 225, -1,
          224, 225, 232, -1,
          224, 232, 233, -1,
          232, 234, 233, -1,
          235, 233, 234, -1,
          236, 234, 232, -1,
          224, 233, 237, -1,
          203, 224, 237, -1,
          202, 203, 237, -1,
          220, 202, 237, -1,
          206, 220, 237, -1,
          211, 206, 237, -1,
          233, 211, 237, -1,
          233, 235, 238, -1,
          211, 233, 238, -1,
          210, 211, 238, -1,
          209, 210, 238, -1,
          239, 209, 238, -1,
          235, 239, 238, -1,
          87, 88, 240, -1,
          87, 240, 241, -1,
          88, 71, 240, -1,
          242, 240, 71, -1,
          226, 87, 241, -1,
          227, 226, 241, -1,
          230, 227, 241, -1,
          243, 230, 241, -1,
          244, 243, 241, -1,
          240, 244, 241, -1,
          245, 230, 243, -1,
          245, 246, 247, -1,
          230, 245, 247, -1,
          231, 230, 247, -1,
          232, 231, 247, -1,
          236, 232, 247, -1,
          246, 236, 247, -1,
          242, 246, 248, -1,
          240, 242, 248, -1,
          244, 240, 248, -1,
          243, 244, 248, -1,
          245, 243, 248, -1,
          246, 245, 248, -1,
          236, 246, 249, -1,
          234, 236, 250, -1,
          251, 234, 250, -1,
          249, 251, 250, -1,
          236, 249, 250, -1,
          65, 252, 253, -1,
          72, 65, 253, -1,
          71, 72, 253, -1,
          242, 71, 253, -1,
          246, 242, 253, -1,
          249, 246, 253, -1,
          254, 249, 253, -1,
          252, 254, 253, -1,
          256, 255, 257, -1,
          257, 258, 259, -1,
          259, 249, 254, -1,
          257, 259, 254, -1,
          256, 257, 254, -1,
          252, 256, 254, -1,
          66, 52, 260, -1,
          65, 66, 260, -1,
          252, 65, 260, -1,
          256, 252, 260, -1,
          255, 256, 260, -1,
          52, 255, 260, -1,
          255, 261, 262, -1,
          257, 255, 262, -1,
          258, 257, 262, -1,
          263, 258, 262, -1,
          264, 263, 262, -1,
          261, 264, 262, -1,
          266, 265, 267, -1,
          268, 266, 267, -1,
          264, 268, 267, -1,
          263, 264, 267, -1,
          258, 263, 267, -1,
          259, 258, 267, -1,
          249, 259, 267, -1,
          251, 249, 267, -1,
          269, 251, 267, -1,
          270, 269, 267, -1,
          265, 270, 267, -1,
          272, 271, 273, -1,
          271, 265, 266, -1,
          273, 271, 266, -1,
          268, 273, 266, -1,
          50, 44, 274, -1,
          53, 50, 275, -1,
          52, 53, 275, -1,
          255, 52, 275, -1,
          261, 255, 275, -1,
          274, 261, 275, -1,
          50, 274, 275, -1,
          274, 273, 276, -1,
          261, 274, 276, -1,
          264, 261, 276, -1,
          268, 264, 276, -1,
          273, 268, 276, -1,
          44, 22, 277, -1,
          274, 44, 277, -1,
          273, 274, 277, -1,
          272, 273, 277, -1,
          22, 272, 277, -1,
          278, 269, 270, -1,
          270, 279, 278, -1,
          278, 280, 281, -1,
          280, 282, 223, -1,
          281, 239, 283, -1,
          278, 281, 283, -1,
          269, 278, 283, -1,
          251, 269, 283, -1,
          234, 251, 283, -1,
          235, 234, 283, -1,
          239, 235, 283, -1,
          239, 281, 284, -1,
          209, 239, 284, -1,
          162, 209, 284, -1,
          223, 162, 284, -1,
          280, 223, 284, -1,
          281, 280, 284, -1,
          223, 282, 285, -1,
          161, 223, 285, -1,
          201, 161, 285, -1,
          286, 201, 285, -1,
          287, 286, 285, -1,
          288, 287, 285, -1,
          282, 288, 285, -1,
          289, 271, 290, -1,
          272, 290, 271, -1,
          289, 291, 292, -1,
          271, 289, 292, -1,
          265, 271, 292, -1,
          270, 265, 292, -1,
          279, 270, 292, -1,
          291, 279, 292, -1,
          293, 291, 289, -1,
          295, 294, 19, -1,
          23, 19, 296, -1,
          22, 23, 296, -1,
          272, 22, 296, -1,
          290, 272, 296, -1,
          294, 290, 296, -1,
          19, 294, 296, -1,
          295, 19, 7, -1,
          294, 295, 297, -1,
          290, 294, 297, -1,
          289, 290, 297, -1,
          293, 289, 297, -1,
          291, 293, 298, -1,
          279, 291, 298, -1,
          278, 279, 298, -1,
          280, 278, 298, -1,
          282, 280, 298, -1,
          288, 282, 298, -1,
          138, 109, 110, -1,
          138, 110, 113, -1,
          138, 113, 114, -1,
          138, 114, 137, -1,
          137, 117, 120, -1,
          120, 117, 118, -1,
          191, 213, 214, -1,
          215, 194, 214, -1,
          189, 194, 215, -1,
          189, 215, 217, -1,
          190, 189, 217, -1,
          204, 191, 212, -1,
          218, 190, 217, -1,
          137, 114, 117, -1,
          118, 117, 116, -1,
          191, 214, 194, -1,
          76, 69, 75, -1]
        }
      }
    ]
  }

